INFO 2022-12-31 05:05:16,360 basehttp 32133 140078386317056 "GET /api/plasmids?name=pESC-HIS HTTP/1.1" 200 6722
INFO 2022-12-31 05:05:17,566 basehttp 32133 140078386317056 "POST /api/features HTTP/1.1" 200 5577
INFO 2022-12-31 05:16:28,116 basehttp 32133 140078386317056 "GET /api/plasmids?name=pESC-HIS HTTP/1.1" 200 6722
INFO 2022-12-31 05:16:29,103 basehttp 32133 140078386317056 "POST /api/features HTTP/1.1" 200 5577
INFO 2022-12-31 05:16:33,628 basehttp 32133 140078386317056 "GET /api/plasmids?name=pESC-HIS HTTP/1.1" 200 6722
INFO 2022-12-31 05:16:34,905 basehttp 32133 140078386317056 "POST /api/features HTTP/1.1" 200 5577
INFO 2022-12-31 05:17:24,643 basehttp 32133 140078386317056 "GET /api/plasmids?name=pESC-HIS HTTP/1.1" 200 6722
INFO 2022-12-31 05:17:25,404 basehttp 32133 140078386317056 "POST /api/features HTTP/1.1" 200 5577
INFO 2022-12-31 05:22:49,732 basehttp 32133 140078386317056 "GET /api/plasmids?name=pESC-HIS HTTP/1.1" 200 6722
INFO 2022-12-31 05:22:50,850 basehttp 32133 140078386317056 "POST /api/features HTTP/1.1" 200 5577
INFO 2022-12-31 05:26:48,564 basehttp 32133 140078386317056 "GET /api/plasmids?name=pESC-HIS HTTP/1.1" 200 6722
INFO 2022-12-31 05:26:49,808 basehttp 32133 140078386317056 "POST /api/features HTTP/1.1" 200 5577
INFO 2022-12-31 05:30:10,657 basehttp 32133 140078386317056 "GET /api/plasmids?name=pESC-HIS HTTP/1.1" 200 6722
INFO 2022-12-31 05:30:12,031 basehttp 32133 140078386317056 "POST /api/features HTTP/1.1" 200 5577
INFO 2022-12-31 05:31:09,381 basehttp 32133 140078386317056 "GET /api/plasmids?name=pESC-HIS HTTP/1.1" 200 6722
INFO 2022-12-31 05:31:10,302 basehttp 32133 140078386317056 "POST /api/features HTTP/1.1" 200 5577
INFO 2022-12-31 05:33:52,247 basehttp 32133 140078386317056 "GET /api/plasmids?name=pESC-HIS HTTP/1.1" 200 6722
INFO 2022-12-31 05:33:55,327 basehttp 32133 140078386317056 "POST /api/features HTTP/1.1" 200 5577
INFO 2022-12-31 05:34:40,062 basehttp 32133 140078386317056 "GET /api/plasmids?name=pESC-HIS HTTP/1.1" 200 6722
INFO 2022-12-31 05:34:41,327 basehttp 32133 140078386317056 "POST /api/features HTTP/1.1" 200 5577
INFO 2022-12-31 05:36:26,552 basehttp 32133 140078386317056 "GET /api/plasmids?name=pESC-HIS HTTP/1.1" 200 6722
INFO 2022-12-31 05:36:27,558 basehttp 32133 140078386317056 "POST /api/features HTTP/1.1" 200 5577
INFO 2022-12-31 05:36:34,936 basehttp 32133 140078386317056 "GET /api/plasmids?name=pESC-HIS HTTP/1.1" 200 6722
INFO 2022-12-31 05:36:35,676 basehttp 32133 140078386317056 "POST /api/features HTTP/1.1" 200 5577
INFO 2022-12-31 05:42:41,502 basehttp 32133 140078386317056 "GET /api/plasmids?name=pESC-HIS HTTP/1.1" 200 6722
INFO 2022-12-31 05:42:42,380 basehttp 32133 140078386317056 "POST /api/features HTTP/1.1" 200 5577
INFO 2022-12-31 05:48:52,099 basehttp 32133 140078386317056 "GET /api/plasmids?name=pESC-HIS HTTP/1.1" 200 6722
INFO 2022-12-31 05:48:53,112 basehttp 32133 140078386317056 "POST /api/features HTTP/1.1" 200 5577
INFO 2022-12-31 05:49:49,842 basehttp 32133 140078386317056 "GET /api/plasmids?name=pESC-HIS HTTP/1.1" 200 6722
INFO 2022-12-31 05:49:50,811 basehttp 32133 140078386317056 "POST /api/features HTTP/1.1" 200 5577
INFO 2022-12-31 05:56:40,191 basehttp 32133 140078386317056 "GET /api/plasmids?name=pPICZ(alpha)+A HTTP/1.1" 200 3609
INFO 2022-12-31 05:56:40,539 basehttp 32133 140078386317056 "POST /api/plasmids/popularity HTTP/1.1" 200 0
INFO 2022-12-31 05:56:43,071 basehttp 32133 140078386317056 "POST /api/features HTTP/1.1" 200 5007
INFO 2022-12-31 05:56:44,372 basehttp 32133 140078386317056 "GET /api/plasmids?name=pPICZ(alpha)+A HTTP/1.1" 200 3609
INFO 2022-12-31 05:56:45,817 basehttp 32133 140078386317056 "POST /api/features HTTP/1.1" 200 5007
INFO 2022-12-31 06:05:51,686 basehttp 32133 140078386317056 "OPTIONS /api/features HTTP/1.1" 200 0
INFO 2022-12-31 06:05:53,006 basehttp 32133 140078386317056 "POST /api/features HTTP/1.1" 200 5007
INFO 2023-01-02 03:24:06,695 autoreload 20021 139688355563328 Watching for file changes with StatReloader
INFO 2023-01-02 03:28:53,394 basehttp 20021 139688225212160 "OPTIONS /api/features HTTP/1.1" 200 0
INFO 2023-01-02 03:28:54,423 basehttp 20021 139688225212160 "POST /api/features HTTP/1.1" 200 5007
INFO 2023-01-02 03:32:52,720 basehttp 20021 139688225212160 "POST /api/features HTTP/1.1" 200 5007
INFO 2023-01-02 03:38:12,276 basehttp 20021 139688225212160 "POST /api/features HTTP/1.1" 200 5007
INFO 2023-01-02 03:39:47,615 basehttp 20021 139688225212160 "POST /api/features HTTP/1.1" 200 5007
INFO 2023-01-02 03:41:31,724 basehttp 20021 139688225212160 "POST /api/features HTTP/1.1" 200 5007
INFO 2023-01-02 03:56:55,167 basehttp 20021 139688225212160 "POST /api/features HTTP/1.1" 200 5007
INFO 2023-01-02 04:04:24,870 basehttp 20021 139688225212160 "POST /api/features HTTP/1.1" 200 5007
INFO 2023-01-02 04:06:21,704 basehttp 20021 139688225212160 "POST /api/features HTTP/1.1" 200 5007
INFO 2023-01-02 04:25:12,015 basehttp 20021 139688225212160 "POST /api/features HTTP/1.1" 200 5007
INFO 2023-01-02 04:41:00,191 basehttp 20021 139688225212160 "POST /api/features HTTP/1.1" 200 5007
INFO 2023-01-02 04:46:05,877 basehttp 20021 139688225212160 "POST /api/features HTTP/1.1" 200 5007
INFO 2023-01-02 04:47:20,745 basehttp 20021 139688225212160 "POST /api/features HTTP/1.1" 200 5007
INFO 2023-01-02 04:54:47,969 basehttp 20021 139688225212160 "POST /api/features HTTP/1.1" 200 6291
INFO 2023-01-02 05:56:03,510 basehttp 20021 139688225212160 "OPTIONS /api/features HTTP/1.1" 200 0
INFO 2023-01-02 05:56:03,736 basehttp 20021 139688225212160 "POST /api/features HTTP/1.1" 200 5007
INFO 2023-01-02 06:51:45,364 basehttp 20021 139688225212160 "GET /api/plasmids/meta HTTP/1.1" 200 1256533
INFO 2023-01-02 07:03:01,767 basehttp 20021 139688225212160 "POST /api/features HTTP/1.1" 200 5007
INFO 2023-01-02 07:04:25,879 basehttp 20021 139688225212160 "POST /api/features HTTP/1.1" 200 5007
INFO 2023-01-02 07:30:58,509 basehttp 20021 139688225212160 "POST /api/features HTTP/1.1" 200 5007
INFO 2023-01-02 07:38:08,610 basehttp 20021 139688225212160 "POST /api/features HTTP/1.1" 200 5007
INFO 2023-01-02 07:39:05,542 basehttp 20021 139688225212160 "POST /api/features HTTP/1.1" 200 5007
INFO 2023-01-02 07:56:42,007 basehttp 20021 139688225212160 "OPTIONS /api/features HTTP/1.1" 200 0
INFO 2023-01-02 07:56:42,842 basehttp 20021 139688225212160 "POST /api/features HTTP/1.1" 200 6291
INFO 2023-01-02 07:58:41,571 autoreload 20021 139688355563328 /home/sukanta/plasmapper/ver3/plasmapper3/PlasMapper_API/plasmapperAPI/fsdSearch/RestrictionSearch.py changed, reloading.
INFO 2023-01-02 07:58:48,932 autoreload 5980 140542655268672 Watching for file changes with StatReloader
INFO 2023-01-02 08:20:12,791 basehttp 5980 140542524851968 "POST /api/features HTTP/1.1" 200 4932
INFO 2023-01-02 08:20:39,456 basehttp 5980 140542524851968 "POST /api/features HTTP/1.1" 200 4932
INFO 2023-01-02 08:24:32,345 basehttp 5980 140542524851968 "POST /api/features HTTP/1.1" 200 4932
INFO 2023-01-02 09:12:56,656 basehttp 5980 140542524851968 "POST /api/features HTTP/1.1" 200 4932
INFO 2023-01-02 09:13:30,117 basehttp 5980 140542524851968 "POST /api/features HTTP/1.1" 200 5235
INFO 2023-01-02 09:14:50,630 basehttp 5980 140542524851968 "POST /api/features HTTP/1.1" 200 5235
INFO 2023-01-02 09:17:54,477 basehttp 5980 140542524851968 "POST /api/features HTTP/1.1" 200 6192
INFO 2023-01-02 09:20:56,693 basehttp 5980 140542524851968 "POST /api/features HTTP/1.1" 200 6192
INFO 2023-01-02 09:22:55,961 basehttp 5980 140542524851968 "POST /api/features HTTP/1.1" 200 5235
INFO 2023-01-02 09:27:04,022 basehttp 5980 140542524851968 "POST /api/features HTTP/1.1" 200 6192
INFO 2023-01-02 09:34:59,960 basehttp 5980 140542524851968 "POST /api/features HTTP/1.1" 200 6192
INFO 2023-01-02 09:35:25,502 basehttp 5980 140542524851968 "POST /api/features HTTP/1.1" 200 5235
INFO 2023-01-02 09:54:55,990 basehttp 5980 140542524851968 "POST /api/features HTTP/1.1" 200 4932
INFO 2023-01-02 09:58:47,617 basehttp 5980 140542524851968 "OPTIONS /api/features HTTP/1.1" 200 0
INFO 2023-01-02 09:58:48,127 basehttp 5980 140542524851968 "POST /api/features HTTP/1.1" 200 6192
INFO 2023-01-02 10:00:15,286 basehttp 5980 140542524851968 "POST /api/features HTTP/1.1" 200 6192
INFO 2023-01-02 10:02:07,062 basehttp 5980 140542524851968 "POST /api/features HTTP/1.1" 200 6192
INFO 2023-01-02 10:04:01,671 basehttp 5980 140542524851968 "POST /api/features HTTP/1.1" 200 6192
INFO 2023-01-02 10:07:09,904 basehttp 5980 140542524851968 "POST /api/features HTTP/1.1" 200 6192
INFO 2023-01-02 10:08:20,375 basehttp 5980 140542524851968 "POST /api/features HTTP/1.1" 200 6192
INFO 2023-01-02 10:09:13,029 basehttp 5980 140542524851968 "POST /api/features HTTP/1.1" 200 6192
INFO 2023-01-02 10:19:15,772 basehttp 5980 140542524851968 "POST /api/features HTTP/1.1" 200 4932
INFO 2023-01-02 10:20:31,970 basehttp 5980 140542524851968 "POST /api/features HTTP/1.1" 200 6192
INFO 2023-01-02 10:23:42,568 basehttp 5980 140542524851968 "POST /api/features HTTP/1.1" 200 5235
INFO 2023-01-02 10:25:25,084 basehttp 5980 140542524851968 "POST /api/features HTTP/1.1" 200 6192
INFO 2023-01-02 10:27:08,934 basehttp 5980 140542524851968 "POST /api/features HTTP/1.1" 200 6192
INFO 2023-01-02 10:32:24,841 basehttp 5980 140542524851968 "POST /api/features HTTP/1.1" 200 6192
INFO 2023-01-02 11:09:55,224 basehttp 5980 140542524851968 "POST /api/features HTTP/1.1" 200 6192
INFO 2023-01-02 11:29:55,603 basehttp 5980 140542524851968 "POST /api/features HTTP/1.1" 200 4932
INFO 2023-01-02 11:32:11,616 basehttp 5980 140542524851968 "POST /api/features HTTP/1.1" 200 6192
INFO 2023-01-02 11:47:03,830 basehttp 5980 140542524851968 "POST /api/features HTTP/1.1" 200 6192
INFO 2023-01-02 11:47:33,066 basehttp 5980 140542524851968 "POST /api/features HTTP/1.1" 200 4932
INFO 2023-01-02 11:49:22,950 basehttp 5980 140542524851968 "POST /api/features HTTP/1.1" 200 6192
INFO 2023-01-02 12:01:01,896 basehttp 5980 140542524851968 "OPTIONS /api/features HTTP/1.1" 200 0
INFO 2023-01-02 12:01:03,521 basehttp 5980 140542524851968 "POST /api/features HTTP/1.1" 200 6192
INFO 2023-01-02 12:07:03,185 basehttp 5980 140542524851968 "POST /api/features HTTP/1.1" 200 6192
INFO 2023-01-02 12:09:45,885 basehttp 5980 140542524851968 "POST /api/features HTTP/1.1" 200 6192
INFO 2023-01-02 12:15:54,302 basehttp 5980 140542524851968 "POST /api/features HTTP/1.1" 200 6192
INFO 2023-01-02 12:23:33,520 basehttp 5980 140542524851968 "POST /api/features HTTP/1.1" 200 6192
INFO 2023-01-02 12:23:45,645 basehttp 5980 140542524851968 "POST /api/features HTTP/1.1" 200 5235
INFO 2023-01-02 12:24:03,293 basehttp 5980 140542524851968 "POST /api/features HTTP/1.1" 200 4932
INFO 2023-01-02 12:28:07,915 basehttp 5980 140542524851968 "POST /api/features HTTP/1.1" 200 6192
INFO 2023-01-02 12:34:12,679 basehttp 5980 140542524851968 "POST /api/features HTTP/1.1" 200 6192
INFO 2023-01-02 12:38:44,696 basehttp 5980 140542524851968 "POST /api/features HTTP/1.1" 200 6192
INFO 2023-01-02 12:41:59,047 basehttp 5980 140542524851968 "POST /api/features HTTP/1.1" 200 6192
INFO 2023-01-02 12:54:49,707 basehttp 5980 140542524851968 "POST /api/features HTTP/1.1" 200 6192
INFO 2023-01-02 13:00:54,070 basehttp 5980 140542524851968 "POST /api/features HTTP/1.1" 200 6192
INFO 2023-01-02 13:02:10,033 basehttp 5980 140542524851968 "POST /api/features HTTP/1.1" 200 6192
INFO 2023-01-02 13:03:24,357 basehttp 5980 140542524851968 "POST /api/features HTTP/1.1" 200 4932
INFO 2023-01-02 13:12:05,861 basehttp 5980 140542524851968 "POST /api/features HTTP/1.1" 200 6192
INFO 2023-01-02 14:22:27,019 basehttp 5980 140542524851968 "OPTIONS /api/features HTTP/1.1" 200 0
INFO 2023-01-02 14:22:27,962 basehttp 5980 140542524851968 "POST /api/features HTTP/1.1" 200 5235
INFO 2023-01-02 14:22:54,605 basehttp 5980 140542524851968 "POST /api/features HTTP/1.1" 200 4932
INFO 2023-01-02 14:24:19,319 basehttp 5980 140542524851968 "POST /api/features HTTP/1.1" 200 4932
INFO 2023-01-02 14:25:38,620 basehttp 5980 140542524851968 "POST /api/features HTTP/1.1" 200 4932
INFO 2023-01-02 14:26:26,846 basehttp 5980 140542524851968 "POST /api/features HTTP/1.1" 200 4932
INFO 2023-01-02 14:27:08,999 basehttp 5980 140542524851968 "POST /api/features HTTP/1.1" 200 4932
INFO 2023-01-02 14:44:15,990 basehttp 5980 140542524851968 "POST /api/features HTTP/1.1" 200 6192
INFO 2023-01-02 14:55:48,501 basehttp 5980 140542524851968 "POST /api/features HTTP/1.1" 200 6192
INFO 2023-01-02 15:10:30,410 basehttp 5980 140542524851968 "POST /api/features HTTP/1.1" 200 6192
INFO 2023-01-02 15:15:43,457 basehttp 5980 140542524851968 "POST /api/features HTTP/1.1" 200 4932
INFO 2023-01-02 15:16:12,610 basehttp 5980 140542524851968 "POST /api/features HTTP/1.1" 200 4932
INFO 2023-01-02 15:19:07,606 basehttp 5980 140542524851968 "POST /api/features HTTP/1.1" 200 4932
INFO 2023-01-02 15:20:40,873 basehttp 5980 140542524851968 "POST /api/features HTTP/1.1" 200 6192
INFO 2023-01-02 15:21:13,143 basehttp 5980 140542524851968 "GET /api/plasmids/meta HTTP/1.1" 200 1256533
INFO 2023-01-02 15:21:16,217 basehttp 5980 140542524851968 "GET /api/plasmids?name=pcDNA3.1%2B%2F-FLI1-C%E2%80%90(K)%E2%80%90DYK HTTP/1.1" 200 6765
INFO 2023-01-02 15:21:16,251 basehttp 5980 140542524851968 "OPTIONS /api/plasmids/popularity HTTP/1.1" 200 0
INFO 2023-01-02 15:21:17,926 basehttp 5980 140542512334592 "POST /api/features HTTP/1.1" 200 6741
INFO 2023-01-02 15:21:19,205 basehttp 5980 140542512334592 "GET /api/plasmids?name=pcDNA3.1%2B%2F-FLI1-C%E2%80%90(K)%E2%80%90DYK HTTP/1.1" 200 6765
INFO 2023-01-02 15:21:19,930 basehttp 5980 140542512334592 "POST /api/features HTTP/1.1" 200 6741
INFO 2023-01-02 15:21:32,392 basehttp 5980 140542512334592 "GET /api/plasmids/meta HTTP/1.1" 200 1256533
INFO 2023-01-02 15:21:35,846 basehttp 5980 140542512334592 "GET /api/plasmids?name=pGADT7-GW HTTP/1.1" 200 9654
INFO 2023-01-02 15:21:35,920 basehttp 5980 140542512334592 "POST /api/plasmids/popularity HTTP/1.1" 200 0
INFO 2023-01-02 15:21:37,103 basehttp 5980 140542512334592 "POST /api/features HTTP/1.1" 200 7282
INFO 2023-01-02 15:21:38,365 basehttp 5980 140542512334592 "GET /api/plasmids?name=pGADT7-GW HTTP/1.1" 200 9654
INFO 2023-01-02 15:21:40,452 basehttp 5980 140542512334592 "POST /api/features HTTP/1.1" 200 7282
INFO 2023-01-02 23:34:10,828 autoreload 31068 140490543728448 Watching for file changes with StatReloader
INFO 2023-01-02 23:55:36,856 basehttp 31068 140490480486144 "GET /api/plasmids?name=pGADT7-GW HTTP/1.1" 200 9654
INFO 2023-01-02 23:55:37,095 basehttp 31068 140490480486144 "OPTIONS /api/features HTTP/1.1" 200 0
INFO 2023-01-02 23:55:38,467 basehttp 31068 140490480486144 "POST /api/features HTTP/1.1" 200 7282
INFO 2023-01-03 00:40:18,194 basehttp 31068 140490480486144 "GET /api/plasmids?name=pGADT7-GW HTTP/1.1" 200 9654
INFO 2023-01-03 00:40:19,412 basehttp 31068 140490480486144 "POST /api/features HTTP/1.1" 200 7282
INFO 2023-01-03 00:43:33,136 basehttp 31068 140490480486144 "GET /api/plasmids?name=pGADT7-GW HTTP/1.1" 200 9654
INFO 2023-01-03 00:43:34,268 basehttp 31068 140490480486144 "POST /api/features HTTP/1.1" 200 7282
INFO 2023-01-03 00:43:46,002 basehttp 31068 140490480486144 "GET /api/plasmids?name=pGADT7-GW HTTP/1.1" 200 9654
INFO 2023-01-03 00:43:47,756 basehttp 31068 140490480486144 "POST /api/features HTTP/1.1" 200 7282
INFO 2023-01-03 00:45:27,729 basehttp 31068 140490480486144 "POST /api/features HTTP/1.1" 200 5235
INFO 2023-01-03 00:47:37,417 basehttp 31068 140490480486144 "POST /api/features HTTP/1.1" 200 4932
INFO 2023-01-03 00:49:26,471 basehttp 31068 140490480486144 "POST /api/features HTTP/1.1" 200 4932
INFO 2023-01-03 00:59:09,992 basehttp 31068 140490480486144 "POST /api/features HTTP/1.1" 200 6192
INFO 2023-01-03 01:00:35,574 basehttp 31068 140490480486144 "POST /api/features HTTP/1.1" 200 4932
INFO 2023-01-03 01:05:00,999 basehttp 31068 140490480486144 "POST /api/features HTTP/1.1" 200 4932
INFO 2023-01-03 01:16:17,493 basehttp 31068 140490480486144 "POST /api/features HTTP/1.1" 200 4932
INFO 2023-01-03 01:17:08,862 basehttp 31068 140490480486144 "POST /api/features HTTP/1.1" 200 4932
INFO 2023-01-03 01:33:48,991 basehttp 31068 140490480486144 "POST /api/features HTTP/1.1" 200 4932
INFO 2023-01-03 01:36:19,236 basehttp 31068 140490480486144 "POST /api/features HTTP/1.1" 200 4932
INFO 2023-01-03 01:38:42,608 basehttp 31068 140490480486144 "POST /api/features HTTP/1.1" 200 4932
INFO 2023-01-03 01:41:10,021 basehttp 31068 140490480486144 "POST /api/features HTTP/1.1" 200 4932
INFO 2023-01-03 01:53:05,930 basehttp 31068 140490480486144 "POST /api/features HTTP/1.1" 200 4932
INFO 2023-01-03 01:53:28,856 basehttp 31068 140490480486144 "POST /api/features HTTP/1.1" 200 4932
INFO 2023-01-03 02:05:45,946 basehttp 31068 140490480486144 "OPTIONS /api/features HTTP/1.1" 200 0
INFO 2023-01-03 02:05:47,204 basehttp 31068 140490480486144 "POST /api/features HTTP/1.1" 200 4932
INFO 2023-01-03 02:10:41,707 basehttp 31068 140490480486144 "POST /api/features HTTP/1.1" 200 4932
INFO 2023-01-03 02:16:17,615 basehttp 31068 140490480486144 "POST /api/features HTTP/1.1" 200 4932
INFO 2023-01-03 02:20:00,933 basehttp 31068 140490480486144 "POST /api/features HTTP/1.1" 200 4932
INFO 2023-01-03 02:22:08,196 basehttp 31068 140490480486144 "POST /api/features HTTP/1.1" 200 4932
INFO 2023-01-03 02:23:19,945 basehttp 31068 140490480486144 "POST /api/features HTTP/1.1" 200 4932
INFO 2023-01-03 02:25:00,638 basehttp 31068 140490480486144 "POST /api/features HTTP/1.1" 200 4932
INFO 2023-01-03 02:25:41,610 basehttp 31068 140490480486144 "POST /api/features HTTP/1.1" 200 4932
INFO 2023-01-03 02:47:12,494 basehttp 31068 140490480486144 "POST /api/features HTTP/1.1" 200 4932
INFO 2023-01-03 03:15:35,560 basehttp 31068 140490480486144 "POST /api/features HTTP/1.1" 200 4932
INFO 2023-01-03 03:19:09,497 basehttp 31068 140490480486144 "POST /api/features HTTP/1.1" 200 4932
INFO 2023-01-03 03:28:02,758 basehttp 31068 140490480486144 "POST /api/features HTTP/1.1" 200 4932
INFO 2023-01-03 03:33:38,490 basehttp 31068 140490480486144 "POST /api/features HTTP/1.1" 200 4932
INFO 2023-01-03 04:43:36,775 basehttp 31068 140490480486144 "OPTIONS /api/features HTTP/1.1" 200 0
INFO 2023-01-03 04:43:38,084 basehttp 31068 140490480486144 "POST /api/features HTTP/1.1" 200 4932
INFO 2023-01-03 04:44:33,010 basehttp 31068 140490480486144 "POST /api/features HTTP/1.1" 200 4932
INFO 2023-01-03 04:48:07,295 basehttp 31068 140490480486144 "POST /api/features HTTP/1.1" 200 4932
INFO 2023-01-03 04:49:20,751 basehttp 31068 140490480486144 "POST /api/features HTTP/1.1" 200 4932
INFO 2023-01-03 04:51:11,669 basehttp 31068 140490480486144 "POST /api/features HTTP/1.1" 200 4932
INFO 2023-01-03 05:58:52,127 basehttp 31068 140490480486144 "POST /api/features HTTP/1.1" 200 4932
INFO 2023-01-03 06:08:04,570 basehttp 31068 140490480486144 "POST /api/features HTTP/1.1" 200 4932
INFO 2023-01-03 06:15:54,185 basehttp 31068 140490480486144 "POST /api/features HTTP/1.1" 200 4932
INFO 2023-01-03 06:18:14,854 basehttp 31068 140490480486144 "POST /api/features HTTP/1.1" 200 5235
INFO 2023-01-03 06:59:55,369 basehttp 31068 140490480486144 "OPTIONS /api/features HTTP/1.1" 200 0
INFO 2023-01-03 06:59:56,655 basehttp 31068 140490480486144 "POST /api/features HTTP/1.1" 200 4932
INFO 2023-01-03 07:00:23,075 basehttp 31068 140490480486144 "POST /api/features HTTP/1.1" 200 4932
INFO 2023-01-03 07:00:50,614 basehttp 31068 140490480486144 "POST /api/features HTTP/1.1" 200 4932
INFO 2023-01-03 07:09:11,312 basehttp 31068 140490480486144 "POST /api/features HTTP/1.1" 200 4932
INFO 2023-01-03 07:35:51,235 basehttp 31068 140490480486144 "POST /api/features HTTP/1.1" 200 4932
INFO 2023-01-03 07:46:13,191 basehttp 31068 140490480486144 "POST /api/features HTTP/1.1" 200 4932
INFO 2023-01-03 07:51:57,768 basehttp 31068 140490480486144 "POST /api/features HTTP/1.1" 200 4932
INFO 2023-01-03 08:17:31,002 basehttp 31068 140490480486144 "POST /api/features HTTP/1.1" 200 4932
INFO 2023-01-03 08:18:57,208 basehttp 31068 140490480486144 "POST /api/features HTTP/1.1" 200 4932
INFO 2023-01-03 08:19:16,312 basehttp 31068 140490480486144 "POST /api/features HTTP/1.1" 200 4932
INFO 2023-01-03 08:19:53,861 basehttp 31068 140490480486144 "POST /api/features HTTP/1.1" 200 4932
INFO 2023-01-03 08:24:19,344 basehttp 31068 140490480486144 "POST /api/features HTTP/1.1" 200 4932
INFO 2023-01-03 08:25:48,844 basehttp 31068 140490480486144 "POST /api/features HTTP/1.1" 200 4932
INFO 2023-01-03 09:09:58,777 basehttp 31068 140490480486144 "OPTIONS /api/features HTTP/1.1" 200 0
INFO 2023-01-03 09:10:00,449 basehttp 31068 140490480486144 "POST /api/features HTTP/1.1" 200 4932
INFO 2023-01-03 09:12:32,547 basehttp 31068 140490480486144 "POST /api/features HTTP/1.1" 200 4932
INFO 2023-01-03 09:13:29,658 basehttp 31068 140490480486144 "POST /api/features HTTP/1.1" 200 4932
INFO 2023-01-03 09:15:36,892 basehttp 31068 140490480486144 "POST /api/features HTTP/1.1" 200 4932
INFO 2023-01-03 09:18:14,674 basehttp 31068 140490480486144 "POST /api/features HTTP/1.1" 200 4932
INFO 2023-01-03 09:42:51,363 basehttp 31068 140490480486144 "POST /api/features HTTP/1.1" 200 4932
INFO 2023-01-03 09:47:27,656 basehttp 31068 140490480486144 "POST /api/features HTTP/1.1" 200 4932
INFO 2023-01-03 09:54:13,532 basehttp 31068 140490480486144 "POST /api/features HTTP/1.1" 200 4932
INFO 2023-01-03 09:55:25,869 basehttp 31068 140490480486144 "POST /api/features HTTP/1.1" 200 4932
INFO 2023-01-03 09:57:06,016 basehttp 31068 140490480486144 "POST /api/features HTTP/1.1" 200 4932
INFO 2023-01-03 09:58:17,207 basehttp 31068 140490480486144 "POST /api/features HTTP/1.1" 200 4932
INFO 2023-01-03 09:59:51,301 basehttp 31068 140490480486144 "POST /api/features HTTP/1.1" 200 4932
INFO 2023-01-03 10:52:48,477 basehttp 31068 140490480486144 "POST /api/features HTTP/1.1" 200 4932
INFO 2023-01-03 10:55:07,536 basehttp 31068 140490480486144 "POST /api/features HTTP/1.1" 200 4932
INFO 2023-01-03 11:07:17,070 basehttp 31068 140490480486144 "POST /api/features HTTP/1.1" 200 4932
INFO 2023-01-03 11:08:25,442 basehttp 31068 140490480486144 "POST /api/features HTTP/1.1" 200 4932
INFO 2023-01-03 11:19:20,782 basehttp 31068 140490480486144 "OPTIONS /api/features HTTP/1.1" 200 0
INFO 2023-01-03 11:19:22,277 basehttp 31068 140490480486144 "POST /api/features HTTP/1.1" 200 4932
INFO 2023-01-03 11:20:57,869 basehttp 31068 140490480486144 "POST /api/features HTTP/1.1" 200 5235
INFO 2023-01-03 11:28:09,117 basehttp 31068 140490480486144 "POST /api/features HTTP/1.1" 200 5235
INFO 2023-01-03 11:37:47,470 basehttp 31068 140490480486144 "POST /api/features HTTP/1.1" 200 4932
INFO 2023-01-03 11:40:58,337 basehttp 31068 140490480486144 "POST /api/features HTTP/1.1" 200 4932
INFO 2023-01-03 11:45:48,962 basehttp 31068 140490480486144 "POST /api/features HTTP/1.1" 200 4932
INFO 2023-01-03 11:48:56,453 basehttp 31068 140490480486144 "POST /api/features HTTP/1.1" 200 6192
INFO 2023-01-03 11:51:02,869 basehttp 31068 140490480486144 "GET /api/plasmids/meta HTTP/1.1" 200 1256533
INFO 2023-01-03 11:51:09,203 basehttp 31068 140490480486144 "GET /api/plasmids?name=pCRCT HTTP/1.1" 200 10823
INFO 2023-01-03 11:51:09,387 basehttp 31068 140490480486144 "OPTIONS /api/plasmids/popularity HTTP/1.1" 200 0
INFO 2023-01-03 11:51:09,407 basehttp 31068 140490480486144 "POST /api/plasmids/popularity HTTP/1.1" 200 0
INFO 2023-01-03 11:51:11,290 basehttp 31068 140490480486144 "POST /api/features HTTP/1.1" 200 6886
INFO 2023-01-03 11:51:12,457 basehttp 31068 140490480486144 "GET /api/plasmids?name=pCRCT HTTP/1.1" 200 10823
INFO 2023-01-03 11:51:13,770 basehttp 31068 140490480486144 "POST /api/features HTTP/1.1" 200 6886
INFO 2023-01-03 12:03:14,479 basehttp 31068 140490480486144 "GET /api/plasmids?name=pCRCT HTTP/1.1" 200 10823
INFO 2023-01-03 12:03:15,821 basehttp 31068 140490480486144 "POST /api/features HTTP/1.1" 200 6886
INFO 2023-01-03 12:05:03,740 basehttp 31068 140490480486144 "GET /api/plasmids?name=pCRCT HTTP/1.1" 200 10823
INFO 2023-01-03 12:05:05,561 basehttp 31068 140490480486144 "POST /api/features HTTP/1.1" 200 6886
INFO 2023-01-03 12:11:07,352 basehttp 31068 140490480486144 "POST /api/features HTTP/1.1" 200 5235
INFO 2023-01-03 12:21:56,458 basehttp 31068 140490480486144 "POST /api/features HTTP/1.1" 200 4932
INFO 2023-01-03 12:24:25,136 basehttp 31068 140490480486144 "POST /api/features HTTP/1.1" 200 4932
INFO 2023-01-03 12:26:31,240 basehttp 31068 140490480486144 "POST /api/features HTTP/1.1" 200 4932
INFO 2023-01-03 23:02:41,560 autoreload 18496 140353627555648 Watching for file changes with StatReloader
INFO 2023-01-03 23:10:12,591 basehttp 18496 140353491371776 "OPTIONS /api/features HTTP/1.1" 200 0
INFO 2023-01-03 23:10:13,416 basehttp 18496 140353491371776 "POST /api/features HTTP/1.1" 200 4932
INFO 2023-01-03 23:13:29,966 basehttp 18496 140353491371776 "POST /api/features HTTP/1.1" 200 4932
INFO 2023-01-03 23:31:13,438 basehttp 18496 140353491371776 "POST /api/features HTTP/1.1" 200 4932
INFO 2023-01-03 23:40:39,525 basehttp 18496 140353491371776 "POST /api/features HTTP/1.1" 200 4932
INFO 2023-01-04 00:04:35,712 basehttp 18496 140353491371776 "POST /api/features HTTP/1.1" 200 4932
INFO 2023-01-04 00:17:06,414 basehttp 18496 140353491371776 "POST /api/features HTTP/1.1" 200 4932
INFO 2023-01-04 00:18:08,881 basehttp 18496 140353491371776 "POST /api/features HTTP/1.1" 200 4932
INFO 2023-01-04 00:21:57,994 basehttp 18496 140353491371776 "POST /api/features HTTP/1.1" 200 4932
INFO 2023-01-04 01:23:29,856 basehttp 18496 140353491371776 "GET /api/plasmids/meta HTTP/1.1" 200 1256533
INFO 2023-01-04 01:24:28,044 basehttp 18496 140353491371776 "OPTIONS /api/features HTTP/1.1" 200 0
INFO 2023-01-04 01:24:28,578 basehttp 18496 140353491371776 "POST /api/features HTTP/1.1" 200 4932
INFO 2023-01-04 04:40:26,992 basehttp 18496 140353491371776 "OPTIONS /api/features HTTP/1.1" 200 0
INFO 2023-01-04 04:40:27,864 basehttp 18496 140353491371776 "POST /api/features HTTP/1.1" 200 4932
INFO 2023-01-04 04:42:33,648 basehttp 18496 140353491371776 "POST /api/features HTTP/1.1" 200 4932
INFO 2023-01-04 04:45:22,546 basehttp 18496 140353491371776 "POST /api/features HTTP/1.1" 200 4932
INFO 2023-01-04 14:28:26,214 autoreload 6316 139693950699328 Watching for file changes with StatReloader
INFO 2023-01-04 14:35:39,667 basehttp 6316 139693887457024 "OPTIONS /api/features HTTP/1.1" 200 0
INFO 2023-01-04 14:35:40,962 basehttp 6316 139693887457024 "POST /api/features HTTP/1.1" 200 4932
INFO 2023-01-04 14:38:17,885 basehttp 6316 139693887457024 "POST /api/features HTTP/1.1" 200 4932
INFO 2023-01-04 14:42:44,613 basehttp 6316 139693887457024 "POST /api/features HTTP/1.1" 200 4932
INFO 2023-01-04 14:43:05,297 basehttp 6316 139693887457024 "POST /api/features HTTP/1.1" 200 4932
INFO 2023-01-04 14:46:02,527 basehttp 6316 139693887457024 "POST /api/features HTTP/1.1" 200 4932
INFO 2023-01-04 14:49:01,615 basehttp 6316 139693887457024 "POST /api/features HTTP/1.1" 200 4932
INFO 2023-01-04 14:52:28,474 basehttp 6316 139693887457024 "POST /api/features HTTP/1.1" 200 4932
INFO 2023-01-04 14:55:06,055 basehttp 6316 139693887457024 "POST /api/features HTTP/1.1" 200 4932
INFO 2023-01-04 14:59:39,494 basehttp 6316 139693887457024 "POST /api/features HTTP/1.1" 200 4932
INFO 2023-01-04 15:02:32,872 basehttp 6316 139693887457024 "POST /api/features HTTP/1.1" 200 4932
INFO 2023-01-04 15:20:40,381 basehttp 6316 139693887457024 "POST /api/features HTTP/1.1" 200 4932
INFO 2023-01-04 15:25:37,529 basehttp 6316 139693887457024 "POST /api/features HTTP/1.1" 200 4932
INFO 2023-01-04 15:45:24,950 basehttp 6316 139693887457024 "POST /api/features HTTP/1.1" 200 4932
INFO 2023-01-04 15:54:55,195 basehttp 6316 139693887457024 "POST /api/features HTTP/1.1" 200 4932
INFO 2023-01-04 16:32:48,805 basehttp 6316 139693887457024 "POST /api/features HTTP/1.1" 200 4932
INFO 2023-01-04 16:34:46,550 basehttp 6316 139693887457024 "POST /api/features HTTP/1.1" 200 4932
INFO 2023-01-04 16:37:26,117 basehttp 6316 139693887457024 "OPTIONS /api/features HTTP/1.1" 200 0
INFO 2023-01-04 16:37:26,625 basehttp 6316 139693887457024 "POST /api/features HTTP/1.1" 200 4932
INFO 2023-01-04 16:40:45,737 basehttp 6316 139693887457024 "POST /api/features HTTP/1.1" 200 4932
INFO 2023-01-04 16:42:30,955 basehttp 6316 139693887457024 "POST /api/features HTTP/1.1" 200 4932
INFO 2023-01-04 16:46:35,722 basehttp 6316 139693887457024 "POST /api/features HTTP/1.1" 200 4932
INFO 2023-01-04 16:48:41,959 basehttp 6316 139693887457024 "POST /api/features HTTP/1.1" 200 4932
INFO 2023-01-04 16:49:29,424 basehttp 6316 139693887457024 "POST /api/features HTTP/1.1" 200 4932
INFO 2023-01-04 16:51:00,571 basehttp 6316 139693887457024 "POST /api/features HTTP/1.1" 200 4932
INFO 2023-01-04 16:51:37,656 basehttp 6316 139693887457024 "POST /api/features HTTP/1.1" 200 4932
INFO 2023-01-04 16:55:31,604 basehttp 6316 139693887457024 "POST /api/features HTTP/1.1" 200 4932
INFO 2023-01-04 16:56:21,567 basehttp 6316 139693887457024 "POST /api/features HTTP/1.1" 200 4932
INFO 2023-01-04 17:05:15,040 basehttp 6316 139693887457024 "POST /api/features HTTP/1.1" 200 4932
INFO 2023-01-04 17:06:09,358 basehttp 6316 139693887457024 "POST /api/features HTTP/1.1" 200 4932
INFO 2023-01-04 17:07:15,702 basehttp 6316 139693887457024 "POST /api/features HTTP/1.1" 200 4932
INFO 2023-01-04 17:07:29,539 basehttp 6316 139693887457024 "POST /api/features HTTP/1.1" 200 4932
INFO 2023-01-04 17:08:30,319 basehttp 6316 139693887457024 "POST /api/features HTTP/1.1" 200 4932
INFO 2023-01-04 17:10:18,040 basehttp 6316 139693887457024 "POST /api/features HTTP/1.1" 200 4932
INFO 2023-01-04 17:12:18,745 basehttp 6316 139693887457024 "POST /api/features HTTP/1.1" 200 4932
INFO 2023-01-04 17:12:39,116 basehttp 6316 139693887457024 "POST /api/features HTTP/1.1" 200 4932
INFO 2023-01-04 17:15:32,014 basehttp 6316 139693887457024 "POST /api/features HTTP/1.1" 200 4932
INFO 2023-01-04 17:17:27,284 basehttp 6316 139693887457024 "POST /api/features HTTP/1.1" 200 4932
INFO 2023-01-04 17:25:27,402 basehttp 6316 139693887457024 "POST /api/features HTTP/1.1" 200 4932
INFO 2023-01-04 17:27:09,292 basehttp 6316 139693887457024 "POST /api/features HTTP/1.1" 200 4932
INFO 2023-01-04 17:31:03,132 basehttp 6316 139693887457024 "POST /api/features HTTP/1.1" 200 4932
INFO 2023-01-04 17:32:35,765 basehttp 6316 139693887457024 "POST /api/features HTTP/1.1" 200 4932
INFO 2023-01-04 17:35:40,927 basehttp 6316 139693887457024 "POST /api/features HTTP/1.1" 200 4932
INFO 2023-01-04 17:37:16,813 basehttp 6316 139693887457024 "POST /api/features HTTP/1.1" 200 4932
INFO 2023-01-04 17:43:57,561 basehttp 6316 139693887457024 "POST /api/features HTTP/1.1" 200 4932
INFO 2023-01-04 17:46:46,719 basehttp 6316 139693887457024 "POST /api/features HTTP/1.1" 200 4932
INFO 2023-01-04 17:51:38,523 basehttp 6316 139693887457024 "POST /api/features HTTP/1.1" 200 4932
INFO 2023-01-04 17:53:24,275 basehttp 6316 139693887457024 "POST /api/features HTTP/1.1" 200 4932
INFO 2023-01-04 18:06:07,447 basehttp 6316 139693887457024 "POST /api/features HTTP/1.1" 200 4932
INFO 2023-01-04 18:09:03,745 basehttp 6316 139693887457024 "POST /api/features HTTP/1.1" 200 4932
INFO 2023-01-04 18:11:59,281 basehttp 6316 139693887457024 "POST /api/features HTTP/1.1" 200 4932
INFO 2023-01-04 18:23:11,039 basehttp 6316 139693887457024 "POST /api/features HTTP/1.1" 200 4932
INFO 2023-01-04 18:34:48,437 basehttp 6316 139693887457024 "POST /api/features HTTP/1.1" 200 4932
INFO 2023-01-04 18:36:13,410 basehttp 6316 139693887457024 "POST /api/features HTTP/1.1" 200 4932
INFO 2023-01-04 18:36:48,444 basehttp 6316 139693887457024 "POST /api/features HTTP/1.1" 200 4932
INFO 2023-01-04 18:38:56,357 basehttp 6316 139693887457024 "OPTIONS /api/features HTTP/1.1" 200 0
INFO 2023-01-04 18:38:56,870 basehttp 6316 139693887457024 "POST /api/features HTTP/1.1" 200 4932
INFO 2023-01-04 18:42:30,315 basehttp 6316 139693887457024 "POST /api/features HTTP/1.1" 200 4932
INFO 2023-01-04 18:44:09,657 basehttp 6316 139693887457024 "POST /api/features HTTP/1.1" 200 4932
INFO 2023-01-04 18:47:55,130 basehttp 6316 139693887457024 "POST /api/features HTTP/1.1" 200 4932
INFO 2023-01-04 19:05:32,907 basehttp 6316 139693887457024 "POST /api/features HTTP/1.1" 200 4932
INFO 2023-01-04 19:07:10,495 basehttp 6316 139693887457024 "POST /api/features HTTP/1.1" 200 4932
INFO 2023-01-04 19:15:51,809 basehttp 6316 139693887457024 "POST /api/features HTTP/1.1" 200 4932
INFO 2023-01-04 19:21:26,695 basehttp 6316 139693887457024 "POST /api/features HTTP/1.1" 200 4932
INFO 2023-01-04 19:24:07,610 basehttp 6316 139693887457024 "POST /api/features HTTP/1.1" 200 4932
INFO 2023-01-04 19:30:05,256 basehttp 6316 139693887457024 "POST /api/features HTTP/1.1" 200 4932
INFO 2023-01-04 19:35:15,242 basehttp 6316 139693887457024 "POST /api/features HTTP/1.1" 200 4932
INFO 2023-01-04 19:41:15,854 basehttp 6316 139693887457024 "POST /api/features HTTP/1.1" 200 4932
INFO 2023-01-04 19:47:49,090 basehttp 6316 139693887457024 "POST /api/features HTTP/1.1" 200 4932
INFO 2023-01-04 19:52:52,630 basehttp 6316 139693887457024 "POST /api/features HTTP/1.1" 200 4932
INFO 2023-01-04 19:53:19,801 basehttp 6316 139693887457024 "POST /api/features HTTP/1.1" 200 4932
INFO 2023-01-04 19:59:11,796 basehttp 6316 139693887457024 "POST /api/features HTTP/1.1" 200 4932
INFO 2023-01-04 20:08:04,361 basehttp 6316 139693887457024 "POST /api/features HTTP/1.1" 200 4932
INFO 2023-01-04 20:18:02,038 basehttp 6316 139693887457024 "POST /api/features HTTP/1.1" 200 4932
INFO 2023-01-04 20:21:36,114 basehttp 6316 139693887457024 "POST /api/features HTTP/1.1" 200 4932
INFO 2023-01-04 20:28:14,054 basehttp 6316 139693887457024 "POST /api/features HTTP/1.1" 200 4932
INFO 2023-01-04 20:28:50,785 basehttp 6316 139693887457024 "POST /api/features HTTP/1.1" 200 4932
INFO 2023-01-04 20:31:46,642 basehttp 6316 139693887457024 "POST /api/features HTTP/1.1" 200 5235
INFO 2023-01-04 20:31:55,377 basehttp 6316 139693887457024 "POST /api/features HTTP/1.1" 200 5235
INFO 2023-01-04 20:34:08,221 basehttp 6316 139693887457024 "POST /api/features HTTP/1.1" 200 4932
INFO 2023-01-04 20:34:20,798 basehttp 6316 139693887457024 "POST /api/features HTTP/1.1" 200 6192
INFO 2023-01-04 20:34:36,517 basehttp 6316 139693887457024 "POST /api/features HTTP/1.1" 200 4932
INFO 2023-01-04 20:36:31,688 basehttp 6316 139693887457024 "POST /api/features HTTP/1.1" 200 4932
INFO 2023-01-04 20:36:42,002 basehttp 6316 139693887457024 "POST /api/features HTTP/1.1" 200 5235
INFO 2023-01-04 20:36:47,914 basehttp 6316 139693887457024 "GET /api/plasmids/meta HTTP/1.1" 200 1256533
INFO 2023-01-04 20:36:49,849 basehttp 6316 139693887457024 "GET /api/plasmids?name=pGADT7-GW HTTP/1.1" 200 9654
INFO 2023-01-04 20:36:49,914 basehttp 6316 139693887457024 "OPTIONS /api/plasmids/popularity HTTP/1.1" 200 0
INFO 2023-01-04 20:36:49,934 basehttp 6316 139693887457024 "POST /api/plasmids/popularity HTTP/1.1" 200 0
INFO 2023-01-04 20:36:50,814 basehttp 6316 139693887457024 "POST /api/features HTTP/1.1" 200 7282
INFO 2023-01-04 20:36:52,084 basehttp 6316 139693887457024 "GET /api/plasmids?name=pGADT7-GW HTTP/1.1" 200 9654
INFO 2023-01-04 20:36:53,013 basehttp 6316 139693887457024 "POST /api/features HTTP/1.1" 200 7282
INFO 2023-01-04 20:37:10,344 basehttp 6316 139693887457024 "POST /api/features HTTP/1.1" 200 6192
INFO 2023-01-04 20:37:51,672 basehttp 6316 139693887457024 "GET /api/plasmids?name=pGADT7-GW HTTP/1.1" 200 9654
INFO 2023-01-04 20:37:52,546 basehttp 6316 139693887457024 "POST /api/features HTTP/1.1" 200 7282
INFO 2023-01-04 20:37:53,765 basehttp 6316 139693887457024 "GET /api/plasmids?name=pGADT7-GW HTTP/1.1" 200 9654
INFO 2023-01-04 20:37:55,401 basehttp 6316 139693887457024 "POST /api/features HTTP/1.1" 200 7282
INFO 2023-01-04 20:38:18,669 basehttp 6316 139693887457024 "POST /api/features HTTP/1.1" 200 4932
INFO 2023-01-04 20:39:11,548 basehttp 6316 139693887457024 "OPTIONS /api/features HTTP/1.1" 200 0
INFO 2023-01-04 20:39:12,283 basehttp 6316 139693887457024 "POST /api/features HTTP/1.1" 200 4932
INFO 2023-01-04 20:39:58,563 basehttp 6316 139693887457024 "POST /api/features HTTP/1.1" 200 4932
INFO 2023-01-04 20:42:11,259 basehttp 6316 139693887457024 "POST /api/features HTTP/1.1" 200 4932
INFO 2023-01-04 20:47:37,302 basehttp 6316 139693887457024 "POST /api/features HTTP/1.1" 200 4932
INFO 2023-01-04 20:49:57,525 basehttp 6316 139693887457024 "POST /api/features HTTP/1.1" 200 4932
INFO 2023-01-04 20:50:36,312 basehttp 6316 139693887457024 "POST /api/features HTTP/1.1" 200 4932
INFO 2023-01-04 20:51:55,930 basehttp 6316 139693887457024 "POST /api/features HTTP/1.1" 200 4932
INFO 2023-01-04 20:55:32,451 basehttp 6316 139693887457024 "POST /api/features HTTP/1.1" 200 4932
INFO 2023-01-04 20:58:47,172 basehttp 6316 139693887457024 "POST /api/features HTTP/1.1" 200 4932
INFO 2023-01-04 21:01:30,281 basehttp 6316 139693887457024 "POST /api/features HTTP/1.1" 200 4932
INFO 2023-01-04 21:03:41,554 basehttp 6316 139693887457024 "POST /api/features HTTP/1.1" 200 4932
INFO 2023-01-04 23:10:51,066 basehttp 6316 139693887457024 "OPTIONS /api/features HTTP/1.1" 200 0
INFO 2023-01-04 23:10:53,032 basehttp 6316 139693887457024 "POST /api/features HTTP/1.1" 200 4932
INFO 2023-01-04 23:15:54,285 basehttp 6316 139693887457024 "POST /api/features HTTP/1.1" 200 4932
INFO 2023-01-04 23:23:53,209 basehttp 6316 139693887457024 "POST /api/features HTTP/1.1" 200 4932
INFO 2023-01-04 23:27:01,694 basehttp 6316 139693887457024 "POST /api/features HTTP/1.1" 200 4932
INFO 2023-01-04 23:27:46,702 basehttp 6316 139693887457024 "POST /api/features HTTP/1.1" 200 4932
INFO 2023-01-04 23:32:33,056 basehttp 6316 139693887457024 "POST /api/features HTTP/1.1" 200 4932
INFO 2023-01-04 23:34:23,527 basehttp 6316 139693887457024 "POST /api/features HTTP/1.1" 200 4932
INFO 2023-01-04 23:35:01,237 basehttp 6316 139693887457024 "POST /api/features HTTP/1.1" 200 4932
INFO 2023-01-04 23:36:50,728 basehttp 6316 139693887457024 "POST /api/features HTTP/1.1" 200 4932
INFO 2023-01-04 23:37:26,460 basehttp 6316 139693887457024 "POST /api/features HTTP/1.1" 200 4932
INFO 2023-01-04 23:37:57,413 basehttp 6316 139693887457024 "POST /api/features HTTP/1.1" 200 4932
INFO 2023-01-04 23:45:02,126 basehttp 6316 139693887457024 "POST /api/features HTTP/1.1" 200 4932
INFO 2023-01-04 23:48:05,591 basehttp 6316 139693887457024 "POST /api/features HTTP/1.1" 200 4932
INFO 2023-01-04 23:49:07,985 basehttp 6316 139693887457024 "POST /api/features HTTP/1.1" 200 4932
INFO 2023-01-04 23:50:57,282 basehttp 6316 139693887457024 "POST /api/features HTTP/1.1" 200 4932
INFO 2023-01-04 23:56:21,476 basehttp 6316 139693887457024 "POST /api/features HTTP/1.1" 200 4932
INFO 2023-01-05 00:01:37,652 basehttp 6316 139693887457024 "POST /api/features HTTP/1.1" 200 4932
INFO 2023-01-05 00:05:42,326 basehttp 6316 139693887457024 "POST /api/features HTTP/1.1" 200 4932
INFO 2023-01-10 18:55:15,637 autoreload 17470 139899951384384 Watching for file changes with StatReloader
ERROR 2023-01-10 18:55:20,123 log 17470 139899821033216 Internal Server Error: /api/features
Traceback (most recent call last):
  File "/home/sukanta/.local/lib/python3.8/site-packages/django/core/handlers/exception.py", line 47, in inner
    response = get_response(request)
  File "/home/sukanta/.local/lib/python3.8/site-packages/django/core/handlers/base.py", line 181, in _get_response
    response = wrapped_callback(request, *callback_args, **callback_kwargs)
  File "/home/sukanta/.local/lib/python3.8/site-packages/django/views/decorators/csrf.py", line 54, in wrapped_view
    return view_func(*args, **kwargs)
  File "/home/sukanta/.local/lib/python3.8/site-packages/django/views/generic/base.py", line 69, in view
    return self.dispatch(request, *args, **kwargs)
  File "/home/sukanta/.local/lib/python3.8/site-packages/rest_framework/views.py", line 509, in dispatch
    response = self.handle_exception(exc)
  File "/home/sukanta/.local/lib/python3.8/site-packages/rest_framework/views.py", line 469, in handle_exception
    self.raise_uncaught_exception(exc)
  File "/home/sukanta/.local/lib/python3.8/site-packages/rest_framework/views.py", line 480, in raise_uncaught_exception
    raise exc
  File "/home/sukanta/.local/lib/python3.8/site-packages/rest_framework/views.py", line 506, in dispatch
    response = handler(request, *args, **kwargs)
  File "/home/sukanta/.local/lib/python3.8/site-packages/rest_framework/decorators.py", line 50, in handler
    return func(*args, **kwargs)
  File "/home/sukanta/plasmapper/ver3/plasmapper3/PlasMapper_API/plasmapperAPI/fsdSearch/views.py", line 125, in doFsdSearch
    search = FSDSearch(inputFileName, outputFileName)
  File "/home/sukanta/plasmapper/ver3/plasmapper3/PlasMapper_API/plasmapperAPI/fsdSearch/FSDSearch.py", line 27, in __init__
    self.curateFeatures()
  File "/home/sukanta/plasmapper/ver3/plasmapper3/PlasMapper_API/plasmapperAPI/fsdSearch/FSDSearch.py", line 42, in curateFeatures
    file = open(self.outputFile, 'r')
FileNotFoundError: [Errno 2] No such file or directory: '/home/sukanta/plasmapper/ver3/plasmapper3/PlasMapper_API/plasmapperAPI/fsdSearch/temp/output16733769200995297.txt'
ERROR 2023-01-10 18:55:20,174 basehttp 17470 139899821033216 "POST /api/features HTTP/1.1" 500 145
ERROR 2023-01-10 18:56:19,517 log 17470 139899821033216 Internal Server Error: /api/features
Traceback (most recent call last):
  File "/home/sukanta/.local/lib/python3.8/site-packages/django/core/handlers/exception.py", line 47, in inner
    response = get_response(request)
  File "/home/sukanta/.local/lib/python3.8/site-packages/django/core/handlers/base.py", line 181, in _get_response
    response = wrapped_callback(request, *callback_args, **callback_kwargs)
  File "/home/sukanta/.local/lib/python3.8/site-packages/django/views/decorators/csrf.py", line 54, in wrapped_view
    return view_func(*args, **kwargs)
  File "/home/sukanta/.local/lib/python3.8/site-packages/django/views/generic/base.py", line 69, in view
    return self.dispatch(request, *args, **kwargs)
  File "/home/sukanta/.local/lib/python3.8/site-packages/rest_framework/views.py", line 509, in dispatch
    response = self.handle_exception(exc)
  File "/home/sukanta/.local/lib/python3.8/site-packages/rest_framework/views.py", line 469, in handle_exception
    self.raise_uncaught_exception(exc)
  File "/home/sukanta/.local/lib/python3.8/site-packages/rest_framework/views.py", line 480, in raise_uncaught_exception
    raise exc
  File "/home/sukanta/.local/lib/python3.8/site-packages/rest_framework/views.py", line 506, in dispatch
    response = handler(request, *args, **kwargs)
  File "/home/sukanta/.local/lib/python3.8/site-packages/rest_framework/decorators.py", line 50, in handler
    return func(*args, **kwargs)
  File "/home/sukanta/plasmapper/ver3/plasmapper3/PlasMapper_API/plasmapperAPI/fsdSearch/views.py", line 125, in doFsdSearch
    search = FSDSearch(inputFileName, outputFileName)
  File "/home/sukanta/plasmapper/ver3/plasmapper3/PlasMapper_API/plasmapperAPI/fsdSearch/FSDSearch.py", line 27, in __init__
    self.curateFeatures()
  File "/home/sukanta/plasmapper/ver3/plasmapper3/PlasMapper_API/plasmapperAPI/fsdSearch/FSDSearch.py", line 42, in curateFeatures
    file = open(self.outputFile, 'r')
FileNotFoundError: [Errno 2] No such file or directory: '/home/sukanta/plasmapper/ver3/plasmapper3/PlasMapper_API/plasmapperAPI/fsdSearch/temp/output1673376979494977.txt'
ERROR 2023-01-10 18:56:19,519 basehttp 17470 139899821033216 "POST /api/features HTTP/1.1" 500 145
ERROR 2023-01-10 18:58:02,908 log 17470 139899821033216 Internal Server Error: /api/features
Traceback (most recent call last):
  File "/home/sukanta/.local/lib/python3.8/site-packages/django/core/handlers/exception.py", line 47, in inner
    response = get_response(request)
  File "/home/sukanta/.local/lib/python3.8/site-packages/django/core/handlers/base.py", line 181, in _get_response
    response = wrapped_callback(request, *callback_args, **callback_kwargs)
  File "/home/sukanta/.local/lib/python3.8/site-packages/django/views/decorators/csrf.py", line 54, in wrapped_view
    return view_func(*args, **kwargs)
  File "/home/sukanta/.local/lib/python3.8/site-packages/django/views/generic/base.py", line 69, in view
    return self.dispatch(request, *args, **kwargs)
  File "/home/sukanta/.local/lib/python3.8/site-packages/rest_framework/views.py", line 509, in dispatch
    response = self.handle_exception(exc)
  File "/home/sukanta/.local/lib/python3.8/site-packages/rest_framework/views.py", line 469, in handle_exception
    self.raise_uncaught_exception(exc)
  File "/home/sukanta/.local/lib/python3.8/site-packages/rest_framework/views.py", line 480, in raise_uncaught_exception
    raise exc
  File "/home/sukanta/.local/lib/python3.8/site-packages/rest_framework/views.py", line 506, in dispatch
    response = handler(request, *args, **kwargs)
  File "/home/sukanta/.local/lib/python3.8/site-packages/rest_framework/decorators.py", line 50, in handler
    return func(*args, **kwargs)
  File "/home/sukanta/plasmapper/ver3/plasmapper3/PlasMapper_API/plasmapperAPI/fsdSearch/views.py", line 125, in doFsdSearch
    search = FSDSearch(inputFileName, outputFileName)
  File "/home/sukanta/plasmapper/ver3/plasmapper3/PlasMapper_API/plasmapperAPI/fsdSearch/FSDSearch.py", line 27, in __init__
    self.curateFeatures()
  File "/home/sukanta/plasmapper/ver3/plasmapper3/PlasMapper_API/plasmapperAPI/fsdSearch/FSDSearch.py", line 42, in curateFeatures
    file = open(self.outputFile, 'r')
FileNotFoundError: [Errno 2] No such file or directory: '/home/sukanta/plasmapper/ver3/plasmapper3/PlasMapper_API/plasmapperAPI/fsdSearch/temp/output16733770828844888.txt'
ERROR 2023-01-10 18:58:02,910 basehttp 17470 139899821033216 "POST /api/features HTTP/1.1" 500 145
ERROR 2023-01-10 18:58:06,169 log 17470 139899821033216 Internal Server Error: /api/features
Traceback (most recent call last):
  File "/home/sukanta/.local/lib/python3.8/site-packages/django/core/handlers/exception.py", line 47, in inner
    response = get_response(request)
  File "/home/sukanta/.local/lib/python3.8/site-packages/django/core/handlers/base.py", line 181, in _get_response
    response = wrapped_callback(request, *callback_args, **callback_kwargs)
  File "/home/sukanta/.local/lib/python3.8/site-packages/django/views/decorators/csrf.py", line 54, in wrapped_view
    return view_func(*args, **kwargs)
  File "/home/sukanta/.local/lib/python3.8/site-packages/django/views/generic/base.py", line 69, in view
    return self.dispatch(request, *args, **kwargs)
  File "/home/sukanta/.local/lib/python3.8/site-packages/rest_framework/views.py", line 509, in dispatch
    response = self.handle_exception(exc)
  File "/home/sukanta/.local/lib/python3.8/site-packages/rest_framework/views.py", line 469, in handle_exception
    self.raise_uncaught_exception(exc)
  File "/home/sukanta/.local/lib/python3.8/site-packages/rest_framework/views.py", line 480, in raise_uncaught_exception
    raise exc
  File "/home/sukanta/.local/lib/python3.8/site-packages/rest_framework/views.py", line 506, in dispatch
    response = handler(request, *args, **kwargs)
  File "/home/sukanta/.local/lib/python3.8/site-packages/rest_framework/decorators.py", line 50, in handler
    return func(*args, **kwargs)
  File "/home/sukanta/plasmapper/ver3/plasmapper3/PlasMapper_API/plasmapperAPI/fsdSearch/views.py", line 125, in doFsdSearch
    search = FSDSearch(inputFileName, outputFileName)
  File "/home/sukanta/plasmapper/ver3/plasmapper3/PlasMapper_API/plasmapperAPI/fsdSearch/FSDSearch.py", line 27, in __init__
    self.curateFeatures()
  File "/home/sukanta/plasmapper/ver3/plasmapper3/PlasMapper_API/plasmapperAPI/fsdSearch/FSDSearch.py", line 42, in curateFeatures
    file = open(self.outputFile, 'r')
FileNotFoundError: [Errno 2] No such file or directory: '/home/sukanta/plasmapper/ver3/plasmapper3/PlasMapper_API/plasmapperAPI/fsdSearch/temp/output16733770861484416.txt'
ERROR 2023-01-10 18:58:06,171 basehttp 17470 139899821033216 "POST /api/features HTTP/1.1" 500 145
INFO 2023-01-10 18:59:29,083 autoreload 18157 139711426725696 Watching for file changes with StatReloader
INFO 2023-01-10 18:59:33,508 basehttp 18157 139711363483392 "POST /api/features HTTP/1.1" 200 6462
INFO 2023-01-10 18:59:34,021 basehttp 18157 139711354504960 "POST /api/features HTTP/1.1" 200 4977
INFO 2023-01-10 18:59:34,547 basehttp 18157 139711354504960 "POST /api/features HTTP/1.1" 200 6388
INFO 2023-01-10 18:59:35,079 basehttp 18157 139711354504960 "POST /api/features HTTP/1.1" 200 6389
INFO 2023-01-10 18:59:35,782 basehttp 18157 139711354504960 "POST /api/features HTTP/1.1" 200 6262
INFO 2023-01-10 18:59:36,280 basehttp 18157 139711354504960 "POST /api/features HTTP/1.1" 200 6242
INFO 2023-01-10 18:59:36,822 basehttp 18157 139711354504960 "POST /api/features HTTP/1.1" 200 6242
INFO 2023-01-10 18:59:37,369 basehttp 18157 139711354504960 "POST /api/features HTTP/1.1" 200 6293
INFO 2023-01-10 18:59:37,911 basehttp 18157 139711354504960 "POST /api/features HTTP/1.1" 200 6443
INFO 2023-01-10 18:59:38,412 basehttp 18157 139711354504960 "POST /api/features HTTP/1.1" 200 6443
INFO 2023-01-10 18:59:38,987 basehttp 18157 139711354504960 "POST /api/features HTTP/1.1" 200 6830
INFO 2023-01-10 18:59:39,637 basehttp 18157 139711354504960 "POST /api/features HTTP/1.1" 200 7987
INFO 2023-01-10 19:19:02,442 autoreload 22063 139660142315328 Watching for file changes with StatReloader
INFO 2023-01-10 19:41:02,761 autoreload 24793 140177420912448 Watching for file changes with StatReloader
INFO 2023-01-10 19:44:31,011 basehttp 24793 140177357670144 "GET /api/plasmids/meta HTTP/1.1" 200 1265598
INFO 2023-01-10 19:45:01,837 basehttp 24793 140177345545984 "OPTIONS /api/plasmids/popularity HTTP/1.1" 200 0
INFO 2023-01-10 19:45:01,931 basehttp 24793 140177345545984 "POST /api/plasmids/popularity HTTP/1.1" 200 0
INFO 2023-01-10 19:45:01,931 basehttp 24793 140177357670144 "GET /api/plasmids?name=pcDNA3.1-IDO1-p2a-eGFP HTTP/1.1" 200 7389
INFO 2023-01-10 19:45:02,225 basehttp 24793 140177357670144 "OPTIONS /api/features HTTP/1.1" 200 0
INFO 2023-01-10 19:45:03,270 basehttp 24793 140177357670144 "POST /api/features HTTP/1.1" 200 7987
INFO 2023-01-10 19:45:04,768 basehttp 24793 140177357670144 "GET /api/plasmids?name=pcDNA3.1-IDO1-p2a-eGFP HTTP/1.1" 200 7389
INFO 2023-01-10 19:45:06,042 basehttp 24793 140177357670144 "POST /api/features HTTP/1.1" 200 7987
INFO 2023-01-10 19:50:48,924 basehttp 24793 140177357670144 "GET /api/plasmids?name=pcDNA3.1-IDO1-p2a-eGFP HTTP/1.1" 200 7389
INFO 2023-01-10 19:50:50,726 basehttp 24793 140177357670144 "POST /api/features HTTP/1.1" 200 7987
INFO 2023-01-10 20:00:54,330 basehttp 24793 140177357670144 "GET /api/plasmids?name=pcDNA3.1-IDO1-p2a-eGFP HTTP/1.1" 200 7389
INFO 2023-01-10 20:01:03,183 basehttp 24793 140177357670144 "POST /api/features HTTP/1.1" 200 7987
INFO 2023-01-10 20:07:23,848 autoreload 30635 139735996892992 Watching for file changes with StatReloader
INFO 2023-01-10 20:10:26,132 basehttp 30635 139735933650688 "GET /api/plasmids?name=pcDNA3.1-IDO1-p2a-eGFP HTTP/1.1" 200 7389
INFO 2023-01-10 20:10:28,803 basehttp 30635 139735933650688 "POST /api/features HTTP/1.1" 200 7987
INFO 2023-01-10 20:10:47,311 basehttp 30635 139735933650688 "POST /api/features HTTP/1.1" 200 4932
INFO 2023-01-10 20:13:36,749 basehttp 30635 139735933650688 "GET /api/plasmids?name=pcDNA3.1-IDO1-p2a-eGFP HTTP/1.1" 200 7389
INFO 2023-01-10 20:13:41,358 basehttp 30635 139735933650688 "POST /api/features HTTP/1.1" 200 7987
INFO 2023-01-10 20:44:47,567 basehttp 30635 139735933650688 "GET /api/plasmids?name=pcDNA3.1-IDO1-p2a-eGFP HTTP/1.1" 200 7389
INFO 2023-01-10 20:44:50,524 basehttp 30635 139735933650688 "POST /api/features HTTP/1.1" 200 7987
INFO 2023-01-10 21:15:58,516 basehttp 30635 139735933650688 "GET /api/plasmids?name=pcDNA3.1-IDO1-p2a-eGFP HTTP/1.1" 200 7389
INFO 2023-01-10 21:16:02,306 basehttp 30635 139735933650688 "POST /api/features HTTP/1.1" 200 7987
INFO 2023-01-10 21:19:26,018 basehttp 30635 139735933650688 "GET /api/plasmids?name=pcDNA3.1-IDO1-p2a-eGFP HTTP/1.1" 200 7389
INFO 2023-01-10 21:19:27,914 basehttp 30635 139735933650688 "POST /api/features HTTP/1.1" 200 7987
INFO 2023-01-10 21:19:36,701 basehttp 30635 139735933650688 "GET /api/plasmids?name=pcDNA3.1-IDO1-p2a-eGFP HTTP/1.1" 200 7389
INFO 2023-01-10 21:19:38,356 basehttp 30635 139735933650688 "POST /api/features HTTP/1.1" 200 7987
INFO 2023-01-10 21:26:48,858 basehttp 30635 139735933650688 "GET /api/plasmids?name=pcDNA3.1-IDO1-p2a-eGFP HTTP/1.1" 200 7389
INFO 2023-01-10 21:26:50,652 basehttp 30635 139735933650688 "POST /api/features HTTP/1.1" 200 7987
INFO 2023-01-10 21:27:42,200 basehttp 30635 139735933650688 "GET /api/plasmids?name=pcDNA3.1-IDO1-p2a-eGFP HTTP/1.1" 200 7389
INFO 2023-01-10 21:27:43,707 basehttp 30635 139735933650688 "POST /api/features HTTP/1.1" 200 7987
INFO 2023-01-10 21:27:49,586 basehttp 30635 139735933650688 "GET /api/plasmids?name=pcDNA3.1-IDO1-p2a-eGFP HTTP/1.1" 200 7389
INFO 2023-01-10 21:27:51,524 basehttp 30635 139735933650688 "POST /api/features HTTP/1.1" 200 7987
INFO 2023-01-10 21:27:57,065 basehttp 30635 139735933650688 "GET /api/plasmids?name=pcDNA3.1-IDO1-p2a-eGFP HTTP/1.1" 200 7389
INFO 2023-01-10 21:27:57,963 basehttp 30635 139735933650688 "POST /api/features HTTP/1.1" 200 7987
INFO 2023-01-10 21:28:20,709 basehttp 30635 139735933650688 "GET /api/plasmids?name=pcDNA3.1-IDO1-p2a-eGFP HTTP/1.1" 200 7389
INFO 2023-01-10 21:28:21,453 basehttp 30635 139735933650688 "POST /api/features HTTP/1.1" 200 7987
INFO 2023-01-10 21:28:29,186 basehttp 30635 139735933650688 "GET /api/plasmids?name=pcDNA3.1-IDO1-p2a-eGFP HTTP/1.1" 200 7389
INFO 2023-01-10 21:28:32,352 basehttp 30635 139735933650688 "POST /api/features HTTP/1.1" 200 7987
INFO 2023-01-10 21:29:00,616 basehttp 30635 139735933650688 "GET /api/plasmids?name=pcDNA3.1-IDO1-p2a-eGFP HTTP/1.1" 200 7389
INFO 2023-01-10 21:29:02,291 basehttp 30635 139735933650688 "POST /api/features HTTP/1.1" 200 7987
INFO 2023-01-10 21:29:15,750 basehttp 30635 139735933650688 "GET /api/plasmids?name=pcDNA3.1-IDO1-p2a-eGFP HTTP/1.1" 200 7389
INFO 2023-01-10 21:29:16,820 basehttp 30635 139735933650688 "POST /api/features HTTP/1.1" 200 7987
INFO 2023-01-10 21:29:57,658 basehttp 30635 139735933650688 "GET /api/plasmids?name=pcDNA3.1-IDO1-p2a-eGFP HTTP/1.1" 200 7389
INFO 2023-01-10 21:29:59,044 basehttp 30635 139735933650688 "POST /api/features HTTP/1.1" 200 7987
INFO 2023-01-10 21:30:17,486 basehttp 30635 139735933650688 "GET /api/plasmids?name=pcDNA3.1-IDO1-p2a-eGFP HTTP/1.1" 200 7389
INFO 2023-01-10 21:30:19,190 basehttp 30635 139735933650688 "POST /api/features HTTP/1.1" 200 7987
INFO 2023-01-10 21:30:58,525 basehttp 30635 139735933650688 "GET /api/plasmids?name=pcDNA3.1-IDO1-p2a-eGFP HTTP/1.1" 200 7389
INFO 2023-01-10 21:30:59,850 basehttp 30635 139735933650688 "POST /api/features HTTP/1.1" 200 7987
INFO 2023-01-10 21:31:33,282 basehttp 30635 139735933650688 "GET /api/plasmids?name=pcDNA3.1-IDO1-p2a-eGFP HTTP/1.1" 200 7389
INFO 2023-01-10 21:31:34,232 basehttp 30635 139735933650688 "POST /api/features HTTP/1.1" 200 7987
INFO 2023-01-10 21:32:06,149 basehttp 30635 139735933650688 "GET /api/plasmids?name=pcDNA3.1-IDO1-p2a-eGFP HTTP/1.1" 200 7389
INFO 2023-01-10 21:32:07,665 basehttp 30635 139735933650688 "POST /api/features HTTP/1.1" 200 7987
INFO 2023-01-10 21:32:38,566 basehttp 30635 139735933650688 "GET /api/plasmids?name=pcDNA3.1-IDO1-p2a-eGFP HTTP/1.1" 200 7389
INFO 2023-01-10 21:32:40,118 basehttp 30635 139735933650688 "POST /api/features HTTP/1.1" 200 7987
INFO 2023-01-10 21:36:05,527 basehttp 30635 139735933650688 "GET /api/plasmids?name=pcDNA3.1-IDO1-p2a-eGFP HTTP/1.1" 200 7389
INFO 2023-01-10 21:36:09,746 basehttp 30635 139735933650688 "POST /api/features HTTP/1.1" 200 7987
INFO 2023-01-10 21:37:07,793 basehttp 30635 139735933650688 "GET /api/plasmids?name=pcDNA3.1-IDO1-p2a-eGFP HTTP/1.1" 200 7389
INFO 2023-01-10 21:37:08,849 basehttp 30635 139735933650688 "POST /api/features HTTP/1.1" 200 7987
INFO 2023-01-10 21:37:54,090 basehttp 30635 139735933650688 "GET /api/plasmids?name=pcDNA3.1-IDO1-p2a-eGFP HTTP/1.1" 200 7389
INFO 2023-01-10 21:37:55,759 basehttp 30635 139735933650688 "POST /api/features HTTP/1.1" 200 7987
INFO 2023-01-10 21:38:30,225 basehttp 30635 139735933650688 "GET /api/plasmids?name=pcDNA3.1-IDO1-p2a-eGFP HTTP/1.1" 200 7389
INFO 2023-01-10 21:38:32,017 basehttp 30635 139735933650688 "POST /api/features HTTP/1.1" 200 7987
INFO 2023-01-10 21:39:14,976 basehttp 30635 139735933650688 "GET /api/plasmids?name=pcDNA3.1-IDO1-p2a-eGFP HTTP/1.1" 200 7389
INFO 2023-01-10 21:39:16,569 basehttp 30635 139735933650688 "POST /api/features HTTP/1.1" 200 7987
INFO 2023-01-10 21:39:49,926 basehttp 30635 139735933650688 "GET /api/plasmids?name=pcDNA3.1-IDO1-p2a-eGFP HTTP/1.1" 200 7389
INFO 2023-01-10 21:39:51,015 basehttp 30635 139735933650688 "POST /api/features HTTP/1.1" 200 7987
INFO 2023-01-10 21:40:35,014 basehttp 30635 139735933650688 "GET /api/plasmids?name=pcDNA3.1-IDO1-p2a-eGFP HTTP/1.1" 200 7389
INFO 2023-01-10 21:40:36,503 basehttp 30635 139735933650688 "POST /api/features HTTP/1.1" 200 7987
INFO 2023-01-10 21:40:56,912 basehttp 30635 139735933650688 "GET /api/plasmids?name=pcDNA3.1-IDO1-p2a-eGFP HTTP/1.1" 200 7389
INFO 2023-01-10 21:40:58,297 basehttp 30635 139735933650688 "POST /api/features HTTP/1.1" 200 7987
INFO 2023-01-10 21:42:11,223 basehttp 30635 139735933650688 "GET /api/plasmids?name=pcDNA3.1-IDO1-p2a-eGFP HTTP/1.1" 200 7389
INFO 2023-01-10 21:42:12,719 basehttp 30635 139735933650688 "POST /api/features HTTP/1.1" 200 7987
INFO 2023-01-10 21:43:03,826 basehttp 30635 139735933650688 "GET /api/plasmids?name=pcDNA3.1-IDO1-p2a-eGFP HTTP/1.1" 200 7389
INFO 2023-01-10 21:43:05,884 basehttp 30635 139735933650688 "POST /api/features HTTP/1.1" 200 7987
INFO 2023-01-10 21:44:49,322 basehttp 30635 139735933650688 "GET /api/plasmids?name=pcDNA3.1-IDO1-p2a-eGFP HTTP/1.1" 200 7389
INFO 2023-01-10 21:44:51,611 basehttp 30635 139735933650688 "POST /api/features HTTP/1.1" 200 7987
INFO 2023-01-10 21:45:02,868 basehttp 30635 139735933650688 "OPTIONS /api/features HTTP/1.1" 200 0
INFO 2023-01-10 21:45:04,299 basehttp 30635 139735933650688 "POST /api/features HTTP/1.1" 200 4932
INFO 2023-01-10 21:45:42,162 basehttp 30635 139735933650688 "POST /api/features HTTP/1.1" 200 6192
INFO 2023-01-11 11:01:11,434 basehttp 30635 139735933650688 "OPTIONS /api/features HTTP/1.1" 200 0
INFO 2023-01-11 11:01:14,809 basehttp 30635 139735933650688 "POST /api/features HTTP/1.1" 200 6192
INFO 2023-01-11 11:33:45,501 basehttp 30635 139735933650688 "POST /api/features HTTP/1.1" 200 6192
INFO 2023-01-11 11:42:39,048 basehttp 30635 139735933650688 "POST /api/features HTTP/1.1" 200 6192
INFO 2023-01-11 11:43:11,822 basehttp 30635 139735933650688 "POST /api/features HTTP/1.1" 200 6192
INFO 2023-01-11 11:44:09,314 basehttp 30635 139735933650688 "POST /api/features HTTP/1.1" 200 6192
INFO 2023-01-11 11:44:50,314 basehttp 30635 139735933650688 "POST /api/features HTTP/1.1" 200 6192
INFO 2023-01-11 12:34:19,846 basehttp 30635 139735933650688 "POST /api/features HTTP/1.1" 200 6192
INFO 2023-01-11 12:35:18,218 basehttp 30635 139735933650688 "POST /api/features HTTP/1.1" 200 6192
INFO 2023-01-11 12:36:02,983 basehttp 30635 139735933650688 "POST /api/features HTTP/1.1" 200 6192
INFO 2023-01-11 12:36:53,155 basehttp 30635 139735933650688 "POST /api/features HTTP/1.1" 200 6192
INFO 2023-01-11 12:39:31,941 basehttp 30635 139735933650688 "POST /api/features HTTP/1.1" 200 6192
INFO 2023-01-11 12:40:16,034 basehttp 30635 139735933650688 "POST /api/features HTTP/1.1" 200 6192
INFO 2023-01-11 12:41:53,513 basehttp 30635 139735933650688 "POST /api/features HTTP/1.1" 200 6192
INFO 2023-01-11 12:46:15,305 basehttp 30635 139735933650688 "POST /api/features HTTP/1.1" 200 6192
INFO 2023-01-11 12:52:42,908 basehttp 30635 139735933650688 "POST /api/features HTTP/1.1" 200 6192
INFO 2023-01-11 12:53:02,825 basehttp 30635 139735933650688 "POST /api/features HTTP/1.1" 200 6192
INFO 2023-01-11 12:55:29,696 basehttp 30635 139735933650688 "POST /api/features HTTP/1.1" 200 6192
INFO 2023-01-11 12:55:53,272 basehttp 30635 139735933650688 "POST /api/features HTTP/1.1" 200 6192
INFO 2023-01-11 12:56:58,022 basehttp 30635 139735933650688 "POST /api/features HTTP/1.1" 200 6176
INFO 2023-01-11 12:57:40,782 basehttp 30635 139735933650688 "POST /api/features HTTP/1.1" 200 6192
INFO 2023-01-11 12:58:01,009 basehttp 30635 139735933650688 "POST /api/features HTTP/1.1" 200 6192
INFO 2023-01-11 12:58:16,696 basehttp 30635 139735933650688 "POST /api/features HTTP/1.1" 200 6176
INFO 2023-01-11 13:00:37,236 basehttp 30635 139735933650688 "POST /api/features HTTP/1.1" 200 6176
INFO 2023-01-11 13:00:44,189 basehttp 30635 139735933650688 "POST /api/features HTTP/1.1" 200 6192
INFO 2023-01-11 13:00:44,390 basehttp 30635 139735924147968 "POST /api/features HTTP/1.1" 200 6192
INFO 2023-01-11 13:01:00,381 basehttp 30635 139735924147968 "POST /api/features HTTP/1.1" 200 6176
INFO 2023-01-11 13:01:14,727 basehttp 30635 139735924147968 "OPTIONS /api/features HTTP/1.1" 200 0
INFO 2023-01-11 13:01:15,497 basehttp 30635 139735924147968 "POST /api/features HTTP/1.1" 200 6120
INFO 2023-01-11 13:01:32,841 basehttp 30635 139735924147968 "POST /api/features HTTP/1.1" 200 6100
INFO 2023-01-11 13:04:01,967 basehttp 30635 139735924147968 "POST /api/features HTTP/1.1" 200 6100
INFO 2023-01-11 13:05:43,280 basehttp 30635 139735924147968 "POST /api/features HTTP/1.1" 200 6100
INFO 2023-01-11 13:05:55,140 basehttp 30635 139735924147968 "POST /api/features HTTP/1.1" 200 6080
INFO 2023-01-11 13:06:36,683 basehttp 30635 139735924147968 "POST /api/features HTTP/1.1" 200 6080
INFO 2023-01-11 13:06:50,665 basehttp 30635 139735924147968 "POST /api/features HTTP/1.1" 200 6080
INFO 2023-01-11 13:07:25,698 basehttp 30635 139735924147968 "POST /api/features HTTP/1.1" 200 6080
INFO 2023-01-11 13:08:12,933 basehttp 30635 139735924147968 "POST /api/features HTTP/1.1" 200 6080
INFO 2023-01-11 13:08:31,075 basehttp 30635 139735924147968 "POST /api/features HTTP/1.1" 200 6192
INFO 2023-01-11 13:08:31,148 basehttp 30635 139735933650688 "POST /api/features HTTP/1.1" 200 6192
INFO 2023-01-11 13:08:47,565 basehttp 30635 139735933650688 "POST /api/features HTTP/1.1" 200 6229
INFO 2023-01-11 13:09:54,638 basehttp 30635 139735933650688 "POST /api/features HTTP/1.1" 200 6229
INFO 2023-01-11 13:10:19,386 basehttp 30635 139735933650688 "POST /api/features HTTP/1.1" 200 6184
INFO 2023-01-11 13:11:43,769 basehttp 30635 139735933650688 "POST /api/features HTTP/1.1" 200 6184
INFO 2023-01-11 13:12:25,731 basehttp 30635 139735933650688 "POST /api/features HTTP/1.1" 200 6184
INFO 2023-01-11 13:12:49,504 basehttp 30635 139735933650688 "POST /api/features HTTP/1.1" 200 6184
INFO 2023-01-11 13:13:15,697 basehttp 30635 139735933650688 "POST /api/features HTTP/1.1" 200 6184
INFO 2023-01-11 13:13:38,782 basehttp 30635 139735933650688 "POST /api/features HTTP/1.1" 200 6184
INFO 2023-01-11 13:13:50,137 basehttp 30635 139735933650688 "POST /api/features HTTP/1.1" 200 6164
INFO 2023-01-11 13:14:04,777 basehttp 30635 139735933650688 "POST /api/features HTTP/1.1" 200 6164
INFO 2023-01-11 13:14:10,697 basehttp 30635 139735933650688 "POST /api/features HTTP/1.1" 200 6164
INFO 2023-01-11 13:14:19,669 basehttp 30635 139735933650688 "POST /api/features HTTP/1.1" 200 6164
INFO 2023-01-11 13:14:37,245 basehttp 30635 139735933650688 "POST /api/features HTTP/1.1" 200 6164
INFO 2023-01-11 13:15:06,113 basehttp 30635 139735933650688 "POST /api/features HTTP/1.1" 200 6164
INFO 2023-01-11 13:15:16,758 basehttp 30635 139735933650688 "POST /api/features HTTP/1.1" 200 6164
INFO 2023-01-11 13:15:30,235 basehttp 30635 139735933650688 "POST /api/features HTTP/1.1" 200 6164
INFO 2023-01-11 13:15:43,303 basehttp 30635 139735933650688 "POST /api/features HTTP/1.1" 200 6164
INFO 2023-01-11 13:17:01,585 basehttp 30635 139735933650688 "POST /api/features HTTP/1.1" 200 6164
INFO 2023-01-11 13:17:12,967 basehttp 30635 139735933650688 "POST /api/features HTTP/1.1" 200 6164
INFO 2023-01-11 13:17:25,355 basehttp 30635 139735933650688 "POST /api/features HTTP/1.1" 200 6164
INFO 2023-01-11 13:17:51,513 basehttp 30635 139735933650688 "POST /api/features HTTP/1.1" 200 6164
INFO 2023-01-11 13:18:13,669 basehttp 30635 139735933650688 "POST /api/features HTTP/1.1" 200 6164
INFO 2023-01-11 13:18:25,732 basehttp 30635 139735933650688 "POST /api/features HTTP/1.1" 200 6164
INFO 2023-01-11 13:18:37,699 basehttp 30635 139735933650688 "POST /api/features HTTP/1.1" 200 6164
INFO 2023-01-11 13:20:53,796 basehttp 30635 139735933650688 "POST /api/features HTTP/1.1" 200 6164
INFO 2023-01-11 13:21:15,737 basehttp 30635 139735933650688 "POST /api/features HTTP/1.1" 200 6150
INFO 2023-01-11 13:21:46,051 basehttp 30635 139735933650688 "POST /api/features HTTP/1.1" 200 6076
INFO 2023-01-11 13:22:22,060 basehttp 30635 139735933650688 "POST /api/features HTTP/1.1" 200 6064
INFO 2023-01-11 13:39:00,872 basehttp 30635 139735933650688 "POST /api/features HTTP/1.1" 200 6064
INFO 2023-01-11 13:48:13,492 basehttp 30635 139735933650688 "POST /api/features HTTP/1.1" 200 6064
INFO 2023-01-11 13:48:19,845 basehttp 30635 139735933650688 "POST /api/features HTTP/1.1" 200 6192
INFO 2023-01-11 13:48:20,034 basehttp 30635 139735924147968 "POST /api/features HTTP/1.1" 200 6192
INFO 2023-01-11 13:48:32,183 basehttp 30635 139735924147968 "POST /api/features HTTP/1.1" 200 4932
INFO 2023-01-11 13:48:32,425 basehttp 30635 139735933650688 "POST /api/features HTTP/1.1" 200 4932
INFO 2023-01-11 13:49:20,330 basehttp 30635 139735933650688 "POST /api/features HTTP/1.1" 200 4932
INFO 2023-01-11 13:49:20,576 basehttp 30635 139735924147968 "POST /api/features HTTP/1.1" 200 4932
INFO 2023-01-11 13:50:28,591 basehttp 30635 139735924147968 "POST /api/features HTTP/1.1" 200 4932
INFO 2023-01-11 13:50:36,192 basehttp 30635 139735924147968 "POST /api/features HTTP/1.1" 200 6192
INFO 2023-01-11 13:50:36,412 basehttp 30635 139735933650688 "POST /api/features HTTP/1.1" 200 6192
INFO 2023-01-11 13:54:32,956 basehttp 30635 139735924147968 "POST /api/features HTTP/1.1" 200 6192
INFO 2023-01-11 13:54:33,859 basehttp 30635 139735933650688 "POST /api/features HTTP/1.1" 200 6192
INFO 2023-01-11 13:55:00,175 basehttp 30635 139735933650688 "POST /api/features HTTP/1.1" 200 6192
INFO 2023-01-11 13:55:00,490 basehttp 30635 139735924147968 "POST /api/features HTTP/1.1" 200 6192
INFO 2023-01-11 13:55:27,786 basehttp 30635 139735924147968 "POST /api/features HTTP/1.1" 200 6192
INFO 2023-01-11 13:55:34,103 basehttp 30635 139735924147968 "POST /api/features HTTP/1.1" 200 6192
INFO 2023-01-11 13:55:34,616 basehttp 30635 139735933650688 "POST /api/features HTTP/1.1" 200 6192
INFO 2023-01-11 13:55:58,899 basehttp 30635 139735933650688 "POST /api/features HTTP/1.1" 200 4932
INFO 2023-01-11 13:55:59,073 basehttp 30635 139735924147968 "POST /api/features HTTP/1.1" 200 4932
INFO 2023-01-11 13:57:26,581 basehttp 30635 139735924147968 "POST /api/features HTTP/1.1" 200 4932
INFO 2023-01-11 13:57:44,180 basehttp 30635 139735924147968 "POST /api/features HTTP/1.1" 200 5235
INFO 2023-01-11 13:57:44,307 basehttp 30635 139735933650688 "POST /api/features HTTP/1.1" 200 5235
INFO 2023-01-11 14:00:17,473 basehttp 30635 139735933650688 "POST /api/features HTTP/1.1" 200 6192
INFO 2023-01-11 14:00:17,684 basehttp 30635 139735924147968 "POST /api/features HTTP/1.1" 200 6192
INFO 2023-01-11 14:11:29,153 autoreload 2355 140335500625728 Watching for file changes with StatReloader
INFO 2023-01-11 14:11:48,183 basehttp 2355 140335361558272 "POST /api/features HTTP/1.1" 200 4932
INFO 2023-01-11 14:11:48,188 basehttp 2355 140335370274560 "POST /api/features HTTP/1.1" 200 4932
INFO 2023-01-11 14:14:34,827 basehttp 2355 140335370274560 "POST /api/features HTTP/1.1" 200 5235
INFO 2023-01-11 14:14:35,009 basehttp 2355 140335361558272 "POST /api/features HTTP/1.1" 200 5235
INFO 2023-01-11 14:17:23,177 basehttp 2355 140335361558272 "POST /api/features HTTP/1.1" 200 5235
INFO 2023-01-11 14:17:23,342 basehttp 2355 140335370274560 "POST /api/features HTTP/1.1" 200 5235
INFO 2023-01-11 14:17:28,194 basehttp 2355 140335370274560 "POST /api/features HTTP/1.1" 200 4932
INFO 2023-01-11 14:17:28,227 basehttp 2355 140335361558272 "POST /api/features HTTP/1.1" 200 4932
INFO 2023-01-11 14:17:32,585 basehttp 2355 140335361558272 "POST /api/features HTTP/1.1" 200 6192
INFO 2023-01-11 14:17:32,619 basehttp 2355 140335370274560 "POST /api/features HTTP/1.1" 200 6192
INFO 2023-01-11 14:18:26,847 basehttp 2355 140335370274560 "POST /api/features HTTP/1.1" 200 6192
INFO 2023-01-11 14:18:41,424 basehttp 2355 140335370274560 "POST /api/features HTTP/1.1" 200 6197
INFO 2023-01-11 14:19:14,669 basehttp 2355 140335370274560 "POST /api/features HTTP/1.1" 200 6203
INFO 2023-01-11 14:20:12,796 basehttp 2355 140335370274560 "POST /api/features HTTP/1.1" 200 6227
INFO 2023-01-11 14:20:53,256 basehttp 2355 140335370274560 "POST /api/features HTTP/1.1" 200 6230
INFO 2023-01-11 14:21:35,901 basehttp 2355 140335370274560 "POST /api/features HTTP/1.1" 200 6252
INFO 2023-01-11 14:22:26,953 basehttp 2355 140335370274560 "POST /api/features HTTP/1.1" 200 6251
INFO 2023-01-11 14:25:01,375 basehttp 2355 140335370274560 "POST /api/features HTTP/1.1" 200 6252
INFO 2023-01-11 14:30:00,867 basehttp 2355 140335370274560 "POST /api/features HTTP/1.1" 200 6293
INFO 2023-01-11 14:38:39,885 basehttp 2355 140335370274560 "POST /api/features HTTP/1.1" 200 6293
INFO 2023-01-11 14:39:13,738 basehttp 2355 140335370274560 "POST /api/features HTTP/1.1" 200 6293
INFO 2023-01-11 15:09:23,100 autoreload 5513 140292836493120 Watching for file changes with StatReloader
INFO 2023-01-11 15:11:27,270 basehttp 5513 140292773250816 "OPTIONS /api/features HTTP/1.1" 200 0
INFO 2023-01-11 15:11:28,093 basehttp 5513 140292773250816 "POST /api/features HTTP/1.1" 200 5235
INFO 2023-01-11 15:11:28,204 basehttp 5513 140292690740992 "POST /api/features HTTP/1.1" 200 5235
INFO 2023-01-11 15:13:03,052 basehttp 5513 140292690740992 "POST /api/features HTTP/1.1" 200 6192
INFO 2023-01-11 15:13:04,374 basehttp 5513 140292690740992 "POST /api/features HTTP/1.1" 200 6192
INFO 2023-01-11 15:14:25,449 basehttp 5513 140292690740992 "POST /api/features HTTP/1.1" 200 6192
INFO 2023-01-11 15:14:27,173 basehttp 5513 140292690740992 "POST /api/features HTTP/1.1" 200 6192
INFO 2023-01-11 15:23:49,605 basehttp 5513 140292690740992 "POST /api/features HTTP/1.1" 200 6192
INFO 2023-01-11 15:23:51,080 basehttp 5513 140292690740992 "POST /api/features HTTP/1.1" 200 6192
INFO 2023-01-11 15:24:56,015 basehttp 5513 140292690740992 "POST /api/features HTTP/1.1" 200 265
INFO 2023-01-11 15:25:43,638 basehttp 5513 140292690740992 "POST /api/features HTTP/1.1" 200 6192
INFO 2023-01-11 15:25:45,175 basehttp 5513 140292690740992 "POST /api/features HTTP/1.1" 200 6192
INFO 2023-01-11 15:26:45,799 basehttp 5513 140292690740992 "POST /api/features HTTP/1.1" 200 265
INFO 2023-01-11 15:27:30,247 basehttp 5513 140292690740992 "POST /api/features HTTP/1.1" 200 6192
INFO 2023-01-11 15:27:31,852 basehttp 5513 140292690740992 "POST /api/features HTTP/1.1" 200 6192
INFO 2023-01-11 15:37:01,708 basehttp 5513 140292690740992 "POST /api/features HTTP/1.1" 200 6192
INFO 2023-01-11 15:37:03,212 basehttp 5513 140292690740992 "POST /api/features HTTP/1.1" 200 6192
INFO 2023-01-11 15:39:33,964 basehttp 5513 140292690740992 "POST /api/features HTTP/1.1" 200 4932
INFO 2023-01-11 15:39:33,993 basehttp 5513 140292773250816 "POST /api/features HTTP/1.1" 200 4932
INFO 2023-01-11 15:40:34,450 basehttp 5513 140292773250816 "POST /api/features HTTP/1.1" 200 4932
INFO 2023-01-13 19:15:04,635 autoreload 1580 139778000226112 Watching for file changes with StatReloader
INFO 2023-01-14 20:15:25,533 autoreload 1558 140401705289536 Watching for file changes with StatReloader
INFO 2023-01-14 20:18:02,453 basehttp 1558 140401642047232 "OPTIONS /api/features HTTP/1.1" 200 0
INFO 2023-01-14 20:18:03,411 basehttp 1558 140401642047232 "POST /api/features HTTP/1.1" 200 6192
INFO 2023-01-14 20:18:04,682 basehttp 1558 140401642047232 "POST /api/features HTTP/1.1" 200 6192
INFO 2023-01-14 20:18:33,224 basehttp 1558 140401642047232 "POST /api/features HTTP/1.1" 200 6192
INFO 2023-01-14 20:18:35,038 basehttp 1558 140401642047232 "POST /api/features HTTP/1.1" 200 6192
INFO 2023-01-14 20:25:54,766 basehttp 1558 140401642047232 "POST /api/features HTTP/1.1" 200 6192
INFO 2023-01-14 20:25:56,169 basehttp 1558 140401642047232 "POST /api/features HTTP/1.1" 200 6192
INFO 2023-01-14 20:27:46,432 basehttp 1558 140401642047232 "POST /api/features HTTP/1.1" 200 6192
INFO 2023-01-14 20:27:47,860 basehttp 1558 140401642047232 "POST /api/features HTTP/1.1" 200 6192
INFO 2023-01-14 20:28:17,032 basehttp 1558 140401642047232 "POST /api/features HTTP/1.1" 200 4932
INFO 2023-01-14 20:28:18,289 basehttp 1558 140401642047232 "POST /api/features HTTP/1.1" 200 4932
INFO 2023-01-14 20:34:10,713 basehttp 1558 140401642047232 "POST /api/features HTTP/1.1" 200 6192
INFO 2023-01-14 20:34:12,245 basehttp 1558 140401642047232 "POST /api/features HTTP/1.1" 200 6192
INFO 2023-01-14 20:34:24,270 basehttp 1558 140401642047232 "POST /api/features HTTP/1.1" 200 4932
INFO 2023-01-14 20:34:24,419 basehttp 1558 140401632937728 "POST /api/features HTTP/1.1" 200 4932
INFO 2023-01-14 20:34:43,444 basehttp 1558 140401632937728 "GET /api/plasmids/meta HTTP/1.1" 200 1265598
INFO 2023-01-14 20:34:45,442 basehttp 1558 140401632937728 "GET /api/plasmids?name=pcDNA3.1-IDO1-p2a-eGFP HTTP/1.1" 200 7389
INFO 2023-01-14 20:34:45,446 basehttp 1558 140401642047232 "OPTIONS /api/plasmids/popularity HTTP/1.1" 200 0
INFO 2023-01-14 20:34:45,473 basehttp 1558 140401642047232 "POST /api/plasmids/popularity HTTP/1.1" 200 0
INFO 2023-01-14 20:34:46,848 basehttp 1558 140401642047232 "POST /api/features HTTP/1.1" 200 7987
INFO 2023-01-14 20:34:47,766 basehttp 1558 140401642047232 "GET /api/plasmids?name=pcDNA3.1-IDO1-p2a-eGFP HTTP/1.1" 200 7389
INFO 2023-01-14 20:34:48,502 basehttp 1558 140401642047232 "POST /api/features HTTP/1.1" 200 7987
INFO 2023-01-14 20:34:49,880 basehttp 1558 140401642047232 "POST /api/features HTTP/1.1" 200 7987
INFO 2023-01-14 21:00:39,579 autoreload 5662 140517890918208 Watching for file changes with StatReloader
INFO 2023-01-14 21:02:14,630 basehttp 5662 140517760567040 "POST /api/features HTTP/1.1" 200 6192
INFO 2023-01-14 21:02:15,847 basehttp 5662 140517760567040 "POST /api/features HTTP/1.1" 200 6192
INFO 2023-01-14 21:56:42,694 autoreload 10592 140529622517568 Watching for file changes with StatReloader
INFO 2023-01-16 07:18:18,002 autoreload 12007 139652159375168 Watching for file changes with StatReloader
INFO 2023-01-19 01:29:23,062 autoreload 25162 139895071901504 Watching for file changes with StatReloader
INFO 2023-01-21 22:26:35,299 autoreload 29478 140483604711232 Watching for file changes with StatReloader
INFO 2023-01-25 05:50:19,650 autoreload 24557 139830051735360 Watching for file changes with StatReloader
INFO 2023-01-27 20:07:43,309 autoreload 15694 140504069965632 Watching for file changes with StatReloader
INFO 2023-02-07 22:33:28,359 autoreload 17613 140430146668352 Watching for file changes with StatReloader
INFO 2023-02-07 22:33:37,402 basehttp 17613 140430086440704 "OPTIONS /api/features HTTP/1.1" 200 0
INFO 2023-02-07 22:33:38,614 basehttp 17613 140430086440704 "POST /api/features HTTP/1.1" 200 5235
INFO 2023-02-07 22:34:30,317 basehttp 17613 140430086440704 "POST /api/features HTTP/1.1" 200 5235
INFO 2023-02-07 22:34:31,535 basehttp 17613 140430086440704 "POST /api/features HTTP/1.1" 200 5235
INFO 2023-02-07 22:42:32,493 basehttp 17613 140430086440704 "POST /api/features HTTP/1.1" 200 5235
INFO 2023-02-07 22:42:35,650 basehttp 17613 140430086440704 "POST /api/features HTTP/1.1" 200 6192
INFO 2023-02-07 22:42:39,974 basehttp 17613 140430086440704 "POST /api/features HTTP/1.1" 200 6192
INFO 2023-02-07 22:52:13,443 basehttp 17613 140430086440704 "POST /api/features HTTP/1.1" 200 5235
INFO 2023-02-07 22:55:45,743 basehttp 17613 140430086440704 "POST /api/features HTTP/1.1" 200 4932
INFO 2023-02-07 22:55:47,059 basehttp 17613 140430086440704 "POST /api/features HTTP/1.1" 200 4932
INFO 2023-02-07 22:57:10,812 basehttp 17613 140430086440704 "POST /api/features HTTP/1.1" 200 4932
INFO 2023-02-07 22:57:17,277 basehttp 17613 140430086440704 "POST /api/features HTTP/1.1" 200 6192
INFO 2023-02-07 22:57:18,537 basehttp 17613 140430086440704 "POST /api/features HTTP/1.1" 200 6192
INFO 2023-02-07 22:59:57,094 basehttp 17613 140430086440704 "POST /api/features HTTP/1.1" 200 4932
INFO 2023-02-07 22:59:58,507 basehttp 17613 140430086440704 "POST /api/features HTTP/1.1" 200 4932
INFO 2023-03-06 19:12:30,097 autoreload 17104 140524362663744 Watching for file changes with StatReloader
INFO 2023-03-06 19:18:19,298 basehttp 17104 140524301911808 "OPTIONS /api/features HTTP/1.1" 200 0
ERROR 2023-03-06 19:18:19,318 log 17104 140524301911808 Internal Server Error: /api/features
Traceback (most recent call last):
  File "/home/sukanta/.local/lib/python3.8/site-packages/django/core/handlers/exception.py", line 47, in inner
    response = get_response(request)
  File "/home/sukanta/.local/lib/python3.8/site-packages/django/core/handlers/base.py", line 181, in _get_response
    response = wrapped_callback(request, *callback_args, **callback_kwargs)
  File "/home/sukanta/.local/lib/python3.8/site-packages/django/views/decorators/csrf.py", line 54, in wrapped_view
    return view_func(*args, **kwargs)
  File "/home/sukanta/.local/lib/python3.8/site-packages/django/views/generic/base.py", line 69, in view
    return self.dispatch(request, *args, **kwargs)
  File "/home/sukanta/.local/lib/python3.8/site-packages/rest_framework/views.py", line 509, in dispatch
    response = self.handle_exception(exc)
  File "/home/sukanta/.local/lib/python3.8/site-packages/rest_framework/views.py", line 469, in handle_exception
    self.raise_uncaught_exception(exc)
  File "/home/sukanta/.local/lib/python3.8/site-packages/rest_framework/views.py", line 480, in raise_uncaught_exception
    raise exc
  File "/home/sukanta/.local/lib/python3.8/site-packages/rest_framework/views.py", line 506, in dispatch
    response = handler(request, *args, **kwargs)
  File "/home/sukanta/.local/lib/python3.8/site-packages/rest_framework/decorators.py", line 50, in handler
    return func(*args, **kwargs)
  File "/home/sukanta/plasmapper/ver4/plasmapper3/PlasMapper_API/plasmapperAPI/fsdSearch/views.py", line 122, in doFsdSearch
    writeToFile(sequence.replace("\n", ""), inputFileName)
  File "/home/sukanta/plasmapper/ver4/plasmapper3/PlasMapper_API/plasmapperAPI/fsdSearch/views.py", line 173, in writeToFile
    f = open(fileName, 'w')
FileNotFoundError: [Errno 2] No such file or directory: '/home/sukanta/plasmapper/ver4/plasmapper3/PlasMapper_API/plasmapperAPI/fsdSearch/temp/input16781302993139818.txt'
ERROR 2023-03-06 19:18:19,527 basehttp 17104 140524301911808 "POST /api/features HTTP/1.1" 500 145
ERROR 2023-03-06 19:20:08,929 log 17104 140524301911808 Internal Server Error: /api/features
Traceback (most recent call last):
  File "/home/sukanta/.local/lib/python3.8/site-packages/django/core/handlers/exception.py", line 47, in inner
    response = get_response(request)
  File "/home/sukanta/.local/lib/python3.8/site-packages/django/core/handlers/base.py", line 181, in _get_response
    response = wrapped_callback(request, *callback_args, **callback_kwargs)
  File "/home/sukanta/.local/lib/python3.8/site-packages/django/views/decorators/csrf.py", line 54, in wrapped_view
    return view_func(*args, **kwargs)
  File "/home/sukanta/.local/lib/python3.8/site-packages/django/views/generic/base.py", line 69, in view
    return self.dispatch(request, *args, **kwargs)
  File "/home/sukanta/.local/lib/python3.8/site-packages/rest_framework/views.py", line 509, in dispatch
    response = self.handle_exception(exc)
  File "/home/sukanta/.local/lib/python3.8/site-packages/rest_framework/views.py", line 469, in handle_exception
    self.raise_uncaught_exception(exc)
  File "/home/sukanta/.local/lib/python3.8/site-packages/rest_framework/views.py", line 480, in raise_uncaught_exception
    raise exc
  File "/home/sukanta/.local/lib/python3.8/site-packages/rest_framework/views.py", line 506, in dispatch
    response = handler(request, *args, **kwargs)
  File "/home/sukanta/.local/lib/python3.8/site-packages/rest_framework/decorators.py", line 50, in handler
    return func(*args, **kwargs)
  File "/home/sukanta/plasmapper/ver4/plasmapper3/PlasMapper_API/plasmapperAPI/fsdSearch/views.py", line 125, in doFsdSearch
    search = FSDSearch(inputFileName, outputFileName)
  File "/home/sukanta/plasmapper/ver4/plasmapper3/PlasMapper_API/plasmapperAPI/fsdSearch/FSDSearch.py", line 27, in __init__
    self.curateFeatures()
  File "/home/sukanta/plasmapper/ver4/plasmapper3/PlasMapper_API/plasmapperAPI/fsdSearch/FSDSearch.py", line 42, in curateFeatures
    file = open(self.outputFile, 'r')
FileNotFoundError: [Errno 2] No such file or directory: '/home/sukanta/plasmapper/ver4/plasmapper3/PlasMapper_API/plasmapperAPI/fsdSearch/temp/output16781304088042657.txt'
ERROR 2023-03-06 19:20:08,934 basehttp 17104 140524301911808 "POST /api/features HTTP/1.1" 500 145
ERROR 2023-03-06 19:21:05,953 log 17104 140524301911808 Internal Server Error: /api/features
Traceback (most recent call last):
  File "/home/sukanta/.local/lib/python3.8/site-packages/django/core/handlers/exception.py", line 47, in inner
    response = get_response(request)
  File "/home/sukanta/.local/lib/python3.8/site-packages/django/core/handlers/base.py", line 181, in _get_response
    response = wrapped_callback(request, *callback_args, **callback_kwargs)
  File "/home/sukanta/.local/lib/python3.8/site-packages/django/views/decorators/csrf.py", line 54, in wrapped_view
    return view_func(*args, **kwargs)
  File "/home/sukanta/.local/lib/python3.8/site-packages/django/views/generic/base.py", line 69, in view
    return self.dispatch(request, *args, **kwargs)
  File "/home/sukanta/.local/lib/python3.8/site-packages/rest_framework/views.py", line 509, in dispatch
    response = self.handle_exception(exc)
  File "/home/sukanta/.local/lib/python3.8/site-packages/rest_framework/views.py", line 469, in handle_exception
    self.raise_uncaught_exception(exc)
  File "/home/sukanta/.local/lib/python3.8/site-packages/rest_framework/views.py", line 480, in raise_uncaught_exception
    raise exc
  File "/home/sukanta/.local/lib/python3.8/site-packages/rest_framework/views.py", line 506, in dispatch
    response = handler(request, *args, **kwargs)
  File "/home/sukanta/.local/lib/python3.8/site-packages/rest_framework/decorators.py", line 50, in handler
    return func(*args, **kwargs)
  File "/home/sukanta/plasmapper/ver4/plasmapper3/PlasMapper_API/plasmapperAPI/fsdSearch/views.py", line 125, in doFsdSearch
    search = FSDSearch(inputFileName, outputFileName)
  File "/home/sukanta/plasmapper/ver4/plasmapper3/PlasMapper_API/plasmapperAPI/fsdSearch/FSDSearch.py", line 27, in __init__
    self.curateFeatures()
  File "/home/sukanta/plasmapper/ver4/plasmapper3/PlasMapper_API/plasmapperAPI/fsdSearch/FSDSearch.py", line 42, in curateFeatures
    file = open(self.outputFile, 'r')
FileNotFoundError: [Errno 2] No such file or directory: '/home/sukanta/plasmapper/ver4/plasmapper3/PlasMapper_API/plasmapperAPI/fsdSearch/temp/output16781304658977656.txt'
ERROR 2023-03-06 19:21:05,958 basehttp 17104 140524301911808 "POST /api/features HTTP/1.1" 500 145
INFO 2023-03-06 19:21:28,686 autoreload 19355 139845992908608 Watching for file changes with StatReloader
ERROR 2023-03-06 19:21:34,941 log 19355 139845864982272 Internal Server Error: /api/features
Traceback (most recent call last):
  File "/home/sukanta/.local/lib/python3.8/site-packages/django/core/handlers/exception.py", line 47, in inner
    response = get_response(request)
  File "/home/sukanta/.local/lib/python3.8/site-packages/django/core/handlers/base.py", line 181, in _get_response
    response = wrapped_callback(request, *callback_args, **callback_kwargs)
  File "/home/sukanta/.local/lib/python3.8/site-packages/django/views/decorators/csrf.py", line 54, in wrapped_view
    return view_func(*args, **kwargs)
  File "/home/sukanta/.local/lib/python3.8/site-packages/django/views/generic/base.py", line 69, in view
    return self.dispatch(request, *args, **kwargs)
  File "/home/sukanta/.local/lib/python3.8/site-packages/rest_framework/views.py", line 509, in dispatch
    response = self.handle_exception(exc)
  File "/home/sukanta/.local/lib/python3.8/site-packages/rest_framework/views.py", line 469, in handle_exception
    self.raise_uncaught_exception(exc)
  File "/home/sukanta/.local/lib/python3.8/site-packages/rest_framework/views.py", line 480, in raise_uncaught_exception
    raise exc
  File "/home/sukanta/.local/lib/python3.8/site-packages/rest_framework/views.py", line 506, in dispatch
    response = handler(request, *args, **kwargs)
  File "/home/sukanta/.local/lib/python3.8/site-packages/rest_framework/decorators.py", line 50, in handler
    return func(*args, **kwargs)
  File "/home/sukanta/plasmapper/ver4/plasmapper3/PlasMapper_API/plasmapperAPI/fsdSearch/views.py", line 125, in doFsdSearch
    search = FSDSearch(inputFileName, outputFileName)
  File "/home/sukanta/plasmapper/ver4/plasmapper3/PlasMapper_API/plasmapperAPI/fsdSearch/FSDSearch.py", line 27, in __init__
    self.curateFeatures()
  File "/home/sukanta/plasmapper/ver4/plasmapper3/PlasMapper_API/plasmapperAPI/fsdSearch/FSDSearch.py", line 42, in curateFeatures
    file = open(self.outputFile, 'r')
FileNotFoundError: [Errno 2] No such file or directory: '/home/sukanta/plasmapper/ver4/plasmapper3/PlasMapper_API/plasmapperAPI/fsdSearch/temp/output16781304948233027.txt'
ERROR 2023-03-06 19:21:34,959 basehttp 19355 139845864982272 "POST /api/features HTTP/1.1" 500 145
INFO 2023-03-06 19:21:56,463 autoreload 19443 140230053267264 Watching for file changes with StatReloader
INFO 2023-03-06 19:22:08,780 basehttp 19443 140229925275392 "POST /api/features HTTP/1.1" 200 4932
INFO 2023-03-06 19:22:10,750 basehttp 19443 140229925275392 "POST /api/features HTTP/1.1" 200 4932
INFO 2023-03-06 19:27:03,701 basehttp 19443 140229925275392 "POST /api/features HTTP/1.1" 200 4932
INFO 2023-03-06 19:27:05,620 basehttp 19443 140229925275392 "POST /api/features HTTP/1.1" 200 4932
INFO 2023-03-06 19:27:20,814 basehttp 19443 140229925275392 "OPTIONS /api/getNcbiBlastRemote HTTP/1.1" 200 0
INFO 2023-03-06 19:27:20,943 basehttp 19443 140229925275392 "POST /api/getNcbiBlastRemote HTTP/1.1" 200 653
INFO 2023-03-06 19:29:46,522 basehttp 19443 140229925275392 "POST /api/features HTTP/1.1" 200 4932
INFO 2023-03-06 19:29:48,978 basehttp 19443 140229925275392 "POST /api/features HTTP/1.1" 200 4932
INFO 2023-03-06 19:29:51,902 basehttp 19443 140229925275392 "POST /api/getNcbiBlastRemote HTTP/1.1" 200 653
INFO 2023-03-06 19:32:46,813 basehttp 19443 140229925275392 "POST /api/features HTTP/1.1" 200 5235
INFO 2023-03-06 19:32:48,585 basehttp 19443 140229925275392 "POST /api/features HTTP/1.1" 200 5235
INFO 2023-03-06 19:32:53,865 basehttp 19443 140229925275392 "OPTIONS /api/runNcbiBlast HTTP/1.1" 200 0
WARNING 2023-03-06 19:32:53,870 log 19443 140229925275392 Not Found: /api/runNcbiBlast
WARNING 2023-03-06 19:32:53,871 basehttp 19443 140229925275392 "POST /api/runNcbiBlast HTTP/1.1" 404 179
INFO 2023-03-06 19:34:19,320 autoreload 19443 140230053267264 /home/sukanta/plasmapper/ver4/plasmapper3/PlasMapper_API/plasmapperAPI/fsdSearch/urls.py changed, reloading.
INFO 2023-03-06 19:34:20,497 autoreload 20698 139781521147712 Watching for file changes with StatReloader
INFO 2023-03-06 19:34:31,261 basehttp 20698 139781388306176 "POST /api/features HTTP/1.1" 200 4932
INFO 2023-03-06 19:34:33,263 basehttp 20698 139781388306176 "POST /api/features HTTP/1.1" 200 4932
ERROR 2023-03-06 19:34:37,256 log 20698 139781388306176 Internal Server Error: /api/runNcbiBlast
Traceback (most recent call last):
  File "/home/sukanta/.local/lib/python3.8/site-packages/django/core/handlers/exception.py", line 47, in inner
    response = get_response(request)
  File "/home/sukanta/.local/lib/python3.8/site-packages/django/core/handlers/base.py", line 181, in _get_response
    response = wrapped_callback(request, *callback_args, **callback_kwargs)
  File "/home/sukanta/.local/lib/python3.8/site-packages/django/views/decorators/csrf.py", line 54, in wrapped_view
    return view_func(*args, **kwargs)
  File "/home/sukanta/.local/lib/python3.8/site-packages/django/views/generic/base.py", line 69, in view
    return self.dispatch(request, *args, **kwargs)
  File "/home/sukanta/.local/lib/python3.8/site-packages/rest_framework/views.py", line 509, in dispatch
    response = self.handle_exception(exc)
  File "/home/sukanta/.local/lib/python3.8/site-packages/rest_framework/views.py", line 469, in handle_exception
    self.raise_uncaught_exception(exc)
  File "/home/sukanta/.local/lib/python3.8/site-packages/rest_framework/views.py", line 480, in raise_uncaught_exception
    raise exc
  File "/home/sukanta/.local/lib/python3.8/site-packages/rest_framework/views.py", line 506, in dispatch
    response = handler(request, *args, **kwargs)
  File "/home/sukanta/.local/lib/python3.8/site-packages/rest_framework/decorators.py", line 50, in handler
    return func(*args, **kwargs)
  File "/home/sukanta/plasmapper/ver4/plasmapper3/PlasMapper_API/plasmapperAPI/fsdSearch/views.py", line 36, in getNcbiBlast
    blastRes = runNCBIBlastRemote(querySeq)
TypeError: runNCBIBlastRemote() missing 1 required positional argument: 'remote'
ERROR 2023-03-06 19:34:37,265 basehttp 20698 139781388306176 "POST /api/runNcbiBlast HTTP/1.1" 500 145
INFO 2023-03-06 19:36:15,978 autoreload 20698 139781521147712 /home/sukanta/plasmapper/ver4/plasmapper3/PlasMapper_API/plasmapperAPI/fsdSearch/views.py changed, reloading.
INFO 2023-03-06 19:36:17,145 autoreload 20802 140070351537984 Watching for file changes with StatReloader
INFO 2023-03-06 19:38:06,329 autoreload 20802 140070351537984 /home/sukanta/plasmapper/ver4/plasmapper3/PlasMapper_API/plasmapperAPI/fsdSearch/Utility.py changed, reloading.
INFO 2023-03-06 19:38:07,254 autoreload 20852 140575911511872 Watching for file changes with StatReloader
INFO 2023-03-06 19:38:14,805 basehttp 20852 140575850759936 "POST /api/features HTTP/1.1" 200 4932
INFO 2023-03-06 19:38:17,023 basehttp 20852 140575850759936 "POST /api/features HTTP/1.1" 200 4932
INFO 2023-03-06 19:38:32,712 basehttp 20852 140575850759936 "POST /api/runNcbiBlast HTTP/1.1" 200 701
INFO 2023-03-06 19:41:12,623 autoreload 21025 140153999132480 Watching for file changes with StatReloader
INFO 2023-03-06 19:41:39,018 basehttp 21025 140153938315008 "POST /api/features HTTP/1.1" 200 4932
INFO 2023-03-06 19:41:40,623 basehttp 21025 140153938315008 "POST /api/features HTTP/1.1" 200 4932
INFO 2023-03-06 19:41:45,756 basehttp 21025 140153938315008 "POST /api/runNcbiBlast HTTP/1.1" 200 701
INFO 2023-03-06 19:42:25,404 autoreload 21025 140153999132480 /home/sukanta/plasmapper/ver4/plasmapper3/PlasMapper_API/plasmapperAPI/fsdSearch/Utility.py changed, reloading.
INFO 2023-03-06 19:42:26,421 autoreload 21147 140417409222464 Watching for file changes with StatReloader
INFO 2023-03-06 19:42:27,970 basehttp 21147 140417349256960 "POST /api/runNcbiBlast HTTP/1.1" 200 735
INFO 2023-03-07 23:50:41,091 autoreload 2364 140196081370944 Watching for file changes with StatReloader
INFO 2023-03-08 00:24:10,111 basehttp 2364 140196020553472 "OPTIONS /api/features HTTP/1.1" 200 0
INFO 2023-03-08 00:24:10,937 basehttp 2364 140196020553472 "POST /api/features HTTP/1.1" 200 4932
INFO 2023-03-08 00:24:12,434 basehttp 2364 140196020553472 "POST /api/features HTTP/1.1" 200 4932
INFO 2023-03-08 00:27:44,393 basehttp 2364 140196020553472 "POST /api/features HTTP/1.1" 200 4932
INFO 2023-03-08 00:27:45,558 basehttp 2364 140196020553472 "POST /api/features HTTP/1.1" 200 4932
INFO 2023-03-08 00:30:22,902 basehttp 2364 140196020553472 "POST /api/features HTTP/1.1" 200 4932
INFO 2023-03-08 00:30:24,046 basehttp 2364 140196020553472 "POST /api/features HTTP/1.1" 200 4932
INFO 2023-03-08 00:30:27,151 basehttp 2364 140196020553472 "POST /api/features HTTP/1.1" 200 4932
INFO 2023-03-08 02:07:37,254 basehttp 2364 140196020553472 "POST /api/features HTTP/1.1" 200 4932
INFO 2023-03-08 02:11:15,934 basehttp 2364 140196020553472 "POST /api/features HTTP/1.1" 200 4932
INFO 2023-03-08 02:11:17,825 basehttp 2364 140196020553472 "POST /api/features HTTP/1.1" 200 4932
INFO 2023-03-08 02:12:02,294 basehttp 2364 140196020553472 "POST /api/features HTTP/1.1" 200 4932
INFO 2023-03-08 02:13:13,239 basehttp 2364 140196020553472 "POST /api/features HTTP/1.1" 200 4932
INFO 2023-03-08 02:13:15,215 basehttp 2364 140196020553472 "POST /api/features HTTP/1.1" 200 4932
INFO 2023-03-08 02:14:31,143 basehttp 2364 140196020553472 "POST /api/features HTTP/1.1" 200 4932
INFO 2023-03-08 02:16:33,988 basehttp 2364 140196020553472 "POST /api/features HTTP/1.1" 200 4932
INFO 2023-03-08 02:16:36,176 basehttp 2364 140196020553472 "POST /api/features HTTP/1.1" 200 4932
INFO 2023-03-08 02:16:57,157 basehttp 2364 140196020553472 "POST /api/features HTTP/1.1" 200 4932
INFO 2023-03-08 02:16:59,381 basehttp 2364 140196020553472 "POST /api/features HTTP/1.1" 200 4932
INFO 2023-03-08 02:26:00,721 basehttp 2364 140196020553472 "OPTIONS /api/features HTTP/1.1" 200 0
INFO 2023-03-08 02:26:02,205 basehttp 2364 140196020553472 "POST /api/features HTTP/1.1" 200 4932
INFO 2023-03-08 02:26:04,194 basehttp 2364 140196020553472 "POST /api/features HTTP/1.1" 200 4932
INFO 2023-03-08 02:27:58,761 basehttp 2364 140196020553472 "POST /api/features HTTP/1.1" 200 1941
INFO 2023-03-08 02:28:00,865 basehttp 2364 140196020553472 "POST /api/features HTTP/1.1" 200 1941
INFO 2023-03-08 02:29:20,089 basehttp 2364 140196020553472 "POST /api/features HTTP/1.1" 200 1941
INFO 2023-03-08 02:29:31,732 basehttp 2364 140196020553472 "POST /api/features HTTP/1.1" 200 1941
INFO 2023-03-08 02:29:33,458 basehttp 2364 140196020553472 "POST /api/features HTTP/1.1" 200 1941
INFO 2023-03-08 02:32:22,451 basehttp 2364 140196020553472 "OPTIONS /api/runNcbiBlast HTTP/1.1" 200 0
INFO 2023-03-08 02:32:23,235 basehttp 2364 140196020553472 "POST /api/runNcbiBlast HTTP/1.1" 200 735
INFO 2023-03-08 02:33:15,188 basehttp 2364 140196020553472 "POST /api/runNcbiBlast HTTP/1.1" 200 735
INFO 2023-03-08 02:33:19,542 autoreload 2364 140196081370944 /home/sukanta/plasmapper/ver4/plasmapper3/PlasMapper_API/plasmapperAPI/fsdSearch/Utility.py changed, reloading.
INFO 2023-03-08 02:33:29,349 autoreload 10623 139726265583424 Watching for file changes with StatReloader
INFO 2023-03-08 02:33:48,203 basehttp 10623 139726137722624 "POST /api/runNcbiBlast HTTP/1.1" 200 765
INFO 2023-03-08 02:34:26,618 autoreload 10788 139745845708608 Watching for file changes with StatReloader
INFO 2023-03-08 02:38:59,505 autoreload 10788 139745845708608 /home/sukanta/plasmapper/ver4/plasmapper3/PlasMapper_API/plasmapperAPI/fsdSearch/Utility.py changed, reloading.
INFO 2023-03-08 02:39:00,330 autoreload 10939 140192756270912 Watching for file changes with StatReloader
INFO 2023-03-08 02:39:38,107 autoreload 10939 140192756270912 /home/sukanta/plasmapper/ver4/plasmapper3/PlasMapper_API/plasmapperAPI/fsdSearch/views.py changed, reloading.
INFO 2023-03-08 02:39:39,119 autoreload 11006 139720404502336 Watching for file changes with StatReloader
INFO 2023-03-08 02:43:12,628 autoreload 11006 139720404502336 /home/sukanta/plasmapper/ver4/plasmapper3/PlasMapper_API/plasmapperAPI/fsdSearch/views.py changed, reloading.
INFO 2023-03-08 02:43:13,684 autoreload 11397 140069041145664 Watching for file changes with StatReloader
INFO 2023-03-08 02:43:22,283 autoreload 11452 140331059054400 Watching for file changes with StatReloader
INFO 2023-03-08 02:44:08,116 autoreload 11452 140331059054400 /home/sukanta/plasmapper/ver4/plasmapper3/PlasMapper_API/plasmapperAPI/fsdSearch/urls.py changed, reloading.
INFO 2023-03-08 02:44:09,014 autoreload 11530 140238133593920 Watching for file changes with StatReloader
INFO 2023-03-08 02:44:27,163 basehttp 11530 140238072776448 "POST /api/features HTTP/1.1" 200 1941
INFO 2023-03-08 02:44:29,000 basehttp 11530 140238072776448 "POST /api/features HTTP/1.1" 200 1941
INFO 2023-03-08 02:49:04,953 basehttp 11530 140238072776448 "OPTIONS /api/getNcbiBlastRemote HTTP/1.1" 200 0
WARNING 2023-03-08 02:49:04,960 log 11530 140238072776448 Not Found: /api/getNcbiBlastRemote
WARNING 2023-03-08 02:49:04,961 basehttp 11530 140238072776448 "POST /api/getNcbiBlastRemote HTTP/1.1" 404 179
WARNING 2023-03-08 02:49:31,621 log 11530 140238072776448 Not Found: /api/getNcbiBlastRemote
WARNING 2023-03-08 02:49:31,623 basehttp 11530 140238072776448 "POST /api/getNcbiBlastRemote HTTP/1.1" 404 179
WARNING 2023-03-08 02:49:46,568 log 11530 140238072776448 Not Found: /api/getNcbiBlastRemote
WARNING 2023-03-08 02:49:46,570 basehttp 11530 140238072776448 "POST /api/getNcbiBlastRemote HTTP/1.1" 404 179
WARNING 2023-03-08 02:50:58,750 log 11530 140238072776448 Not Found: /api/getNcbiBlastRemote
WARNING 2023-03-08 02:50:58,751 basehttp 11530 140238072776448 "POST /api/getNcbiBlastRemote HTTP/1.1" 404 179
INFO 2023-03-08 02:51:00,211 basehttp 11530 140238072776448 "POST /api/features HTTP/1.1" 200 1941
INFO 2023-03-08 02:51:01,067 basehttp 11530 140238072776448 "OPTIONS /api/getNcbiBlast HTTP/1.1" 200 0
WARNING 2023-03-08 02:51:01,077 log 11530 140238072776448 Not Found: /api/getNcbiBlast
WARNING 2023-03-08 02:51:01,079 basehttp 11530 140238072776448 "POST /api/getNcbiBlast HTTP/1.1" 404 179
WARNING 2023-03-08 02:51:29,890 log 11530 140238072776448 Not Found: /api/getNcbiBlast
WARNING 2023-03-08 02:51:29,892 basehttp 11530 140238072776448 "POST /api/getNcbiBlast HTTP/1.1" 404 179
INFO 2023-03-08 02:52:23,595 autoreload 11530 140238133593920 /home/sukanta/plasmapper/ver4/plasmapper3/PlasMapper_API/plasmapperAPI/fsdSearch/views.py changed, reloading.
INFO 2023-03-08 02:52:24,693 autoreload 11866 139830697002816 Watching for file changes with StatReloader
WARNING 2023-03-08 02:52:29,573 log 11866 139830569142016 Not Found: /api/getNcbiBlast
WARNING 2023-03-08 02:52:29,575 basehttp 11866 139830569142016 "POST /api/getNcbiBlast HTTP/1.1" 404 179
WARNING 2023-03-08 02:52:51,356 log 11866 139830569142016 Not Found: /api/getNcbiBlast
WARNING 2023-03-08 02:52:51,359 basehttp 11866 139830569142016 "POST /api/getNcbiBlast HTTP/1.1" 404 179
INFO 2023-03-08 02:54:17,543 autoreload 11986 140495862957888 Watching for file changes with StatReloader
WARNING 2023-03-08 02:54:22,958 log 11986 140495802140416 Not Found: /api/getNcbiBlast
WARNING 2023-03-08 02:54:22,960 basehttp 11986 140495802140416 "POST /api/getNcbiBlast HTTP/1.1" 404 179
INFO 2023-03-08 02:57:26,533 autoreload 11986 140495862957888 /home/sukanta/plasmapper/ver4/plasmapper3/PlasMapper_API/plasmapperAPI/fsdSearch/urls.py changed, reloading.
INFO 2023-03-08 02:57:27,286 autoreload 12072 140304410347328 Watching for file changes with StatReloader
INFO 2023-03-08 02:57:32,039 basehttp 12072 140304282486528 "POST /api/getNcbiBlast HTTP/1.1" 200 759
INFO 2023-03-08 03:10:18,350 basehttp 12072 140304282486528 "POST /api/getNcbiBlast HTTP/1.1" 200 11845
INFO 2023-03-08 03:14:21,720 autoreload 12072 140304410347328 /home/sukanta/plasmapper/ver4/plasmapper3/PlasMapper_API/plasmapperAPI/fsdSearch/Utility.py changed, reloading.
INFO 2023-03-08 03:14:22,680 autoreload 12456 139974224840512 Watching for file changes with StatReloader
INFO 2023-03-08 03:14:48,813 autoreload 12456 139974224840512 /home/sukanta/plasmapper/ver4/plasmapper3/PlasMapper_API/plasmapperAPI/fsdSearch/Utility.py changed, reloading.
