INFO 2022-12-18 04:24:03,192 basehttp 12396 140723013486336 "POST /api/features HTTP/1.1" 200 7646
INFO 2022-12-18 04:24:03,707 basehttp 12396 140723022857984 "POST /api/features HTTP/1.1" 200 8570
INFO 2022-12-18 04:24:04,369 basehttp 12396 140723022857984 "POST /api/features HTTP/1.1" 200 8303
INFO 2022-12-18 04:24:04,931 basehttp 12396 140723022857984 "POST /api/features HTTP/1.1" 200 5424
INFO 2022-12-18 04:24:05,628 basehttp 12396 140723022857984 "POST /api/features HTTP/1.1" 200 12777
INFO 2022-12-18 04:24:06,322 basehttp 12396 140723022857984 "POST /api/features HTTP/1.1" 200 7694
INFO 2022-12-18 04:24:06,844 basehttp 12396 140723022857984 "POST /api/features HTTP/1.1" 200 6623
INFO 2022-12-18 04:24:07,611 basehttp 12396 140723022857984 "POST /api/features HTTP/1.1" 200 7275
INFO 2022-12-18 04:24:08,156 basehttp 12396 140723022857984 "POST /api/features HTTP/1.1" 200 6838
INFO 2022-12-18 04:24:08,691 basehttp 12396 140723022857984 "POST /api/features HTTP/1.1" 200 6825
INFO 2022-12-18 04:24:09,221 basehttp 12396 140723022857984 "POST /api/features HTTP/1.1" 200 5687
INFO 2022-12-18 04:24:09,775 basehttp 12396 140723022857984 "POST /api/features HTTP/1.1" 200 6316
INFO 2022-12-18 04:24:10,315 basehttp 12396 140723022857984 "POST /api/features HTTP/1.1" 200 7440
INFO 2022-12-18 04:24:12,385 basehttp 12396 140723022857984 "POST /api/features HTTP/1.1" 200 7893
INFO 2022-12-18 04:24:12,929 basehttp 12396 140723022857984 "POST /api/features HTTP/1.1" 200 5837
INFO 2022-12-18 04:24:14,526 basehttp 12396 140723022857984 "POST /api/features HTTP/1.1" 200 6414
INFO 2022-12-18 04:24:15,383 basehttp 12396 140723022857984 "POST /api/features HTTP/1.1" 200 7168
INFO 2022-12-18 04:24:17,164 basehttp 12396 140723022857984 "POST /api/features HTTP/1.1" 200 6177
INFO 2022-12-18 04:24:17,711 basehttp 12396 140723022857984 "POST /api/features HTTP/1.1" 200 7676
INFO 2022-12-18 04:24:18,256 basehttp 12396 140723022857984 "POST /api/features HTTP/1.1" 200 10782
INFO 2022-12-18 04:24:18,774 basehttp 12396 140723022857984 "POST /api/features HTTP/1.1" 200 8090
INFO 2022-12-18 04:24:19,309 basehttp 12396 140723022857984 "POST /api/features HTTP/1.1" 200 7889
INFO 2022-12-18 04:24:19,890 basehttp 12396 140723022857984 "POST /api/features HTTP/1.1" 200 9287
INFO 2022-12-18 04:24:20,442 basehttp 12396 140723022857984 "POST /api/features HTTP/1.1" 200 9284
INFO 2022-12-18 04:24:20,969 basehttp 12396 140723022857984 "POST /api/features HTTP/1.1" 200 8362
INFO 2022-12-18 04:24:21,511 basehttp 12396 140723022857984 "POST /api/features HTTP/1.1" 200 6244
INFO 2022-12-18 04:24:22,071 basehttp 12396 140723022857984 "POST /api/features HTTP/1.1" 200 4871
INFO 2022-12-18 04:24:22,741 basehttp 12396 140723022857984 "POST /api/features HTTP/1.1" 200 7863
INFO 2022-12-18 04:24:23,541 basehttp 12396 140723022857984 "POST /api/features HTTP/1.1" 200 6860
INFO 2022-12-18 04:24:24,442 basehttp 12396 140723022857984 "POST /api/features HTTP/1.1" 200 8299
INFO 2022-12-18 04:24:25,067 basehttp 12396 140723022857984 "POST /api/features HTTP/1.1" 200 6458
INFO 2022-12-18 04:24:25,619 basehttp 12396 140723022857984 "POST /api/features HTTP/1.1" 200 7394
INFO 2022-12-18 04:24:26,139 basehttp 12396 140723022857984 "POST /api/features HTTP/1.1" 200 8768
INFO 2022-12-18 04:24:26,672 basehttp 12396 140723022857984 "POST /api/features HTTP/1.1" 200 8818
INFO 2022-12-18 04:24:27,205 basehttp 12396 140723022857984 "POST /api/features HTTP/1.1" 200 7497
INFO 2022-12-18 04:24:27,775 basehttp 12396 140723022857984 "POST /api/features HTTP/1.1" 200 7781
INFO 2022-12-18 04:24:28,315 basehttp 12396 140723022857984 "POST /api/features HTTP/1.1" 200 7749
INFO 2022-12-18 04:24:28,854 basehttp 12396 140723022857984 "POST /api/features HTTP/1.1" 200 7482
INFO 2022-12-18 04:24:29,383 basehttp 12396 140723022857984 "POST /api/features HTTP/1.1" 200 8200
INFO 2022-12-18 04:24:29,919 basehttp 12396 140723022857984 "POST /api/features HTTP/1.1" 200 7648
INFO 2022-12-18 04:24:30,462 basehttp 12396 140723022857984 "POST /api/features HTTP/1.1" 200 5252
INFO 2022-12-18 04:24:30,994 basehttp 12396 140723022857984 "POST /api/features HTTP/1.1" 200 10107
INFO 2022-12-18 04:24:31,534 basehttp 12396 140723022857984 "POST /api/features HTTP/1.1" 200 10132
INFO 2022-12-18 04:24:32,074 basehttp 12396 140723022857984 "POST /api/features HTTP/1.1" 200 7931
INFO 2022-12-18 04:24:32,597 basehttp 12396 140723022857984 "POST /api/features HTTP/1.1" 200 6652
INFO 2022-12-18 04:24:33,143 basehttp 12396 140723022857984 "POST /api/features HTTP/1.1" 200 5639
INFO 2022-12-18 04:24:33,882 basehttp 12396 140723022857984 "POST /api/features HTTP/1.1" 200 7633
INFO 2022-12-18 04:24:34,415 basehttp 12396 140723022857984 "POST /api/features HTTP/1.1" 200 7647
INFO 2022-12-18 04:24:34,955 basehttp 12396 140723022857984 "POST /api/features HTTP/1.1" 200 7115
INFO 2022-12-18 04:24:35,805 basehttp 12396 140723022857984 "POST /api/features HTTP/1.1" 200 7037
INFO 2022-12-18 04:24:36,383 basehttp 12396 140723022857984 "POST /api/features HTTP/1.1" 200 7024
INFO 2022-12-18 04:24:36,949 basehttp 12396 140723013486336 "POST /api/features HTTP/1.1" 200 6733
INFO 2022-12-18 04:24:37,492 basehttp 12396 140723013486336 "POST /api/features HTTP/1.1" 200 7703
INFO 2022-12-18 04:24:38,031 basehttp 12396 140723013486336 "POST /api/features HTTP/1.1" 200 8464
INFO 2022-12-18 04:24:38,599 basehttp 12396 140723013486336 "POST /api/features HTTP/1.1" 200 8205
INFO 2022-12-18 04:24:39,447 basehttp 12396 140723013486336 "POST /api/features HTTP/1.1" 200 5908
INFO 2022-12-18 04:24:39,974 basehttp 12396 140723013486336 "POST /api/features HTTP/1.1" 200 6208
INFO 2022-12-18 04:24:43,554 basehttp 12396 140723013486336 "POST /api/features HTTP/1.1" 200 5927
INFO 2022-12-18 04:24:44,125 basehttp 12396 140723013486336 "POST /api/features HTTP/1.1" 200 6372
INFO 2022-12-18 04:24:44,690 basehttp 12396 140723013486336 "POST /api/features HTTP/1.1" 200 10032
INFO 2022-12-18 04:24:45,576 basehttp 12396 140723013486336 "POST /api/features HTTP/1.1" 200 10291
INFO 2022-12-18 04:24:46,138 basehttp 12396 140723013486336 "POST /api/features HTTP/1.1" 200 7009
INFO 2022-12-18 04:24:46,693 basehttp 12396 140723013486336 "POST /api/features HTTP/1.1" 200 5765
INFO 2022-12-18 04:24:47,227 basehttp 12396 140723013486336 "POST /api/features HTTP/1.1" 200 7614
INFO 2022-12-18 04:24:47,753 basehttp 12396 140723013486336 "POST /api/features HTTP/1.1" 200 8474
INFO 2022-12-18 04:24:48,283 basehttp 12396 140723013486336 "POST /api/features HTTP/1.1" 200 7148
INFO 2022-12-18 04:24:48,822 basehttp 12396 140723013486336 "POST /api/features HTTP/1.1" 200 8202
INFO 2022-12-18 04:24:49,373 basehttp 12396 140723013486336 "POST /api/features HTTP/1.1" 200 6734
INFO 2022-12-18 04:24:49,924 basehttp 12396 140723013486336 "POST /api/features HTTP/1.1" 200 6912
INFO 2022-12-18 04:24:50,471 basehttp 12396 140723013486336 "POST /api/features HTTP/1.1" 200 7155
INFO 2022-12-18 04:24:51,017 basehttp 12396 140723013486336 "POST /api/features HTTP/1.1" 200 8249
INFO 2022-12-18 04:24:52,155 basehttp 12396 140723013486336 "POST /api/features HTTP/1.1" 200 6663
INFO 2022-12-18 04:24:52,669 basehttp 12396 140723013486336 "POST /api/features HTTP/1.1" 200 7489
INFO 2022-12-18 04:24:53,341 basehttp 12396 140723013486336 "POST /api/features HTTP/1.1" 200 6417
INFO 2022-12-18 04:24:53,886 basehttp 12396 140723013486336 "POST /api/features HTTP/1.1" 200 7021
INFO 2022-12-18 04:24:54,480 basehttp 12396 140723013486336 "POST /api/features HTTP/1.1" 200 7590
INFO 2022-12-18 04:24:55,031 basehttp 12396 140723013486336 "POST /api/features HTTP/1.1" 200 7577
INFO 2022-12-18 04:24:55,593 basehttp 12396 140723013486336 "POST /api/features HTTP/1.1" 200 7082
INFO 2022-12-18 04:24:56,105 basehttp 12396 140723013486336 "POST /api/features HTTP/1.1" 200 6056
INFO 2022-12-18 04:24:56,966 basehttp 12396 140723013486336 "POST /api/features HTTP/1.1" 200 6390
INFO 2022-12-18 04:24:57,504 basehttp 12396 140723013486336 "POST /api/features HTTP/1.1" 200 6362
INFO 2022-12-18 04:24:58,038 basehttp 12396 140723013486336 "POST /api/features HTTP/1.1" 200 10281
INFO 2022-12-18 04:24:58,583 basehttp 12396 140723013486336 "POST /api/features HTTP/1.1" 200 6597
INFO 2022-12-18 04:24:59,136 basehttp 12396 140723013486336 "POST /api/features HTTP/1.1" 200 8042
INFO 2022-12-18 04:25:00,674 basehttp 12396 140723013486336 "POST /api/features HTTP/1.1" 200 6742
INFO 2022-12-18 04:25:04,223 basehttp 12396 140723013486336 "POST /api/features HTTP/1.1" 200 7500
INFO 2022-12-18 04:25:04,761 basehttp 12396 140723013486336 "POST /api/features HTTP/1.1" 200 7711
INFO 2022-12-18 04:25:05,321 basehttp 12396 140723013486336 "POST /api/features HTTP/1.1" 200 6815
INFO 2022-12-18 04:25:06,101 basehttp 12396 140723013486336 "POST /api/features HTTP/1.1" 200 7984
INFO 2022-12-18 04:25:06,657 basehttp 12396 140723013486336 "POST /api/features HTTP/1.1" 200 6005
INFO 2022-12-18 04:25:07,208 basehttp 12396 140723013486336 "POST /api/features HTTP/1.1" 200 5692
INFO 2022-12-18 04:25:08,049 basehttp 12396 140723013486336 "POST /api/features HTTP/1.1" 200 5612
INFO 2022-12-18 04:25:08,581 basehttp 12396 140723013486336 "POST /api/features HTTP/1.1" 200 9220
INFO 2022-12-18 04:25:09,144 basehttp 12396 140723013486336 "POST /api/features HTTP/1.1" 200 7834
INFO 2022-12-18 04:25:09,667 basehttp 12396 140723013486336 "POST /api/features HTTP/1.1" 200 7951
INFO 2022-12-18 04:25:10,203 basehttp 12396 140723013486336 "POST /api/features HTTP/1.1" 200 6926
INFO 2022-12-18 04:25:10,780 basehttp 12396 140723013486336 "POST /api/features HTTP/1.1" 200 7029
INFO 2022-12-18 04:25:11,311 basehttp 12396 140723013486336 "POST /api/features HTTP/1.1" 200 9956
INFO 2022-12-18 04:25:12,167 basehttp 12396 140723013486336 "POST /api/features HTTP/1.1" 200 5885
INFO 2022-12-18 04:25:12,708 basehttp 12396 140723013486336 "POST /api/features HTTP/1.1" 200 6750
INFO 2022-12-18 04:25:13,254 basehttp 12396 140723013486336 "POST /api/features HTTP/1.1" 200 7121
INFO 2022-12-18 04:25:13,781 basehttp 12396 140723013486336 "POST /api/features HTTP/1.1" 200 9589
INFO 2022-12-18 04:25:14,330 basehttp 12396 140723013486336 "POST /api/features HTTP/1.1" 200 9391
INFO 2022-12-18 04:25:14,866 basehttp 12396 140723013486336 "POST /api/features HTTP/1.1" 200 7141
INFO 2022-12-18 04:25:15,711 basehttp 12396 140723013486336 "POST /api/features HTTP/1.1" 200 6318
INFO 2022-12-18 04:25:16,249 basehttp 12396 140723013486336 "POST /api/features HTTP/1.1" 200 6395
INFO 2022-12-18 04:25:16,791 basehttp 12396 140723013486336 "POST /api/features HTTP/1.1" 200 6354
INFO 2022-12-18 04:25:17,346 basehttp 12396 140723013486336 "POST /api/features HTTP/1.1" 200 6316
INFO 2022-12-18 04:25:17,880 basehttp 12396 140723013486336 "POST /api/features HTTP/1.1" 200 6684
INFO 2022-12-18 04:25:18,404 basehttp 12396 140723013486336 "POST /api/features HTTP/1.1" 200 5711
INFO 2022-12-18 04:25:18,938 basehttp 12396 140723013486336 "POST /api/features HTTP/1.1" 200 6737
INFO 2022-12-18 04:25:19,461 basehttp 12396 140723013486336 "POST /api/features HTTP/1.1" 200 5987
INFO 2022-12-18 04:25:19,975 basehttp 12396 140723013486336 "POST /api/features HTTP/1.1" 200 6944
INFO 2022-12-18 04:25:20,506 basehttp 12396 140723013486336 "POST /api/features HTTP/1.1" 200 7718
INFO 2022-12-18 04:25:21,055 basehttp 12396 140723013486336 "POST /api/features HTTP/1.1" 200 6958
INFO 2022-12-18 04:25:21,698 basehttp 12396 140723013486336 "POST /api/features HTTP/1.1" 200 7301
INFO 2022-12-18 04:25:22,244 basehttp 12396 140723013486336 "POST /api/features HTTP/1.1" 200 8030
INFO 2022-12-18 04:25:22,828 basehttp 12396 140723013486336 "POST /api/features HTTP/1.1" 200 11259
INFO 2022-12-18 04:25:23,372 basehttp 12396 140723013486336 "POST /api/features HTTP/1.1" 200 10984
INFO 2022-12-18 04:25:23,920 basehttp 12396 140723013486336 "POST /api/features HTTP/1.1" 200 5960
INFO 2022-12-18 04:25:24,457 basehttp 12396 140723013486336 "POST /api/features HTTP/1.1" 200 7310
INFO 2022-12-18 04:25:24,984 basehttp 12396 140723013486336 "POST /api/features HTTP/1.1" 200 7414
INFO 2022-12-18 04:25:25,547 basehttp 12396 140723013486336 "POST /api/features HTTP/1.1" 200 6905
INFO 2022-12-18 04:25:26,282 basehttp 12396 140723013486336 "POST /api/features HTTP/1.1" 200 6903
INFO 2022-12-18 04:25:27,341 basehttp 12396 140723013486336 "POST /api/features HTTP/1.1" 200 7329
INFO 2022-12-18 04:25:27,955 basehttp 12396 140723013486336 "POST /api/features HTTP/1.1" 200 7497
INFO 2022-12-18 04:25:29,529 basehttp 12396 140723013486336 "POST /api/features HTTP/1.1" 200 11864
INFO 2022-12-18 04:25:33,075 basehttp 12396 140723013486336 "POST /api/features HTTP/1.1" 200 7685
INFO 2022-12-18 04:25:33,602 basehttp 12396 140723013486336 "POST /api/features HTTP/1.1" 200 7847
INFO 2022-12-18 04:25:34,101 basehttp 12396 140723013486336 "POST /api/features HTTP/1.1" 200 7594
INFO 2022-12-18 04:25:34,700 basehttp 12396 140723013486336 "POST /api/features HTTP/1.1" 200 8832
INFO 2022-12-18 04:25:35,281 basehttp 12396 140723013486336 "POST /api/features HTTP/1.1" 200 7699
INFO 2022-12-18 04:25:35,849 basehttp 12396 140723013486336 "POST /api/features HTTP/1.1" 200 15315
INFO 2022-12-18 04:25:36,438 basehttp 12396 140723013486336 "POST /api/features HTTP/1.1" 200 15070
INFO 2022-12-18 04:25:37,231 basehttp 12396 140723013486336 "POST /api/features HTTP/1.1" 200 15076
INFO 2022-12-18 04:25:37,859 basehttp 12396 140723013486336 "POST /api/features HTTP/1.1" 200 15170
INFO 2022-12-18 04:25:38,423 basehttp 12396 140723013486336 "POST /api/features HTTP/1.1" 200 12763
INFO 2022-12-18 04:25:39,009 basehttp 12396 140723013486336 "POST /api/features HTTP/1.1" 200 12913
INFO 2022-12-18 04:25:39,558 basehttp 12396 140723013486336 "POST /api/features HTTP/1.1" 200 12816
INFO 2022-12-18 04:25:40,095 basehttp 12396 140723013486336 "POST /api/features HTTP/1.1" 200 11503
INFO 2022-12-18 04:25:40,683 basehttp 12396 140723013486336 "POST /api/features HTTP/1.1" 200 11491
INFO 2022-12-18 04:25:41,215 basehttp 12396 140723013486336 "POST /api/features HTTP/1.1" 200 6589
INFO 2022-12-18 04:25:41,778 basehttp 12396 140723013486336 "POST /api/features HTTP/1.1" 200 10970
INFO 2022-12-18 04:25:42,326 basehttp 12396 140723013486336 "POST /api/features HTTP/1.1" 200 10120
INFO 2022-12-18 04:25:42,869 basehttp 12396 140723013486336 "POST /api/features HTTP/1.1" 200 7557
INFO 2022-12-18 04:25:43,410 basehttp 12396 140723013486336 "POST /api/features HTTP/1.1" 200 6689
INFO 2022-12-18 04:25:43,932 basehttp 12396 140723013486336 "POST /api/features HTTP/1.1" 200 6519
INFO 2022-12-18 04:25:44,435 basehttp 12396 140723013486336 "POST /api/features HTTP/1.1" 200 6747
INFO 2022-12-18 04:25:44,987 basehttp 12396 140723013486336 "POST /api/features HTTP/1.1" 200 6204
INFO 2022-12-18 04:25:45,576 basehttp 12396 140723013486336 "POST /api/features HTTP/1.1" 200 6204
INFO 2022-12-18 04:25:46,111 basehttp 12396 140723013486336 "POST /api/features HTTP/1.1" 200 6244
INFO 2022-12-18 04:25:46,615 basehttp 12396 140723013486336 "POST /api/features HTTP/1.1" 200 8026
INFO 2022-12-18 04:25:47,146 basehttp 12396 140723013486336 "POST /api/features HTTP/1.1" 200 6232
INFO 2022-12-18 04:25:47,665 basehttp 12396 140723013486336 "POST /api/features HTTP/1.1" 200 8744
INFO 2022-12-18 04:25:48,220 basehttp 12396 140723013486336 "POST /api/features HTTP/1.1" 200 10030
INFO 2022-12-18 04:25:48,788 basehttp 12396 140723013486336 "POST /api/features HTTP/1.1" 200 10005
INFO 2022-12-18 04:25:49,466 basehttp 12396 140723013486336 "POST /api/features HTTP/1.1" 200 8743
INFO 2022-12-18 04:25:49,992 basehttp 12396 140723013486336 "POST /api/features HTTP/1.1" 200 9198
INFO 2022-12-18 04:25:50,602 basehttp 12396 140723013486336 "POST /api/features HTTP/1.1" 200 8556
INFO 2022-12-18 04:25:51,150 basehttp 12396 140723013486336 "POST /api/features HTTP/1.1" 200 11231
INFO 2022-12-18 04:25:51,820 basehttp 12396 140723013486336 "POST /api/features HTTP/1.1" 200 10686
INFO 2022-12-18 04:25:52,363 basehttp 12396 140723013486336 "POST /api/features HTTP/1.1" 200 13774
INFO 2022-12-18 04:25:52,867 basehttp 12396 140723013486336 "POST /api/features HTTP/1.1" 200 7697
INFO 2022-12-18 04:25:53,394 basehttp 12396 140723013486336 "POST /api/features HTTP/1.1" 200 7482
INFO 2022-12-18 04:25:53,931 basehttp 12396 140723013486336 "POST /api/features HTTP/1.1" 200 11131
INFO 2022-12-18 04:25:54,485 basehttp 12396 140723013486336 "POST /api/features HTTP/1.1" 200 8190
INFO 2022-12-18 04:25:55,045 basehttp 12396 140723013486336 "POST /api/features HTTP/1.1" 200 13168
INFO 2022-12-18 04:25:55,632 basehttp 12396 140723013486336 "POST /api/features HTTP/1.1" 200 11282
INFO 2022-12-18 04:25:56,180 basehttp 12396 140723013486336 "POST /api/features HTTP/1.1" 200 8557
INFO 2022-12-18 04:25:56,716 basehttp 12396 140723013486336 "POST /api/features HTTP/1.1" 200 6903
INFO 2022-12-18 04:25:57,813 basehttp 12396 140723013486336 "POST /api/features HTTP/1.1" 200 6605
INFO 2022-12-18 04:25:58,659 basehttp 12396 140723013486336 "POST /api/features HTTP/1.1" 200 7708
INFO 2022-12-18 04:25:59,254 basehttp 12396 140723013486336 "POST /api/features HTTP/1.1" 200 6919
INFO 2022-12-18 04:25:59,873 basehttp 12396 140723013486336 "POST /api/features HTTP/1.1" 200 5955
INFO 2022-12-18 04:26:00,828 basehttp 12396 140723013486336 "POST /api/features HTTP/1.1" 200 7683
INFO 2022-12-18 04:26:01,480 basehttp 12396 140723013486336 "POST /api/features HTTP/1.1" 200 10727
INFO 2022-12-18 04:26:02,006 basehttp 12396 140723013486336 "POST /api/features HTTP/1.1" 200 8952
INFO 2022-12-18 04:26:02,750 basehttp 12396 140723013486336 "POST /api/features HTTP/1.1" 200 7125
INFO 2022-12-18 04:26:03,630 basehttp 12396 140723013486336 "POST /api/features HTTP/1.1" 200 13716
INFO 2022-12-18 04:26:04,477 basehttp 12396 140723013486336 "POST /api/features HTTP/1.1" 200 13011
INFO 2022-12-18 04:26:05,039 basehttp 12396 140723013486336 "POST /api/features HTTP/1.1" 200 9440
INFO 2022-12-18 04:26:05,614 basehttp 12396 140723013486336 "POST /api/features HTTP/1.1" 200 7613
INFO 2022-12-18 04:26:06,178 basehttp 12396 140723013486336 "POST /api/features HTTP/1.1" 200 8602
INFO 2022-12-18 04:26:06,753 basehttp 12396 140723013486336 "POST /api/features HTTP/1.1" 200 8716
INFO 2022-12-18 04:26:07,327 basehttp 12396 140723013486336 "POST /api/features HTTP/1.1" 200 7896
INFO 2022-12-18 04:26:07,884 basehttp 12396 140723013486336 "POST /api/features HTTP/1.1" 200 8494
INFO 2022-12-18 04:26:08,432 basehttp 12396 140723013486336 "POST /api/features HTTP/1.1" 200 7986
INFO 2022-12-18 04:26:08,956 basehttp 12396 140723013486336 "POST /api/features HTTP/1.1" 200 8028
INFO 2022-12-18 04:26:09,529 basehttp 12396 140723013486336 "POST /api/features HTTP/1.1" 200 6699
INFO 2022-12-18 04:26:10,104 basehttp 12396 140723013486336 "POST /api/features HTTP/1.1" 200 5977
INFO 2022-12-18 04:26:10,713 basehttp 12396 140723013486336 "POST /api/features HTTP/1.1" 200 5766
INFO 2022-12-18 04:26:11,278 basehttp 12396 140723013486336 "POST /api/features HTTP/1.1" 200 5972
INFO 2022-12-18 04:26:11,805 basehttp 12396 140723013486336 "POST /api/features HTTP/1.1" 200 8056
INFO 2022-12-18 04:26:12,390 basehttp 12396 140723013486336 "POST /api/features HTTP/1.1" 200 8140
INFO 2022-12-18 04:26:12,942 basehttp 12396 140723013486336 "POST /api/features HTTP/1.1" 200 8122
INFO 2022-12-18 04:26:13,495 basehttp 12396 140723013486336 "POST /api/features HTTP/1.1" 200 7471
INFO 2022-12-18 04:26:14,038 basehttp 12396 140723013486336 "POST /api/features HTTP/1.1" 200 7499
INFO 2022-12-18 04:26:14,593 basehttp 12396 140723013486336 "POST /api/features HTTP/1.1" 200 7956
INFO 2022-12-18 04:26:15,145 basehttp 12396 140723013486336 "POST /api/features HTTP/1.1" 200 9839
INFO 2022-12-18 04:26:15,694 basehttp 12396 140723013486336 "POST /api/features HTTP/1.1" 200 8303
INFO 2022-12-18 04:26:16,259 basehttp 12396 140723013486336 "POST /api/features HTTP/1.1" 200 6889
INFO 2022-12-18 04:26:17,007 basehttp 12396 140723013486336 "POST /api/features HTTP/1.1" 200 6909
INFO 2022-12-18 04:26:17,549 basehttp 12396 140723013486336 "POST /api/features HTTP/1.1" 200 6934
INFO 2022-12-18 04:26:18,125 basehttp 12396 140723013486336 "POST /api/features HTTP/1.1" 200 7591
INFO 2022-12-18 04:26:18,674 basehttp 12396 140723013486336 "POST /api/features HTTP/1.1" 200 6574
INFO 2022-12-18 04:26:19,227 basehttp 12396 140723013486336 "POST /api/features HTTP/1.1" 200 8604
INFO 2022-12-18 04:26:19,761 basehttp 12396 140723013486336 "POST /api/features HTTP/1.1" 200 8965
INFO 2022-12-18 04:26:20,320 basehttp 12396 140723013486336 "POST /api/features HTTP/1.1" 200 8771
INFO 2022-12-18 04:26:20,890 basehttp 12396 140723013486336 "POST /api/features HTTP/1.1" 200 6046
INFO 2022-12-18 04:26:21,411 basehttp 12396 140723013486336 "POST /api/features HTTP/1.1" 200 8382
INFO 2022-12-18 04:26:21,929 basehttp 12396 140723013486336 "POST /api/features HTTP/1.1" 200 7758
INFO 2022-12-18 04:26:22,569 basehttp 12396 140723013486336 "POST /api/features HTTP/1.1" 200 6107
INFO 2022-12-18 04:26:23,127 basehttp 12396 140723013486336 "POST /api/features HTTP/1.1" 200 6533
INFO 2022-12-18 04:26:23,667 basehttp 12396 140723013486336 "POST /api/features HTTP/1.1" 200 9135
INFO 2022-12-18 04:26:24,210 basehttp 12396 140723013486336 "POST /api/features HTTP/1.1" 200 9685
INFO 2022-12-18 04:26:24,757 basehttp 12396 140723013486336 "POST /api/features HTTP/1.1" 200 9203
INFO 2022-12-18 04:26:25,710 basehttp 12396 140723013486336 "POST /api/features HTTP/1.1" 200 9683
INFO 2022-12-18 04:26:26,254 basehttp 12396 140723013486336 "POST /api/features HTTP/1.1" 200 6468
INFO 2022-12-18 04:26:27,451 basehttp 12396 140723013486336 "POST /api/features HTTP/1.1" 200 11112
INFO 2022-12-18 04:26:27,983 basehttp 12396 140723013486336 "POST /api/features HTTP/1.1" 200 6142
INFO 2022-12-18 04:26:28,531 basehttp 12396 140723013486336 "POST /api/features HTTP/1.1" 200 6142
INFO 2022-12-18 04:26:29,108 basehttp 12396 140723013486336 "POST /api/features HTTP/1.1" 200 5817
INFO 2022-12-18 04:26:29,718 basehttp 12396 140723013486336 "POST /api/features HTTP/1.1" 200 9020
INFO 2022-12-18 04:26:30,507 basehttp 12396 140723013486336 "POST /api/features HTTP/1.1" 200 6897
INFO 2022-12-18 04:26:31,060 basehttp 12396 140723022857984 "POST /api/features HTTP/1.1" 200 12721
INFO 2022-12-18 04:26:36,614 basehttp 12396 140723022857984 "POST /api/features HTTP/1.1" 200 6372
INFO 2022-12-18 04:26:37,169 basehttp 12396 140723022857984 "POST /api/features HTTP/1.1" 200 10817
INFO 2022-12-18 04:26:37,708 basehttp 12396 140723022857984 "POST /api/features HTTP/1.1" 200 8218
INFO 2022-12-18 04:26:38,582 basehttp 12396 140723022857984 "POST /api/features HTTP/1.1" 200 6187
INFO 2022-12-18 04:26:39,186 basehttp 12396 140723022857984 "POST /api/features HTTP/1.1" 200 7136
INFO 2022-12-18 04:26:39,731 basehttp 12396 140723022857984 "POST /api/features HTTP/1.1" 200 7171
INFO 2022-12-18 04:26:40,245 basehttp 12396 140723022857984 "POST /api/features HTTP/1.1" 200 7232
INFO 2022-12-18 04:26:40,880 basehttp 12396 140723022857984 "POST /api/features HTTP/1.1" 200 6537
INFO 2022-12-18 04:26:41,412 basehttp 12396 140723022857984 "POST /api/features HTTP/1.1" 200 5312
INFO 2022-12-18 04:26:41,979 basehttp 12396 140723022857984 "POST /api/features HTTP/1.1" 200 7007
INFO 2022-12-18 04:26:43,733 basehttp 12396 140723022857984 "POST /api/features HTTP/1.1" 200 8259
INFO 2022-12-18 04:26:44,297 basehttp 12396 140723022857984 "POST /api/features HTTP/1.1" 200 8204
INFO 2022-12-18 04:26:44,987 basehttp 12396 140723022857984 "POST /api/features HTTP/1.1" 200 17617
INFO 2022-12-18 04:26:45,593 basehttp 12396 140723022857984 "POST /api/features HTTP/1.1" 200 14717
INFO 2022-12-18 04:26:46,133 basehttp 12396 140723022857984 "POST /api/features HTTP/1.1" 200 12007
INFO 2022-12-18 04:26:46,674 basehttp 12396 140723022857984 "POST /api/features HTTP/1.1" 200 14177
INFO 2022-12-18 04:26:47,210 basehttp 12396 140723022857984 "POST /api/features HTTP/1.1" 200 11709
INFO 2022-12-18 04:26:47,779 basehttp 12396 140723022857984 "POST /api/features HTTP/1.1" 200 11100
INFO 2022-12-18 04:26:48,348 basehttp 12396 140723022857984 "POST /api/features HTTP/1.1" 200 13826
INFO 2022-12-18 04:26:48,916 basehttp 12396 140723022857984 "POST /api/features HTTP/1.1" 200 13710
INFO 2022-12-18 04:26:49,527 basehttp 12396 140723022857984 "POST /api/features HTTP/1.1" 200 8910
INFO 2022-12-18 04:26:50,087 basehttp 12396 140723022857984 "POST /api/features HTTP/1.1" 200 8929
INFO 2022-12-18 04:26:50,651 basehttp 12396 140723022857984 "POST /api/features HTTP/1.1" 200 6451
INFO 2022-12-18 04:26:51,246 basehttp 12396 140723022857984 "POST /api/features HTTP/1.1" 200 7393
INFO 2022-12-18 04:26:51,818 basehttp 12396 140723022857984 "POST /api/features HTTP/1.1" 200 10924
INFO 2022-12-18 04:26:52,342 basehttp 12396 140723022857984 "POST /api/features HTTP/1.1" 200 7537
INFO 2022-12-18 04:26:53,064 basehttp 12396 140723022857984 "POST /api/features HTTP/1.1" 200 7183
INFO 2022-12-18 04:26:53,725 basehttp 12396 140723022857984 "POST /api/features HTTP/1.1" 200 12900
INFO 2022-12-18 04:26:54,291 basehttp 12396 140723022857984 "POST /api/features HTTP/1.1" 200 11409
INFO 2022-12-18 04:26:54,829 basehttp 12396 140723022857984 "POST /api/features HTTP/1.1" 200 9788
INFO 2022-12-18 04:26:55,398 basehttp 12396 140723022857984 "POST /api/features HTTP/1.1" 200 8489
INFO 2022-12-18 04:26:55,933 basehttp 12396 140723022857984 "POST /api/features HTTP/1.1" 200 7105
INFO 2022-12-18 04:26:56,470 basehttp 12396 140723022857984 "POST /api/features HTTP/1.1" 200 7561
INFO 2022-12-18 04:26:57,151 basehttp 12396 140723022857984 "POST /api/features HTTP/1.1" 200 6521
INFO 2022-12-18 04:26:57,680 basehttp 12396 140723022857984 "POST /api/features HTTP/1.1" 200 6684
INFO 2022-12-18 04:26:58,242 basehttp 12396 140723022857984 "POST /api/features HTTP/1.1" 200 7617
INFO 2022-12-18 04:26:59,010 basehttp 12396 140723022857984 "POST /api/features HTTP/1.1" 200 6838
INFO 2022-12-18 04:26:59,524 basehttp 12396 140723022857984 "POST /api/features HTTP/1.1" 200 2395
INFO 2022-12-18 04:27:00,034 basehttp 12396 140723022857984 "POST /api/features HTTP/1.1" 200 6446
INFO 2022-12-18 04:27:00,602 basehttp 12396 140723022857984 "POST /api/features HTTP/1.1" 200 9373
INFO 2022-12-18 04:27:01,140 basehttp 12396 140723022857984 "POST /api/features HTTP/1.1" 200 7681
INFO 2022-12-18 04:27:01,691 basehttp 12396 140723022857984 "POST /api/features HTTP/1.1" 200 8970
INFO 2022-12-18 04:27:02,462 basehttp 12396 140723022857984 "POST /api/features HTTP/1.1" 200 2528
INFO 2022-12-18 04:27:03,026 basehttp 12396 140723022857984 "POST /api/features HTTP/1.1" 200 9210
INFO 2022-12-18 04:27:03,602 basehttp 12396 140723022857984 "POST /api/features HTTP/1.1" 200 9448
INFO 2022-12-18 04:27:04,625 basehttp 12396 140723022857984 "POST /api/features HTTP/1.1" 200 13667
INFO 2022-12-18 04:27:05,180 basehttp 12396 140723022857984 "POST /api/features HTTP/1.1" 200 12986
INFO 2022-12-18 04:27:05,735 basehttp 12396 140723022857984 "POST /api/features HTTP/1.1" 200 13798
INFO 2022-12-18 04:27:06,339 basehttp 12396 140723022857984 "POST /api/features HTTP/1.1" 200 12659
INFO 2022-12-18 04:27:06,881 basehttp 12396 140723022857984 "POST /api/features HTTP/1.1" 200 13023
INFO 2022-12-18 04:27:07,434 basehttp 12396 140723022857984 "POST /api/features HTTP/1.1" 200 14372
INFO 2022-12-18 04:27:07,979 basehttp 12396 140723022857984 "POST /api/features HTTP/1.1" 200 10795
INFO 2022-12-18 04:27:08,528 basehttp 12396 140723022857984 "POST /api/features HTTP/1.1" 200 7890
INFO 2022-12-18 04:27:09,137 basehttp 12396 140723022857984 "POST /api/features HTTP/1.1" 200 11676
INFO 2022-12-18 04:27:09,688 basehttp 12396 140723022857984 "POST /api/features HTTP/1.1" 200 6001
INFO 2022-12-18 04:27:10,219 basehttp 12396 140723022857984 "POST /api/features HTTP/1.1" 200 6002
INFO 2022-12-18 04:27:10,755 basehttp 12396 140723022857984 "POST /api/features HTTP/1.1" 200 5521
INFO 2022-12-18 04:27:11,584 basehttp 12396 140723022857984 "POST /api/features HTTP/1.1" 200 9317
INFO 2022-12-18 04:27:12,302 basehttp 12396 140723022857984 "POST /api/features HTTP/1.1" 200 12754
INFO 2022-12-18 04:27:13,267 basehttp 12396 140723022857984 "POST /api/features HTTP/1.1" 200 10423
INFO 2022-12-18 04:27:13,797 basehttp 12396 140723022857984 "POST /api/features HTTP/1.1" 200 7565
INFO 2022-12-18 04:27:14,383 basehttp 12396 140723022857984 "POST /api/features HTTP/1.1" 200 12682
INFO 2022-12-18 04:27:14,925 basehttp 12396 140723022857984 "POST /api/features HTTP/1.1" 200 6765
INFO 2022-12-18 04:27:15,626 basehttp 12396 140723022857984 "POST /api/features HTTP/1.1" 200 9168
INFO 2022-12-18 04:27:16,173 basehttp 12396 140723022857984 "POST /api/features HTTP/1.1" 200 8742
INFO 2022-12-18 04:27:16,725 basehttp 12396 140723022857984 "POST /api/features HTTP/1.1" 200 7736
INFO 2022-12-18 04:27:17,498 basehttp 12396 140723022857984 "POST /api/features HTTP/1.1" 200 7820
INFO 2022-12-18 04:27:18,051 basehttp 12396 140723022857984 "POST /api/features HTTP/1.1" 200 7574
INFO 2022-12-18 04:27:18,598 basehttp 12396 140723022857984 "POST /api/features HTTP/1.1" 200 10572
INFO 2022-12-18 04:27:19,137 basehttp 12396 140723022857984 "POST /api/features HTTP/1.1" 200 8742
INFO 2022-12-18 04:27:19,722 basehttp 12396 140723022857984 "POST /api/features HTTP/1.1" 200 11636
INFO 2022-12-18 04:27:20,227 basehttp 12396 140723013486336 "POST /api/features HTTP/1.1" 200 9242
INFO 2022-12-18 04:27:20,778 basehttp 12396 140723013486336 "POST /api/features HTTP/1.1" 200 6468
INFO 2022-12-18 04:27:21,285 basehttp 12396 140723022857984 "POST /api/features HTTP/1.1" 200 6790
INFO 2022-12-18 04:27:22,867 basehttp 12396 140723022857984 "POST /api/features HTTP/1.1" 200 9872
INFO 2022-12-18 04:27:23,448 basehttp 12396 140723022857984 "POST /api/features HTTP/1.1" 200 7476
INFO 2022-12-18 04:27:23,998 basehttp 12396 140723022857984 "POST /api/features HTTP/1.1" 200 13151
INFO 2022-12-18 04:27:24,509 basehttp 12396 140723022857984 "POST /api/features HTTP/1.1" 200 2571
INFO 2022-12-18 04:27:28,433 basehttp 12396 140723022857984 "POST /api/features HTTP/1.1" 200 9002
INFO 2022-12-18 04:27:28,952 basehttp 12396 140723022857984 "POST /api/features HTTP/1.1" 200 6288
INFO 2022-12-18 04:27:29,707 basehttp 12396 140723013486336 "POST /api/features HTTP/1.1" 200 14943
INFO 2022-12-18 04:27:30,267 basehttp 12396 140723013486336 "POST /api/features HTTP/1.1" 200 6044
INFO 2022-12-18 04:27:30,818 basehttp 12396 140723013486336 "POST /api/features HTTP/1.1" 200 5816
INFO 2022-12-18 04:27:32,485 basehttp 12396 140723013486336 "POST /api/features HTTP/1.1" 200 14558
INFO 2022-12-18 04:27:33,051 basehttp 12396 140723013486336 "POST /api/features HTTP/1.1" 200 14882
INFO 2022-12-18 04:27:33,611 basehttp 12396 140723013486336 "POST /api/features HTTP/1.1" 200 10865
INFO 2022-12-18 04:27:34,183 basehttp 12396 140723013486336 "POST /api/features HTTP/1.1" 200 10662
INFO 2022-12-18 04:27:34,701 basehttp 12396 140723013486336 "POST /api/features HTTP/1.1" 200 6631
INFO 2022-12-18 04:27:35,232 basehttp 12396 140723013486336 "POST /api/features HTTP/1.1" 200 6873
INFO 2022-12-18 04:27:35,795 basehttp 12396 140723013486336 "POST /api/features HTTP/1.1" 200 7251
INFO 2022-12-18 04:27:36,359 basehttp 12396 140723013486336 "POST /api/features HTTP/1.1" 200 6461
INFO 2022-12-18 04:27:36,904 basehttp 12396 140723013486336 "POST /api/features HTTP/1.1" 200 6624
INFO 2022-12-18 04:27:37,429 basehttp 12396 140723013486336 "POST /api/features HTTP/1.1" 200 7679
INFO 2022-12-18 04:27:37,959 basehttp 12396 140723013486336 "POST /api/features HTTP/1.1" 200 7693
INFO 2022-12-18 04:27:38,473 basehttp 12396 140723013486336 "POST /api/features HTTP/1.1" 200 7409
INFO 2022-12-18 04:27:39,018 basehttp 12396 140723013486336 "POST /api/features HTTP/1.1" 200 13686
INFO 2022-12-18 04:27:39,730 basehttp 12396 140723013486336 "POST /api/features HTTP/1.1" 200 12918
INFO 2022-12-18 04:27:40,413 basehttp 12396 140723013486336 "POST /api/features HTTP/1.1" 200 8241
INFO 2022-12-18 04:27:40,976 basehttp 12396 140723013486336 "POST /api/features HTTP/1.1" 200 8213
INFO 2022-12-18 04:27:41,558 basehttp 12396 140723013486336 "POST /api/features HTTP/1.1" 200 6213
INFO 2022-12-18 04:27:42,215 basehttp 12396 140723013486336 "POST /api/features HTTP/1.1" 200 9124
INFO 2022-12-18 04:27:42,768 basehttp 12396 140723013486336 "POST /api/features HTTP/1.1" 200 9124
INFO 2022-12-18 04:27:43,315 basehttp 12396 140723013486336 "POST /api/features HTTP/1.1" 200 8121
INFO 2022-12-18 04:27:43,878 basehttp 12396 140723013486336 "POST /api/features HTTP/1.1" 200 8107
INFO 2022-12-18 04:27:44,418 basehttp 12396 140723013486336 "POST /api/features HTTP/1.1" 200 7170
INFO 2022-12-18 04:27:44,986 basehttp 12396 140723013486336 "POST /api/features HTTP/1.1" 200 6086
INFO 2022-12-18 04:27:45,593 basehttp 12396 140723013486336 "POST /api/features HTTP/1.1" 200 6353
INFO 2022-12-18 04:27:46,139 basehttp 12396 140723013486336 "POST /api/features HTTP/1.1" 200 10428
INFO 2022-12-18 04:27:46,703 basehttp 12396 140723013486336 "POST /api/features HTTP/1.1" 200 6416
INFO 2022-12-18 04:27:47,280 basehttp 12396 140723013486336 "POST /api/features HTTP/1.1" 200 6473
INFO 2022-12-18 04:27:47,810 basehttp 12396 140723013486336 "POST /api/features HTTP/1.1" 200 6605
INFO 2022-12-18 04:27:48,354 basehttp 12396 140723013486336 "POST /api/features HTTP/1.1" 200 6996
INFO 2022-12-18 04:27:48,906 basehttp 12396 140723013486336 "POST /api/features HTTP/1.1" 200 6943
INFO 2022-12-18 04:27:49,441 basehttp 12396 140723013486336 "POST /api/features HTTP/1.1" 200 7113
INFO 2022-12-18 04:27:49,952 basehttp 12396 140723013486336 "POST /api/features HTTP/1.1" 200 8039
INFO 2022-12-18 04:27:50,529 basehttp 12396 140723013486336 "POST /api/features HTTP/1.1" 200 9143
INFO 2022-12-18 04:27:51,056 basehttp 12396 140723013486336 "POST /api/features HTTP/1.1" 200 9214
INFO 2022-12-18 04:27:51,587 basehttp 12396 140723013486336 "POST /api/features HTTP/1.1" 200 10307
INFO 2022-12-18 04:27:52,147 basehttp 12396 140723022857984 "POST /api/features HTTP/1.1" 200 3134
INFO 2022-12-18 04:27:52,674 basehttp 12396 140723022857984 "POST /api/features HTTP/1.1" 200 2603
INFO 2022-12-18 04:27:53,190 basehttp 12396 140723022857984 "POST /api/features HTTP/1.1" 200 9101
INFO 2022-12-18 04:27:54,025 basehttp 12396 140723022857984 "POST /api/features HTTP/1.1" 200 8742
INFO 2022-12-18 04:27:54,865 basehttp 12396 140723022857984 "POST /api/features HTTP/1.1" 200 12215
INFO 2022-12-18 04:27:55,414 basehttp 12396 140723022857984 "POST /api/features HTTP/1.1" 200 8855
INFO 2022-12-18 04:27:55,939 basehttp 12396 140723022857984 "POST /api/features HTTP/1.1" 200 10633
INFO 2022-12-18 04:27:56,476 basehttp 12396 140723022857984 "POST /api/features HTTP/1.1" 200 9841
INFO 2022-12-18 04:27:57,103 basehttp 12396 140723022857984 "POST /api/features HTTP/1.1" 200 13947
INFO 2022-12-18 04:27:57,714 basehttp 12396 140723022857984 "POST /api/features HTTP/1.1" 200 10337
INFO 2022-12-18 04:27:58,341 basehttp 12396 140723022857984 "POST /api/features HTTP/1.1" 200 8629
INFO 2022-12-18 04:27:59,006 basehttp 12396 140723022857984 "POST /api/features HTTP/1.1" 200 6098
INFO 2022-12-18 04:27:59,620 basehttp 12396 140723022857984 "POST /api/features HTTP/1.1" 200 6667
INFO 2022-12-18 04:28:00,269 basehttp 12396 140723022857984 "POST /api/features HTTP/1.1" 200 6447
INFO 2022-12-18 04:28:00,856 basehttp 12396 140723022857984 "POST /api/features HTTP/1.1" 200 6784
INFO 2022-12-18 04:28:01,390 basehttp 12396 140723022857984 "POST /api/features HTTP/1.1" 200 13111
INFO 2022-12-18 04:28:01,923 basehttp 12396 140723022857984 "POST /api/features HTTP/1.1" 200 10772
INFO 2022-12-18 04:28:02,426 basehttp 12396 140723022857984 "POST /api/features HTTP/1.1" 200 5284
INFO 2022-12-18 04:28:03,117 basehttp 12396 140723022857984 "POST /api/features HTTP/1.1" 200 5424
INFO 2022-12-18 04:28:06,637 basehttp 12396 140723022857984 "POST /api/features HTTP/1.1" 200 5192
INFO 2022-12-18 04:28:07,260 basehttp 12396 140723022857984 "POST /api/features HTTP/1.1" 200 5428
INFO 2022-12-18 04:28:07,778 basehttp 12396 140723022857984 "POST /api/features HTTP/1.1" 200 2426
INFO 2022-12-18 04:28:08,323 basehttp 12396 140723022857984 "POST /api/features HTTP/1.1" 200 2344
INFO 2022-12-18 04:28:08,903 basehttp 12396 140723022857984 "POST /api/features HTTP/1.1" 200 6240
INFO 2022-12-18 04:28:09,437 basehttp 12396 140723022857984 "POST /api/features HTTP/1.1" 200 11918
INFO 2022-12-18 04:28:17,004 basehttp 12396 140723022857984 "POST /api/features HTTP/1.1" 200 9921
INFO 2022-12-18 04:28:18,537 basehttp 12396 140723022857984 "POST /api/features HTTP/1.1" 200 11767
INFO 2022-12-18 04:28:19,116 basehttp 12396 140723022857984 "POST /api/features HTTP/1.1" 200 5877
INFO 2022-12-18 04:28:19,667 basehttp 12396 140723022857984 "POST /api/features HTTP/1.1" 200 6419
INFO 2022-12-18 04:28:20,218 basehttp 12396 140723022857984 "POST /api/features HTTP/1.1" 200 9005
INFO 2022-12-18 04:28:20,811 basehttp 12396 140723022857984 "POST /api/features HTTP/1.1" 200 8769
INFO 2022-12-18 04:28:21,691 basehttp 12396 140723022857984 "POST /api/features HTTP/1.1" 200 5835
INFO 2022-12-18 04:28:22,280 basehttp 12396 140723022857984 "POST /api/features HTTP/1.1" 200 6185
INFO 2022-12-18 04:28:22,807 basehttp 12396 140723022857984 "POST /api/features HTTP/1.1" 200 6526
INFO 2022-12-18 04:28:24,546 basehttp 12396 140723022857984 "POST /api/features HTTP/1.1" 200 6298
INFO 2022-12-18 04:28:25,085 basehttp 12396 140723022857984 "POST /api/features HTTP/1.1" 200 6425
INFO 2022-12-18 04:28:25,672 basehttp 12396 140723022857984 "POST /api/features HTTP/1.1" 200 6632
INFO 2022-12-18 04:28:26,214 basehttp 12396 140723022857984 "POST /api/features HTTP/1.1" 200 7647
INFO 2022-12-18 04:28:26,778 basehttp 12396 140723022857984 "POST /api/features HTTP/1.1" 200 7677
INFO 2022-12-18 04:28:27,326 basehttp 12396 140723022857984 "POST /api/features HTTP/1.1" 200 7956
INFO 2022-12-18 04:28:27,891 basehttp 12396 140723022857984 "POST /api/features HTTP/1.1" 200 8125
INFO 2022-12-18 04:28:28,426 basehttp 12396 140723022857984 "POST /api/features HTTP/1.1" 200 10849
INFO 2022-12-18 04:28:28,997 basehttp 12396 140723022857984 "POST /api/features HTTP/1.1" 200 6537
INFO 2022-12-18 04:28:29,582 basehttp 12396 140723022857984 "POST /api/features HTTP/1.1" 200 9241
INFO 2022-12-18 04:28:30,122 basehttp 12396 140723013486336 "POST /api/features HTTP/1.1" 200 7002
INFO 2022-12-18 04:28:30,695 basehttp 12396 140723013486336 "POST /api/features HTTP/1.1" 200 6311
INFO 2022-12-18 04:28:31,270 basehttp 12396 140723013486336 "POST /api/features HTTP/1.1" 200 6431
INFO 2022-12-18 04:28:31,803 basehttp 12396 140723013486336 "POST /api/features HTTP/1.1" 200 7074
INFO 2022-12-18 04:28:32,310 basehttp 12396 140723013486336 "POST /api/features HTTP/1.1" 200 6201
INFO 2022-12-18 04:28:32,841 basehttp 12396 140723013486336 "POST /api/features HTTP/1.1" 200 10710
INFO 2022-12-18 04:28:33,407 basehttp 12396 140723013486336 "POST /api/features HTTP/1.1" 200 8428
INFO 2022-12-18 04:28:34,054 basehttp 12396 140723013486336 "POST /api/features HTTP/1.1" 200 6783
INFO 2022-12-18 04:28:34,838 basehttp 12396 140723013486336 "POST /api/features HTTP/1.1" 200 7422
INFO 2022-12-18 04:28:35,486 basehttp 12396 140723013486336 "POST /api/features HTTP/1.1" 200 7344
INFO 2022-12-18 04:28:36,049 basehttp 12396 140723013486336 "POST /api/features HTTP/1.1" 200 6307
INFO 2022-12-18 04:28:36,572 basehttp 12396 140723013486336 "POST /api/features HTTP/1.1" 200 3341
INFO 2022-12-18 04:28:37,103 basehttp 12396 140723013486336 "POST /api/features HTTP/1.1" 200 7966
INFO 2022-12-18 04:28:37,634 basehttp 12396 140723013486336 "POST /api/features HTTP/1.1" 200 7764
INFO 2022-12-18 04:28:39,207 basehttp 12396 140723013486336 "POST /api/features HTTP/1.1" 200 7158
INFO 2022-12-18 04:28:39,753 basehttp 12396 140723013486336 "POST /api/features HTTP/1.1" 200 6155
INFO 2022-12-18 04:28:40,344 basehttp 12396 140723013486336 "POST /api/features HTTP/1.1" 200 5241
INFO 2022-12-18 04:28:40,914 basehttp 12396 140723013486336 "POST /api/features HTTP/1.1" 200 7060
INFO 2022-12-18 04:28:41,508 basehttp 12396 140723013486336 "POST /api/features HTTP/1.1" 200 7620
INFO 2022-12-18 04:28:42,044 basehttp 12396 140723013486336 "POST /api/features HTTP/1.1" 200 10538
INFO 2022-12-18 04:28:42,594 basehttp 12396 140723013486336 "POST /api/features HTTP/1.1" 200 7990
INFO 2022-12-18 04:28:43,141 basehttp 12396 140723013486336 "POST /api/features HTTP/1.1" 200 8538
INFO 2022-12-18 04:28:43,678 basehttp 12396 140723013486336 "POST /api/features HTTP/1.1" 200 8122
INFO 2022-12-18 04:28:44,218 basehttp 12396 140723013486336 "POST /api/features HTTP/1.1" 200 8062
INFO 2022-12-18 04:28:45,788 basehttp 12396 140723013486336 "POST /api/features HTTP/1.1" 200 7171
INFO 2022-12-18 04:28:46,316 basehttp 12396 140723013486336 "POST /api/features HTTP/1.1" 200 6036
INFO 2022-12-18 04:28:46,845 basehttp 12396 140723013486336 "POST /api/features HTTP/1.1" 200 6291
INFO 2022-12-18 04:28:47,367 basehttp 12396 140723013486336 "POST /api/features HTTP/1.1" 200 6290
INFO 2022-12-18 04:28:47,903 basehttp 12396 140723013486336 "POST /api/features HTTP/1.1" 200 6487
INFO 2022-12-18 04:28:48,409 basehttp 12396 140723013486336 "POST /api/features HTTP/1.1" 200 6488
INFO 2022-12-18 04:28:48,939 basehttp 12396 140723013486336 "POST /api/features HTTP/1.1" 200 6361
INFO 2022-12-18 04:28:49,469 basehttp 12396 140723013486336 "POST /api/features HTTP/1.1" 200 6558
INFO 2022-12-18 04:28:49,973 basehttp 12396 140723013486336 "POST /api/features HTTP/1.1" 200 6255
INFO 2022-12-18 04:28:50,536 basehttp 12396 140723013486336 "POST /api/features HTTP/1.1" 200 6427
INFO 2022-12-18 04:28:51,089 basehttp 12396 140723013486336 "POST /api/features HTTP/1.1" 200 6513
INFO 2022-12-18 04:28:51,669 basehttp 12396 140723013486336 "POST /api/features HTTP/1.1" 200 6470
INFO 2022-12-18 04:28:52,437 basehttp 12396 140723013486336 "POST /api/features HTTP/1.1" 200 6469
INFO 2022-12-18 04:28:53,131 basehttp 12396 140723013486336 "POST /api/features HTTP/1.1" 200 5881
INFO 2022-12-18 04:28:53,687 basehttp 12396 140723013486336 "POST /api/features HTTP/1.1" 200 6055
INFO 2022-12-18 04:28:54,351 basehttp 12396 140723013486336 "POST /api/features HTTP/1.1" 200 5869
INFO 2022-12-18 04:28:54,879 basehttp 12396 140723013486336 "POST /api/features HTTP/1.1" 200 6043
INFO 2022-12-18 05:15:55,971 basehttp 12396 140723013486336 "POST /api/features HTTP/1.1" 200 7357
INFO 2022-12-18 05:15:56,516 basehttp 12396 140723013486336 "POST /api/features HTTP/1.1" 200 6794
INFO 2022-12-18 05:15:57,029 basehttp 12396 140723013486336 "POST /api/features HTTP/1.1" 200 6961
INFO 2022-12-18 06:27:13,329 basehttp 12396 140723013486336 "POST /api/features HTTP/1.1" 200 6291
INFO 2022-12-18 06:27:13,834 basehttp 12396 140723013486336 "POST /api/features HTTP/1.1" 200 6290
INFO 2022-12-18 06:27:14,337 basehttp 12396 140723022857984 "POST /api/features HTTP/1.1" 200 6487
INFO 2022-12-18 06:27:14,863 basehttp 12396 140723022857984 "POST /api/features HTTP/1.1" 200 6488
INFO 2022-12-18 06:27:15,382 basehttp 12396 140723022857984 "POST /api/features HTTP/1.1" 200 6361
INFO 2022-12-18 06:27:15,891 basehttp 12396 140723022857984 "POST /api/features HTTP/1.1" 200 6558
INFO 2022-12-18 06:27:16,393 basehttp 12396 140723022857984 "POST /api/features HTTP/1.1" 200 6255
INFO 2022-12-18 06:27:16,912 basehttp 12396 140723022857984 "POST /api/features HTTP/1.1" 200 6427
INFO 2022-12-18 06:27:17,491 basehttp 12396 140723022857984 "POST /api/features HTTP/1.1" 200 6513
INFO 2022-12-18 06:27:17,983 basehttp 12396 140723022857984 "POST /api/features HTTP/1.1" 200 6470
INFO 2022-12-18 06:27:18,866 basehttp 12396 140723022857984 "POST /api/features HTTP/1.1" 200 6469
INFO 2022-12-18 06:27:19,369 basehttp 12396 140723022857984 "POST /api/features HTTP/1.1" 200 5881
INFO 2022-12-18 06:27:20,229 basehttp 12396 140723022857984 "POST /api/features HTTP/1.1" 200 6055
INFO 2022-12-18 06:27:20,742 basehttp 12396 140723022857984 "POST /api/features HTTP/1.1" 200 5869
INFO 2022-12-18 06:27:21,735 basehttp 12396 140723022857984 "POST /api/features HTTP/1.1" 200 6043
INFO 2022-12-18 06:27:22,245 basehttp 12396 140723022857984 "POST /api/features HTTP/1.1" 200 4361
INFO 2022-12-18 06:27:24,081 basehttp 12396 140723022857984 "POST /api/features HTTP/1.1" 200 4354
INFO 2022-12-18 06:27:24,589 basehttp 12396 140723022857984 "POST /api/features HTTP/1.1" 200 4361
INFO 2022-12-18 06:27:26,144 basehttp 12396 140723022857984 "POST /api/features HTTP/1.1" 200 4354
INFO 2022-12-18 06:27:26,952 basehttp 12396 140723022857984 "POST /api/features HTTP/1.1" 200 4833
INFO 2022-12-18 06:27:27,492 basehttp 12396 140723022857984 "POST /api/features HTTP/1.1" 200 4833
INFO 2022-12-18 06:27:28,129 basehttp 12396 140723022857984 "POST /api/features HTTP/1.1" 200 4833
INFO 2022-12-18 06:27:28,762 basehttp 12396 140723022857984 "POST /api/features HTTP/1.1" 200 4826
INFO 2022-12-18 06:27:29,577 basehttp 12396 140723022857984 "POST /api/features HTTP/1.1" 200 4639
INFO 2022-12-18 06:27:30,133 basehttp 12396 140723022857984 "POST /api/features HTTP/1.1" 200 5602
INFO 2022-12-18 06:27:30,693 basehttp 12396 140723022857984 "POST /api/features HTTP/1.1" 200 5602
INFO 2022-12-18 06:27:31,553 basehttp 12396 140723022857984 "POST /api/features HTTP/1.1" 200 5602
INFO 2022-12-18 06:27:32,432 basehttp 12396 140723022857984 "POST /api/features HTTP/1.1" 200 5597
INFO 2022-12-18 06:27:32,962 basehttp 12396 140723022857984 "POST /api/features HTTP/1.1" 200 4735
INFO 2022-12-18 06:27:33,517 basehttp 12396 140723022857984 "POST /api/features HTTP/1.1" 200 5502
INFO 2022-12-18 06:27:34,494 basehttp 12396 140723022857984 "POST /api/features HTTP/1.1" 200 5853
INFO 2022-12-18 06:27:34,988 basehttp 12396 140723022857984 "POST /api/features HTTP/1.1" 200 4233
INFO 2022-12-18 06:27:35,525 basehttp 12396 140723022857984 "POST /api/features HTTP/1.1" 200 5854
INFO 2022-12-18 06:27:36,033 basehttp 12396 140723022857984 "POST /api/features HTTP/1.1" 200 4165
INFO 2022-12-18 06:27:36,561 basehttp 12396 140723022857984 "POST /api/features HTTP/1.1" 200 5620
INFO 2022-12-18 06:27:37,104 basehttp 12396 140723022857984 "POST /api/features HTTP/1.1" 200 5620
INFO 2022-12-18 06:27:37,621 basehttp 12396 140723022857984 "POST /api/features HTTP/1.1" 200 5615
INFO 2022-12-18 06:27:38,138 basehttp 12396 140723022857984 "POST /api/features HTTP/1.1" 200 5479
INFO 2022-12-18 06:27:38,641 basehttp 12396 140723022857984 "POST /api/features HTTP/1.1" 200 4258
INFO 2022-12-18 06:27:39,167 basehttp 12396 140723022857984 "POST /api/features HTTP/1.1" 200 5384
INFO 2022-12-18 06:27:39,720 basehttp 12396 140723022857984 "POST /api/features HTTP/1.1" 200 5384
INFO 2022-12-18 06:27:40,266 basehttp 12396 140723022857984 "POST /api/features HTTP/1.1" 200 5384
INFO 2022-12-18 06:27:40,786 basehttp 12396 140723022857984 "POST /api/features HTTP/1.1" 200 5379
INFO 2022-12-18 06:27:41,313 basehttp 12396 140723022857984 "POST /api/features HTTP/1.1" 200 5541
INFO 2022-12-18 06:27:41,890 basehttp 12396 140723022857984 "POST /api/features HTTP/1.1" 200 5243
INFO 2022-12-18 06:27:42,410 basehttp 12396 140723022857984 "POST /api/features HTTP/1.1" 200 5305
INFO 2022-12-18 06:27:42,926 basehttp 12396 140723022857984 "POST /api/features HTTP/1.1" 200 5457
INFO 2022-12-18 06:27:43,537 basehttp 12396 140723022857984 "POST /api/features HTTP/1.1" 200 5457
INFO 2022-12-18 06:27:44,052 basehttp 12396 140723022857984 "POST /api/features HTTP/1.1" 200 5457
INFO 2022-12-18 06:27:44,551 basehttp 12396 140723022857984 "POST /api/features HTTP/1.1" 200 5322
INFO 2022-12-18 06:27:45,052 basehttp 12396 140723022857984 "POST /api/features HTTP/1.1" 200 5322
INFO 2022-12-18 06:27:45,562 basehttp 12396 140723022857984 "POST /api/features HTTP/1.1" 200 5322
INFO 2022-12-18 06:27:46,071 basehttp 12396 140723022857984 "POST /api/features HTTP/1.1" 200 5336
INFO 2022-12-18 06:27:46,575 basehttp 12396 140723022857984 "POST /api/features HTTP/1.1" 200 5336
INFO 2022-12-18 06:27:47,127 basehttp 12396 140723022857984 "POST /api/features HTTP/1.1" 200 5336
INFO 2022-12-18 06:27:47,644 basehttp 12396 140723022857984 "POST /api/features HTTP/1.1" 200 5248
INFO 2022-12-18 06:27:48,146 basehttp 12396 140723022857984 "POST /api/features HTTP/1.1" 200 5778
INFO 2022-12-18 06:27:49,681 basehttp 12396 140723022857984 "POST /api/features HTTP/1.1" 200 5637
INFO 2022-12-18 06:27:50,212 basehttp 12396 140723022857984 "POST /api/features HTTP/1.1" 200 5637
INFO 2022-12-18 06:27:50,736 basehttp 12396 140723022857984 "POST /api/features HTTP/1.1" 200 5515
INFO 2022-12-18 06:27:54,278 basehttp 12396 140723022857984 "POST /api/features HTTP/1.1" 200 4492
INFO 2022-12-18 06:27:54,793 basehttp 12396 140723022857984 "POST /api/features HTTP/1.1" 200 4506
INFO 2022-12-18 06:27:55,335 basehttp 12396 140723022857984 "POST /api/features HTTP/1.1" 200 6633
INFO 2022-12-18 06:27:55,841 basehttp 12396 140723022857984 "POST /api/features HTTP/1.1" 200 4495
INFO 2022-12-18 06:27:56,502 basehttp 12396 140723022857984 "POST /api/features HTTP/1.1" 200 4509
INFO 2022-12-18 06:27:57,017 basehttp 12396 140723022857984 "POST /api/features HTTP/1.1" 200 4537
INFO 2022-12-18 06:27:57,527 basehttp 12396 140723022857984 "POST /api/features HTTP/1.1" 200 4894
INFO 2022-12-18 06:52:34,627 basehttp 12396 140723022857984 "POST /api/features HTTP/1.1" 200 6291
INFO 2022-12-18 06:52:35,135 basehttp 12396 140723022857984 "POST /api/features HTTP/1.1" 200 6290
INFO 2022-12-18 06:52:35,694 basehttp 12396 140723022857984 "POST /api/features HTTP/1.1" 200 6487
INFO 2022-12-18 06:52:36,193 basehttp 12396 140723022857984 "POST /api/features HTTP/1.1" 200 6488
INFO 2022-12-18 06:52:36,700 basehttp 12396 140723022857984 "POST /api/features HTTP/1.1" 200 6361
INFO 2022-12-18 06:52:37,395 basehttp 12396 140723022857984 "POST /api/features HTTP/1.1" 200 6558
INFO 2022-12-18 06:52:37,940 basehttp 12396 140723022857984 "POST /api/features HTTP/1.1" 200 6255
INFO 2022-12-18 06:52:39,442 basehttp 12396 140723022857984 "POST /api/features HTTP/1.1" 200 6427
INFO 2022-12-18 06:52:39,981 basehttp 12396 140723022857984 "POST /api/features HTTP/1.1" 200 6513
INFO 2022-12-18 06:52:40,500 basehttp 12396 140723022857984 "POST /api/features HTTP/1.1" 200 6470
INFO 2022-12-18 06:52:41,009 basehttp 12396 140723022857984 "POST /api/features HTTP/1.1" 200 6469
INFO 2022-12-18 06:52:41,510 basehttp 12396 140723013486336 "POST /api/features HTTP/1.1" 200 5881
INFO 2022-12-18 06:52:42,019 basehttp 12396 140723013486336 "POST /api/features HTTP/1.1" 200 6055
INFO 2022-12-18 06:52:42,505 basehttp 12396 140723013486336 "POST /api/features HTTP/1.1" 200 5869
INFO 2022-12-18 06:52:42,996 basehttp 12396 140723013486336 "POST /api/features HTTP/1.1" 200 6043
INFO 2022-12-18 06:52:43,511 basehttp 12396 140723013486336 "POST /api/features HTTP/1.1" 200 4361
INFO 2022-12-18 06:52:44,024 basehttp 12396 140723013486336 "POST /api/features HTTP/1.1" 200 4354
INFO 2022-12-18 06:52:44,520 basehttp 12396 140723013486336 "POST /api/features HTTP/1.1" 200 4361
INFO 2022-12-18 06:52:45,034 basehttp 12396 140723013486336 "POST /api/features HTTP/1.1" 200 4354
INFO 2022-12-18 06:52:45,518 basehttp 12396 140723013486336 "POST /api/features HTTP/1.1" 200 4833
INFO 2022-12-18 06:52:46,009 basehttp 12396 140723013486336 "POST /api/features HTTP/1.1" 200 4833
INFO 2022-12-18 06:52:46,506 basehttp 12396 140723013486336 "POST /api/features HTTP/1.1" 200 4833
INFO 2022-12-18 06:52:46,988 basehttp 12396 140723013486336 "POST /api/features HTTP/1.1" 200 4826
INFO 2022-12-18 06:52:47,474 basehttp 12396 140723013486336 "POST /api/features HTTP/1.1" 200 4639
INFO 2022-12-18 06:52:47,962 basehttp 12396 140723013486336 "POST /api/features HTTP/1.1" 200 5602
INFO 2022-12-18 06:52:48,462 basehttp 12396 140723013486336 "POST /api/features HTTP/1.1" 200 5602
INFO 2022-12-18 06:52:48,967 basehttp 12396 140723013486336 "POST /api/features HTTP/1.1" 200 5602
INFO 2022-12-18 06:52:49,597 basehttp 12396 140723013486336 "POST /api/features HTTP/1.1" 200 5597
INFO 2022-12-18 06:52:53,154 basehttp 12396 140723013486336 "POST /api/features HTTP/1.1" 200 4735
INFO 2022-12-18 06:52:53,653 basehttp 12396 140723013486336 "POST /api/features HTTP/1.1" 200 5502
INFO 2022-12-18 06:52:54,163 basehttp 12396 140723013486336 "POST /api/features HTTP/1.1" 200 5853
INFO 2022-12-18 06:52:54,988 basehttp 12396 140723013486336 "POST /api/features HTTP/1.1" 200 4233
INFO 2022-12-18 06:52:55,499 basehttp 12396 140723022857984 "POST /api/features HTTP/1.1" 200 5854
INFO 2022-12-18 06:52:56,037 basehttp 12396 140723022857984 "POST /api/features HTTP/1.1" 200 4165
INFO 2022-12-18 06:52:56,539 basehttp 12396 140723022857984 "POST /api/features HTTP/1.1" 200 5620
INFO 2022-12-18 06:52:57,032 basehttp 12396 140723022857984 "POST /api/features HTTP/1.1" 200 5620
INFO 2022-12-18 06:52:57,552 basehttp 12396 140723022857984 "POST /api/features HTTP/1.1" 200 5615
INFO 2022-12-18 06:52:58,047 basehttp 12396 140723022857984 "POST /api/features HTTP/1.1" 200 5479
INFO 2022-12-18 06:52:58,556 basehttp 12396 140723022857984 "POST /api/features HTTP/1.1" 200 4258
INFO 2022-12-18 06:53:02,069 basehttp 12396 140723022857984 "POST /api/features HTTP/1.1" 200 5384
INFO 2022-12-18 06:53:02,572 basehttp 12396 140723022857984 "POST /api/features HTTP/1.1" 200 5384
INFO 2022-12-18 06:53:03,428 basehttp 12396 140723022857984 "POST /api/features HTTP/1.1" 200 5384
INFO 2022-12-18 06:53:04,035 basehttp 12396 140723022857984 "POST /api/features HTTP/1.1" 200 5379
INFO 2022-12-18 06:53:04,538 basehttp 12396 140723022857984 "POST /api/features HTTP/1.1" 200 5541
INFO 2022-12-18 06:53:05,119 basehttp 12396 140723022857984 "POST /api/features HTTP/1.1" 200 5243
INFO 2022-12-18 06:53:05,927 basehttp 12396 140723022857984 "POST /api/features HTTP/1.1" 200 5305
INFO 2022-12-18 06:53:06,443 basehttp 12396 140723022857984 "POST /api/features HTTP/1.1" 200 5457
INFO 2022-12-18 06:53:06,952 basehttp 12396 140723022857984 "POST /api/features HTTP/1.1" 200 5457
INFO 2022-12-18 06:53:07,433 basehttp 12396 140723022857984 "POST /api/features HTTP/1.1" 200 5457
INFO 2022-12-18 06:53:08,128 basehttp 12396 140723022857984 "POST /api/features HTTP/1.1" 200 5322
INFO 2022-12-18 06:53:08,888 basehttp 12396 140723022857984 "POST /api/features HTTP/1.1" 200 5322
INFO 2022-12-18 06:53:09,406 basehttp 12396 140723022857984 "POST /api/features HTTP/1.1" 200 5322
INFO 2022-12-18 06:53:09,914 basehttp 12396 140723022857984 "POST /api/features HTTP/1.1" 200 5336
INFO 2022-12-18 06:53:10,716 basehttp 12396 140723022857984 "POST /api/features HTTP/1.1" 200 5336
INFO 2022-12-18 06:53:11,210 basehttp 12396 140723022857984 "POST /api/features HTTP/1.1" 200 5336
INFO 2022-12-18 06:53:11,714 basehttp 12396 140723022857984 "POST /api/features HTTP/1.1" 200 5248
INFO 2022-12-18 06:53:12,210 basehttp 12396 140723022857984 "POST /api/features HTTP/1.1" 200 5778
INFO 2022-12-18 06:53:12,744 basehttp 12396 140723022857984 "POST /api/features HTTP/1.1" 200 5637
INFO 2022-12-18 06:53:13,271 basehttp 12396 140723022857984 "POST /api/features HTTP/1.1" 200 5637
INFO 2022-12-18 06:53:13,791 basehttp 12396 140723022857984 "POST /api/features HTTP/1.1" 200 5515
INFO 2022-12-18 06:53:14,573 basehttp 12396 140723022857984 "POST /api/features HTTP/1.1" 200 4492
INFO 2022-12-18 06:53:15,803 basehttp 12396 140723022857984 "POST /api/features HTTP/1.1" 200 4506
INFO 2022-12-18 06:53:16,307 basehttp 12396 140723022857984 "POST /api/features HTTP/1.1" 200 6633
INFO 2022-12-18 06:53:16,963 basehttp 12396 140723022857984 "POST /api/features HTTP/1.1" 200 4495
INFO 2022-12-18 06:53:17,485 basehttp 12396 140723022857984 "POST /api/features HTTP/1.1" 200 4509
INFO 2022-12-18 06:53:17,987 basehttp 12396 140723022857984 "POST /api/features HTTP/1.1" 200 4537
INFO 2022-12-18 06:53:18,579 basehttp 12396 140723022857984 "POST /api/features HTTP/1.1" 200 4894
INFO 2022-12-18 07:05:36,001 basehttp 12396 140723022857984 "OPTIONS /api/features HTTP/1.1" 200 0
INFO 2022-12-18 07:05:36,501 basehttp 12396 140723022857984 "POST /api/features HTTP/1.1" 200 1872
INFO 2022-12-18 07:05:41,966 basehttp 12396 140723022857984 "OPTIONS /api/getNcbiBlastRemote HTTP/1.1" 200 0
INFO 2022-12-18 07:05:41,972 basehttp 12396 140723022857984 "POST /api/getNcbiBlastRemote HTTP/1.1" 200 3424
INFO 2022-12-18 07:06:16,196 autoreload 12396 140723086034752 /home/sukanta/plasmapper/ver3/plasmapper3/PlasMapper_API/plasmapperAPI/fsdSearch/Utility.py changed, reloading.
INFO 2022-12-18 07:06:16,805 autoreload 2342 139771906426688 Watching for file changes with StatReloader
INFO 2022-12-18 07:06:31,476 basehttp 2342 139771776075520 "POST /api/features HTTP/1.1" 200 1872
INFO 2022-12-18 07:06:35,009 basehttp 2342 139771776075520 "POST /api/getNcbiBlastRemote HTTP/1.1" 200 85
INFO 2022-12-18 07:09:46,612 basehttp 2342 139771776075520 "POST /api/features HTTP/1.1" 200 1872
INFO 2022-12-18 07:10:30,483 basehttp 2342 139771776075520 "POST /api/features HTTP/1.1" 200 1872
INFO 2022-12-18 07:10:34,129 basehttp 2342 139771776075520 "POST /api/getNcbiBlastRemote HTTP/1.1" 200 85
INFO 2022-12-18 07:11:13,042 autoreload 2342 139771906426688 /home/sukanta/plasmapper/ver3/plasmapper3/PlasMapper_API/plasmapperAPI/fsdSearch/Utility.py changed, reloading.
INFO 2022-12-18 07:11:13,569 autoreload 2710 139677143009088 Watching for file changes with StatReloader
INFO 2022-12-18 07:12:09,941 basehttp 2710 139677080356608 "POST /api/getNcbiBlastRemote HTTP/1.1" 200 12106
INFO 2022-12-18 07:13:16,434 basehttp 2710 139677080356608 "POST /api/features HTTP/1.1" 200 1872
INFO 2022-12-18 07:19:16,208 basehttp 2710 139677080356608 "POST /api/getNcbiBlastRemote HTTP/1.1" 200 12106
INFO 2022-12-18 07:44:38,618 autoreload 3788 140214343960384 Watching for file changes with StatReloader
INFO 2022-12-18 07:44:47,752 basehttp 3788 140214280718080 "GET /api/plasmids/meta HTTP/1.1" 200 1241596
INFO 2022-12-18 07:45:10,134 basehttp 3788 140214252930816 "OPTIONS /api/plasmids/popularity HTTP/1.1" 200 0
INFO 2022-12-18 07:45:10,214 basehttp 3788 140214280718080 "GET /api/plasmids?name=pESC-LEU HTTP/1.1" 200 7774
INFO 2022-12-18 07:45:10,217 basehttp 3788 140214252930816 "POST /api/plasmids/popularity HTTP/1.1" 200 0
INFO 2022-12-18 07:45:10,974 basehttp 3788 140214252930816 "POST /api/features HTTP/1.1" 200 5515
INFO 2022-12-18 07:45:25,506 basehttp 3788 140214280718080 "POST /api/plasmids/popularity HTTP/1.1" 200 0
INFO 2022-12-18 07:45:25,506 basehttp 3788 140214252930816 "GET /api/plasmids?name=pcDNA3.1(%2B)%2Fmyc-His+A HTTP/1.1" 200 5509
INFO 2022-12-18 07:45:26,276 basehttp 3788 140214252930816 "POST /api/features HTTP/1.1" 200 6487
INFO 2022-12-18 07:45:35,084 basehttp 3788 140214252930816 "GET /api/plasmids?name=pcDNA3.1(%2B)%2Fmyc-His+A HTTP/1.1" 200 5509
INFO 2022-12-18 07:45:36,030 basehttp 3788 140214252930816 "POST /api/features HTTP/1.1" 200 6487
INFO 2022-12-18 07:46:22,290 basehttp 3788 140214252930816 "GET /api/plasmids/meta HTTP/1.1" 200 1241596
INFO 2022-12-18 07:46:25,760 basehttp 3788 140214252930816 "GET /api/plasmids?name=pFastBac+Dual HTTP/1.1" 200 5254
INFO 2022-12-18 07:46:25,776 basehttp 3788 140214280718080 "POST /api/plasmids/popularity HTTP/1.1" 200 0
INFO 2022-12-18 07:46:26,511 basehttp 3788 140214252930816 "POST /api/features HTTP/1.1" 200 4894
INFO 2022-12-18 07:46:28,507 basehttp 3788 140214252930816 "GET /api/plasmids?name=pFastBac+Dual HTTP/1.1" 200 5254
INFO 2022-12-18 07:46:29,252 basehttp 3788 140214252930816 "POST /api/features HTTP/1.1" 200 4894
INFO 2022-12-18 07:46:34,728 basehttp 3788 140214252930816 "GET /api/plasmids/meta HTTP/1.1" 200 1241596
INFO 2022-12-18 07:47:15,148 basehttp 3788 140214252930816 "GET /api/plasmids?name=pcDNA3.1(%2B)%2Fmyc-His+A HTTP/1.1" 200 5509
INFO 2022-12-18 07:47:15,217 basehttp 3788 140214252930816 "POST /api/plasmids/popularity HTTP/1.1" 200 0
INFO 2022-12-18 07:47:16,342 basehttp 3788 140214252930816 "POST /api/features HTTP/1.1" 200 6487
INFO 2022-12-18 07:47:18,139 basehttp 3788 140214252930816 "GET /api/plasmids?name=pcDNA3.1(%2B)%2Fmyc-His+A HTTP/1.1" 200 5509
INFO 2022-12-18 07:47:18,197 basehttp 3788 140214252930816 "POST /api/plasmids/popularity HTTP/1.1" 200 0
INFO 2022-12-18 07:47:19,248 basehttp 3788 140214252930816 "POST /api/features HTTP/1.1" 200 6487
INFO 2022-12-18 08:28:35,309 basehttp 3788 140214252930816 "POST /api/getNcbiBlastRemote HTTP/1.1" 200 102
INFO 2022-12-18 08:30:17,978 basehttp 3788 140214252930816 "GET /api/plasmids/meta HTTP/1.1" 200 1241596
INFO 2022-12-19 01:04:07,929 autoreload 12650 139855926593344 Watching for file changes with StatReloader
INFO 2022-12-19 01:04:53,025 autoreload 12650 139855926593344 /home/sukanta/plasmapper/ver3/plasmapper3/PlasMapper_API/plasmapperAPI/plasmapperAPI/settings.py changed, reloading.
INFO 2022-12-19 01:04:53,741 autoreload 12946 140310235776832 Watching for file changes with StatReloader
INFO 2022-12-19 03:30:46,084 autoreload 19516 139759084963648 Watching for file changes with StatReloader
INFO 2022-12-19 03:31:15,743 autoreload 19750 140162580678464 Watching for file changes with StatReloader
INFO 2022-12-19 03:34:58,077 basehttp 19750 140162517436160 "GET /api/plasmids/meta HTTP/1.1" 200 1241596
INFO 2022-12-19 03:35:00,869 basehttp 19750 140162517436160 "GET /api/plasmids?name=pcDNA3.1(%2B)%2Fmyc-His+A HTTP/1.1" 200 5509
INFO 2022-12-19 03:35:00,899 basehttp 19750 140162517436160 "OPTIONS /api/plasmids/popularity HTTP/1.1" 200 0
INFO 2022-12-19 03:35:00,921 basehttp 19750 140162517436160 "POST /api/plasmids/popularity HTTP/1.1" 200 0
INFO 2022-12-19 03:35:01,392 basehttp 19750 140162517436160 "OPTIONS /api/features HTTP/1.1" 200 0
INFO 2022-12-19 03:35:02,259 basehttp 19750 140162517436160 "POST /api/features HTTP/1.1" 200 6487
INFO 2022-12-19 03:35:04,127 basehttp 19750 140162517436160 "GET /api/plasmids?name=pcDNA3.1(%2B)%2Fmyc-His+A HTTP/1.1" 200 5509
INFO 2022-12-19 03:35:05,043 basehttp 19750 140162517436160 "POST /api/features HTTP/1.1" 200 6487
INFO 2022-12-19 03:35:09,769 basehttp 19750 140162517436160 "GET /api/plasmids/meta HTTP/1.1" 200 1241596
INFO 2022-12-19 03:35:13,911 basehttp 19750 140162517436160 "GET /api/plasmids?name=p415-GalL-Cas9-CYC1t HTTP/1.1" 200 10809
INFO 2022-12-19 03:35:14,033 basehttp 19750 140162517436160 "POST /api/plasmids/popularity HTTP/1.1" 200 0
INFO 2022-12-19 03:35:15,524 basehttp 19750 140162517436160 "POST /api/features HTTP/1.1" 200 8160
INFO 2022-12-19 03:35:16,728 basehttp 19750 140162517436160 "GET /api/plasmids?name=p415-GalL-Cas9-CYC1t HTTP/1.1" 200 10809
INFO 2022-12-19 03:35:17,788 basehttp 19750 140162517436160 "POST /api/features HTTP/1.1" 200 8160
INFO 2022-12-21 18:47:16,439 autoreload 1230 139939531786048 Watching for file changes with StatReloader
INFO 2022-12-21 19:04:03,800 basehttp 1230 139939468543744 "GET /api/plasmids/meta HTTP/1.1" 200 1241596
INFO 2022-12-21 19:06:18,431 basehttp 1230 139939468543744 "OPTIONS /api/features HTTP/1.1" 200 0
INFO 2022-12-21 19:06:19,395 basehttp 1230 139939468543744 "POST /api/features HTTP/1.1" 200 4436
INFO 2022-12-21 19:25:46,681 basehttp 1230 139939468543744 "POST /api/features HTTP/1.1" 200 4436
INFO 2022-12-21 19:30:10,845 basehttp 1230 139939468543744 "POST /api/features HTTP/1.1" 200 265
INFO 2022-12-21 20:23:35,974 basehttp 1230 139939468543744 "POST /api/features HTTP/1.1" 200 265
INFO 2022-12-21 20:39:01,592 basehttp 1230 139939468543744 "POST /api/features HTTP/1.1" 200 4436
INFO 2022-12-21 20:40:45,440 basehttp 1230 139939468543744 "POST /api/features HTTP/1.1" 200 4436
INFO 2022-12-21 20:41:47,097 basehttp 1230 139939468543744 "POST /api/features HTTP/1.1" 200 4436
INFO 2022-12-21 20:44:35,099 basehttp 1230 139939468543744 "POST /api/features HTTP/1.1" 200 4436
INFO 2022-12-21 20:48:45,142 basehttp 1230 139939468543744 "POST /api/features HTTP/1.1" 200 4436
INFO 2022-12-21 20:55:19,745 basehttp 1230 139939468543744 "POST /api/features HTTP/1.1" 200 265
INFO 2022-12-21 20:59:24,558 basehttp 1230 139939468543744 "GET /api/plasmids/meta HTTP/1.1" 200 1241596
INFO 2022-12-21 21:38:48,032 basehttp 1230 139939468543744 "OPTIONS /api/features HTTP/1.1" 200 0
INFO 2022-12-21 21:38:48,591 basehttp 1230 139939468543744 "POST /api/features HTTP/1.1" 200 4704
INFO 2022-12-21 21:42:39,360 basehttp 1230 139939468543744 "POST /api/features HTTP/1.1" 200 3961
INFO 2022-12-22 00:13:25,117 basehttp 1230 139939468543744 "GET /api/plasmids/meta HTTP/1.1" 200 1241596
INFO 2022-12-22 00:13:43,153 basehttp 1230 139939468543744 "GET /api/plasmids/meta HTTP/1.1" 200 1241596
INFO 2022-12-22 00:22:09,390 basehttp 1230 139939468543744 "GET /api/plasmids/meta HTTP/1.1" 200 1241596
INFO 2022-12-22 00:24:17,834 basehttp 1230 139939468543744 "GET /api/plasmids/meta HTTP/1.1" 200 1241596
INFO 2022-12-22 00:24:27,359 basehttp 1230 139939468543744 "GET /api/plasmids/meta HTTP/1.1" 200 1241596
INFO 2022-12-22 00:25:57,424 basehttp 1230 139939468543744 "GET /api/plasmids/meta HTTP/1.1" 200 1241596
INFO 2022-12-22 00:26:21,249 basehttp 1230 139939468543744 "GET /api/plasmids/meta HTTP/1.1" 200 1241596
INFO 2022-12-22 00:26:28,294 basehttp 1230 139939468543744 "GET /api/plasmids/meta HTTP/1.1" 200 1241596
INFO 2022-12-22 00:26:46,749 basehttp 1230 139939468543744 "GET /api/plasmids/meta HTTP/1.1" 200 1241596
INFO 2022-12-22 00:26:54,690 basehttp 1230 139939468543744 "GET /api/plasmids/meta HTTP/1.1" 200 1241596
INFO 2022-12-22 18:50:14,626 autoreload 16754 140635449329472 Watching for file changes with StatReloader
INFO 2022-12-22 19:02:28,843 basehttp 16754 140635386087168 "GET /api/plasmids/meta HTTP/1.1" 200 1241596
INFO 2022-12-22 19:03:12,686 basehttp 16754 140635386087168 "GET /api/plasmids/meta HTTP/1.1" 200 1241596
INFO 2022-12-22 19:03:22,472 basehttp 16754 140635386087168 "OPTIONS /api/features HTTP/1.1" 200 0
INFO 2022-12-22 19:03:23,504 basehttp 16754 140635386087168 "POST /api/features HTTP/1.1" 200 4436
INFO 2022-12-22 19:05:56,269 basehttp 16754 140635386087168 "POST /api/features HTTP/1.1" 200 4436
INFO 2022-12-22 19:06:50,656 basehttp 16754 140635386087168 "POST /api/features HTTP/1.1" 200 4436
INFO 2022-12-22 19:14:57,713 basehttp 16754 140635386087168 "POST /api/features HTTP/1.1" 200 4436
INFO 2022-12-22 20:05:01,840 basehttp 16754 140635386087168 "POST /api/features HTTP/1.1" 200 4436
INFO 2022-12-23 01:01:43,969 basehttp 16754 140635386087168 "OPTIONS /api/features HTTP/1.1" 200 0
INFO 2022-12-23 01:01:44,585 basehttp 16754 140635386087168 "POST /api/features HTTP/1.1" 200 4436
INFO 2022-12-23 01:31:00,361 basehttp 16754 140635386087168 "POST /api/features HTTP/1.1" 200 4436
INFO 2022-12-23 01:34:58,691 basehttp 16754 140635386087168 "POST /api/features HTTP/1.1" 200 4436
INFO 2022-12-23 01:52:48,766 autoreload 16754 140635449329472 /home/sukanta/plasmapper/ver3/plasmapper3/PlasMapper_API/plasmapperAPI/fsdSearch/Utility.py changed, reloading.
INFO 2022-12-23 01:52:57,148 autoreload 12536 140590020495168 Watching for file changes with StatReloader
INFO 2022-12-23 01:54:31,702 basehttp 12536 140589957318400 "POST /api/runCodonOptimization HTTP/1.1" 200 116
INFO 2022-12-23 02:28:02,754 autoreload 2065 139979225827136 Watching for file changes with StatReloader
INFO 2022-12-23 02:30:24,449 basehttp 2065 139979091019520 "POST /api/runCodonOptimization HTTP/1.1" 200 28567
INFO 2022-12-23 02:31:15,747 basehttp 2065 139979082565376 "OPTIONS /api/features HTTP/1.1" 200 0
INFO 2022-12-23 02:31:16,738 basehttp 2065 139979082565376 "POST /api/features HTTP/1.1" 200 4436
INFO 2022-12-23 02:40:03,142 basehttp 2065 139979082565376 "POST /api/features HTTP/1.1" 200 4436
INFO 2022-12-23 02:45:40,184 basehttp 2065 139979082565376 "OPTIONS /api/getNcbiBlastRemote HTTP/1.1" 200 0
INFO 2022-12-23 02:46:31,903 basehttp 2065 139979082565376 "POST /api/getNcbiBlastRemote HTTP/1.1" 200 10840
INFO 2022-12-23 02:57:47,457 basehttp 2065 139979082565376 "POST /api/features HTTP/1.1" 200 4436
INFO 2022-12-23 02:58:21,339 basehttp 2065 139979082565376 "POST /api/features HTTP/1.1" 200 4436
INFO 2022-12-23 02:58:27,147 basehttp 2065 139979082565376 "OPTIONS /api/runCodonOptimization HTTP/1.1" 200 0
INFO 2022-12-23 02:58:27,729 basehttp 2065 139979082565376 "POST /api/runCodonOptimization HTTP/1.1" 200 440
INFO 2022-12-23 03:04:12,049 basehttp 2065 139979082565376 "POST /api/features HTTP/1.1" 200 4436
INFO 2022-12-23 03:04:31,236 basehttp 2065 139979082565376 "POST /api/runCodonOptimization HTTP/1.1" 200 440
INFO 2022-12-23 03:04:52,666 basehttp 2065 139979082565376 "POST /api/features HTTP/1.1" 200 265
INFO 2022-12-23 03:04:59,069 basehttp 2065 139979082565376 "POST /api/features HTTP/1.1" 200 4436
INFO 2022-12-23 03:05:14,918 basehttp 2065 139979082565376 "POST /api/runCodonOptimization HTTP/1.1" 200 10233
INFO 2022-12-23 03:08:47,735 basehttp 2065 139979082565376 "POST /api/features HTTP/1.1" 200 4436
INFO 2022-12-23 03:08:52,523 basehttp 2065 139979082565376 "POST /api/runCodonOptimization HTTP/1.1" 200 440
INFO 2022-12-23 03:09:22,237 basehttp 2065 139979082565376 "POST /api/runCodonOptimization HTTP/1.1" 200 440
INFO 2022-12-23 03:16:47,650 basehttp 2065 139979082565376 "POST /api/features HTTP/1.1" 200 4436
INFO 2022-12-23 03:17:15,447 basehttp 2065 139979082565376 "POST /api/runCodonOptimization HTTP/1.1" 200 440
INFO 2022-12-23 03:18:32,263 basehttp 2065 139979082565376 "POST /api/runCodonOptimization HTTP/1.1" 200 941
INFO 2022-12-23 03:40:36,849 basehttp 2065 139979082565376 "POST /api/features HTTP/1.1" 200 4436
INFO 2022-12-23 03:40:47,746 basehttp 2065 139979082565376 "POST /api/runCodonOptimization HTTP/1.1" 200 5562
INFO 2022-12-23 03:44:14,059 basehttp 2065 139979082565376 "POST /api/features HTTP/1.1" 200 4436
INFO 2022-12-23 03:44:17,613 basehttp 2065 139979082565376 "POST /api/runCodonOptimization HTTP/1.1" 200 440
INFO 2022-12-23 03:44:27,911 basehttp 2065 139979082565376 "POST /api/runCodonOptimization HTTP/1.1" 200 960
INFO 2022-12-23 03:50:56,745 basehttp 2065 139979082565376 "POST /api/features HTTP/1.1" 200 4436
INFO 2022-12-23 03:51:00,903 basehttp 2065 139979082565376 "POST /api/runCodonOptimization HTTP/1.1" 200 440
INFO 2022-12-23 03:51:09,515 basehttp 2065 139979082565376 "POST /api/runCodonOptimization HTTP/1.1" 200 6182
INFO 2022-12-23 04:00:36,398 basehttp 2065 139979082565376 "POST /api/features HTTP/1.1" 200 4436
INFO 2022-12-23 04:00:44,191 basehttp 2065 139979082565376 "POST /api/runCodonOptimization HTTP/1.1" 200 1011
INFO 2022-12-23 04:03:19,181 basehttp 2065 139979082565376 "POST /api/features HTTP/1.1" 200 4436
INFO 2022-12-23 04:03:26,160 basehttp 2065 139979082565376 "POST /api/runCodonOptimization HTTP/1.1" 200 1011
INFO 2022-12-23 04:04:31,287 basehttp 2065 139979082565376 "POST /api/features HTTP/1.1" 200 4436
INFO 2022-12-23 04:04:36,611 basehttp 2065 139979082565376 "POST /api/runCodonOptimization HTTP/1.1" 200 1011
INFO 2022-12-23 04:05:00,282 basehttp 2065 139979082565376 "POST /api/features HTTP/1.1" 200 4436
INFO 2022-12-23 04:05:04,447 basehttp 2065 139979082565376 "POST /api/runCodonOptimization HTTP/1.1" 200 440
INFO 2022-12-23 04:14:42,451 basehttp 2065 139979082565376 "POST /api/features HTTP/1.1" 200 4436
INFO 2022-12-23 04:15:11,434 basehttp 2065 139979082565376 "POST /api/features HTTP/1.1" 200 4436
INFO 2022-12-23 04:16:09,174 basehttp 2065 139979082565376 "POST /api/runCodonOptimization HTTP/1.1" 200 442
INFO 2022-12-23 05:11:01,243 basehttp 2065 139979082565376 "OPTIONS /api/features HTTP/1.1" 200 0
INFO 2022-12-23 05:11:02,017 basehttp 2065 139979082565376 "POST /api/features HTTP/1.1" 200 4436
INFO 2022-12-23 18:00:06,258 basehttp 2065 139979082565376 "OPTIONS /api/features HTTP/1.1" 200 0
INFO 2022-12-23 18:00:07,208 basehttp 2065 139979082565376 "POST /api/features HTTP/1.1" 200 4436
INFO 2022-12-23 18:03:45,933 basehttp 2065 139979082565376 "GET /api/plasmids/meta HTTP/1.1" 200 1241596
INFO 2022-12-23 18:05:47,787 basehttp 2065 139979082565376 "GET /api/plasmids/meta HTTP/1.1" 200 1241596
INFO 2022-12-23 18:07:48,544 basehttp 2065 139979082565376 "GET /api/plasmids/meta HTTP/1.1" 200 1241596
INFO 2022-12-23 18:07:54,964 basehttp 2065 139979082565376 "GET /api/plasmids?name=pcDNA3.1(%2B)%2Fmyc-His+A HTTP/1.1" 200 5509
INFO 2022-12-23 18:07:54,975 basehttp 2065 139979082565376 "OPTIONS /api/plasmids/popularity HTTP/1.1" 200 0
INFO 2022-12-23 18:07:54,992 basehttp 2065 139979082565376 "POST /api/plasmids/popularity HTTP/1.1" 200 0
INFO 2022-12-23 18:07:56,743 basehttp 2065 139979082565376 "POST /api/features HTTP/1.1" 200 6487
INFO 2022-12-23 18:09:09,642 basehttp 2065 139979082565376 "POST /api/features HTTP/1.1" 200 4436
INFO 2022-12-23 18:24:51,536 basehttp 2065 139979082565376 "POST /api/features HTTP/1.1" 200 4436
INFO 2022-12-23 18:27:09,533 basehttp 2065 139979082565376 "OPTIONS /api/getNcbiBlastRemote HTTP/1.1" 200 0
INFO 2022-12-23 18:27:59,915 basehttp 2065 139979082565376 "POST /api/getNcbiBlastRemote HTTP/1.1" 200 10840
INFO 2022-12-23 18:30:42,481 autoreload 2065 139979225827136 /home/sukanta/plasmapper/ver3/plasmapper3/PlasMapper_API/plasmapperAPI/fsdSearch/Utility.py changed, reloading.
INFO 2022-12-23 18:30:48,558 autoreload 19171 140092463187776 Watching for file changes with StatReloader
INFO 2022-12-23 18:31:02,332 basehttp 19171 140092400011008 "POST /api/features HTTP/1.1" 200 4436
INFO 2022-12-23 18:31:06,532 basehttp 19171 140092400011008 "OPTIONS /api/runCodonOptimization HTTP/1.1" 200 0
INFO 2022-12-23 18:31:07,808 basehttp 19171 140092400011008 "POST /api/runCodonOptimization HTTP/1.1" 200 440
INFO 2022-12-23 18:31:19,927 basehttp 19171 140092400011008 "POST /api/runCodonOptimization HTTP/1.1" 200 959
INFO 2022-12-23 18:33:31,036 basehttp 19171 140092400011008 "POST /api/features HTTP/1.1" 200 4436
INFO 2022-12-23 18:33:42,628 basehttp 19171 140092400011008 "POST /api/runCodonOptimization HTTP/1.1" 200 959
INFO 2022-12-23 18:36:33,066 autoreload 19171 140092463187776 /home/sukanta/plasmapper/ver3/plasmapper3/PlasMapper_API/plasmapperAPI/fsdSearch/Utility.py changed, reloading.
INFO 2022-12-23 18:36:33,783 autoreload 20229 139847458883392 Watching for file changes with StatReloader
INFO 2022-12-23 18:36:39,519 basehttp 20229 139847395706624 "POST /api/runCodonOptimization HTTP/1.1" 200 962
INFO 2022-12-23 18:43:12,054 basehttp 20229 139847395706624 "POST /api/features HTTP/1.1" 200 4436
INFO 2022-12-23 18:55:04,001 basehttp 20229 139847395706624 "POST /api/features HTTP/1.1" 200 4436
INFO 2022-12-23 19:07:30,864 basehttp 20229 139847395706624 "POST /api/features HTTP/1.1" 200 4436
INFO 2022-12-23 19:08:01,666 basehttp 20229 139847395706624 "POST /api/runCodonOptimization HTTP/1.1" 200 962
INFO 2022-12-23 19:08:43,726 basehttp 20229 139847395706624 "POST /api/runCodonOptimization HTTP/1.1" 200 962
INFO 2022-12-23 19:08:58,427 basehttp 20229 139847395706624 "POST /api/runCodonOptimization HTTP/1.1" 200 5573
INFO 2022-12-23 19:11:49,160 basehttp 20229 139847395706624 "POST /api/features HTTP/1.1" 200 4436
INFO 2022-12-23 19:11:59,669 basehttp 20229 139847395706624 "POST /api/runCodonOptimization HTTP/1.1" 200 962
INFO 2022-12-23 20:00:34,743 basehttp 20229 139847395706624 "OPTIONS /api/features HTTP/1.1" 200 0
INFO 2022-12-23 20:00:36,205 basehttp 20229 139847395706624 "POST /api/features HTTP/1.1" 200 4436
INFO 2022-12-23 20:00:44,931 basehttp 20229 139847395706624 "POST /api/runCodonOptimization HTTP/1.1" 200 962
INFO 2022-12-23 20:01:12,230 basehttp 20229 139847395706624 "POST /api/runCodonOptimization HTTP/1.1" 200 962
INFO 2022-12-23 20:16:18,969 basehttp 20229 139847395706624 "POST /api/runCodonOptimization HTTP/1.1" 200 5573
INFO 2022-12-23 20:17:00,893 basehttp 20229 139847395706624 "POST /api/runCodonOptimization HTTP/1.1" 200 3002
INFO 2022-12-23 20:17:14,910 basehttp 20229 139847395706624 "POST /api/runCodonOptimization HTTP/1.1" 200 2989
INFO 2022-12-23 20:24:43,846 basehttp 20229 139847395706624 "POST /api/features HTTP/1.1" 200 4436
INFO 2022-12-23 20:24:51,881 basehttp 20229 139847395706624 "POST /api/runCodonOptimization HTTP/1.1" 200 962
INFO 2022-12-23 20:24:59,047 basehttp 20229 139847395706624 "POST /api/runCodonOptimization HTTP/1.1" 200 941
INFO 2022-12-23 20:25:56,920 basehttp 20229 139847395706624 "POST /api/runCodonOptimization HTTP/1.1" 200 961
INFO 2022-12-23 20:26:05,549 basehttp 20229 139847395706624 "POST /api/runCodonOptimization HTTP/1.1" 200 951
INFO 2022-12-23 20:27:59,551 basehttp 20229 139847395706624 "POST /api/features HTTP/1.1" 200 4436
INFO 2022-12-23 20:28:06,550 basehttp 20229 139847395706624 "POST /api/runCodonOptimization HTTP/1.1" 200 962
INFO 2022-12-23 20:37:00,506 basehttp 20229 139847395706624 "OPTIONS /api/runCodonOptimization HTTP/1.1" 200 0
INFO 2022-12-23 20:37:01,460 basehttp 20229 139847395706624 "POST /api/runCodonOptimization HTTP/1.1" 200 962
INFO 2022-12-23 20:37:37,769 basehttp 20229 139847395706624 "POST /api/features HTTP/1.1" 200 4436
INFO 2022-12-23 20:37:46,186 basehttp 20229 139847395706624 "POST /api/runCodonOptimization HTTP/1.1" 200 962
INFO 2022-12-23 20:38:00,235 basehttp 20229 139847395706624 "POST /api/runCodonOptimization HTTP/1.1" 200 941
INFO 2022-12-23 20:42:38,267 basehttp 20229 139847395706624 "POST /api/features HTTP/1.1" 200 4436
INFO 2022-12-23 20:42:46,598 basehttp 20229 139847395706624 "POST /api/runCodonOptimization HTTP/1.1" 200 962
INFO 2022-12-23 20:43:18,655 basehttp 20229 139847395706624 "POST /api/runCodonOptimization HTTP/1.1" 200 962
INFO 2022-12-23 20:43:29,662 basehttp 20229 139847395706624 "POST /api/features HTTP/1.1" 200 4436
INFO 2022-12-23 20:43:36,774 basehttp 20229 139847395706624 "POST /api/runCodonOptimization HTTP/1.1" 200 962
INFO 2022-12-23 20:44:34,606 basehttp 20229 139847395706624 "POST /api/features HTTP/1.1" 200 4436
INFO 2022-12-23 20:44:42,182 basehttp 20229 139847395706624 "POST /api/runCodonOptimization HTTP/1.1" 200 962
INFO 2022-12-23 20:45:00,684 basehttp 20229 139847395706624 "POST /api/runCodonOptimization HTTP/1.1" 200 962
INFO 2022-12-23 20:45:00,892 basehttp 20229 139847386334976 "POST /api/runCodonOptimization HTTP/1.1" 200 962
INFO 2022-12-23 20:45:18,482 basehttp 20229 139847386334976 "POST /api/runCodonOptimization HTTP/1.1" 200 962
INFO 2022-12-23 20:45:20,567 basehttp 20229 139847386334976 "POST /api/runCodonOptimization HTTP/1.1" 200 962
INFO 2022-12-23 20:46:50,673 basehttp 20229 139847386334976 "POST /api/runCodonOptimization HTTP/1.1" 200 962
INFO 2022-12-23 20:48:37,733 basehttp 20229 139847386334976 "POST /api/runCodonOptimization HTTP/1.1" 200 2997
INFO 2022-12-23 20:50:01,687 basehttp 20229 139847386334976 "POST /api/features HTTP/1.1" 200 4436
INFO 2022-12-23 20:50:09,018 basehttp 20229 139847386334976 "POST /api/runCodonOptimization HTTP/1.1" 200 962
INFO 2022-12-23 20:53:05,095 basehttp 20229 139847386334976 "POST /api/features HTTP/1.1" 200 4436
INFO 2022-12-23 20:53:12,530 basehttp 20229 139847386334976 "POST /api/runCodonOptimization HTTP/1.1" 200 1011
INFO 2022-12-23 20:53:55,908 basehttp 20229 139847386334976 "POST /api/features HTTP/1.1" 200 4436
INFO 2022-12-23 20:54:02,122 basehttp 20229 139847386334976 "POST /api/runCodonOptimization HTTP/1.1" 200 1011
INFO 2022-12-23 20:54:25,724 basehttp 20229 139847386334976 "POST /api/features HTTP/1.1" 200 4436
INFO 2022-12-23 20:54:32,140 basehttp 20229 139847386334976 "POST /api/runCodonOptimization HTTP/1.1" 200 1011
INFO 2022-12-23 20:59:36,329 basehttp 20229 139847386334976 "POST /api/runCodonOptimization HTTP/1.1" 200 1011
INFO 2022-12-23 21:08:47,594 basehttp 20229 139847386334976 "POST /api/features HTTP/1.1" 200 4436
INFO 2022-12-23 21:08:54,031 basehttp 20229 139847386334976 "POST /api/runCodonOptimization HTTP/1.1" 200 962
INFO 2022-12-23 21:09:03,301 basehttp 20229 139847386334976 "POST /api/runCodonOptimization HTTP/1.1" 200 1462
INFO 2022-12-23 21:15:14,651 basehttp 20229 139847386334976 "POST /api/features HTTP/1.1" 200 4436
INFO 2022-12-23 21:15:46,563 basehttp 20229 139847386334976 "POST /api/runCodonOptimization HTTP/1.1" 200 962
INFO 2022-12-23 21:22:15,776 basehttp 20229 139847386334976 "POST /api/features HTTP/1.1" 200 4436
INFO 2022-12-23 21:23:31,765 basehttp 20229 139847386334976 "POST /api/features HTTP/1.1" 200 4436
INFO 2022-12-23 21:24:54,421 basehttp 20229 139847386334976 "POST /api/runCodonOptimization HTTP/1.1" 200 1011
INFO 2022-12-23 21:26:06,944 basehttp 20229 139847386334976 "POST /api/runCodonOptimization HTTP/1.1" 200 1582
INFO 2022-12-23 21:27:17,709 basehttp 20229 139847386334976 "POST /api/runCodonOptimization HTTP/1.1" 200 1582
INFO 2022-12-23 21:36:06,649 basehttp 20229 139847386334976 "POST /api/features HTTP/1.1" 200 4436
INFO 2022-12-23 21:36:14,187 basehttp 20229 139847386334976 "POST /api/runCodonOptimization HTTP/1.1" 200 491
INFO 2022-12-23 21:37:41,080 basehttp 20229 139847386334976 "POST /api/features HTTP/1.1" 200 4436
INFO 2022-12-23 21:37:48,313 basehttp 20229 139847386334976 "POST /api/runCodonOptimization HTTP/1.1" 200 529
INFO 2022-12-23 21:39:01,697 basehttp 20229 139847386334976 "POST /api/runCodonOptimization HTTP/1.1" 200 529
INFO 2022-12-23 21:39:24,404 basehttp 20229 139847386334976 "POST /api/runCodonOptimization HTTP/1.1" 200 529
INFO 2022-12-23 21:39:58,244 basehttp 20229 139847386334976 "POST /api/runCodonOptimization HTTP/1.1" 200 1480
INFO 2022-12-23 21:42:39,140 basehttp 20229 139847386334976 "POST /api/features HTTP/1.1" 200 4436
INFO 2022-12-23 21:42:46,266 basehttp 20229 139847386334976 "POST /api/runCodonOptimization HTTP/1.1" 200 579
INFO 2022-12-23 21:45:32,071 basehttp 20229 139847386334976 "POST /api/runCodonOptimization HTTP/1.1" 200 579
INFO 2022-12-23 21:46:43,369 basehttp 20229 139847386334976 "POST /api/runCodonOptimization HTTP/1.1" 200 739
INFO 2022-12-23 21:47:03,448 basehttp 20229 139847386334976 "POST /api/runCodonOptimization HTTP/1.1" 200 739
INFO 2022-12-23 21:55:07,725 basehttp 20229 139847386334976 "POST /api/features HTTP/1.1" 200 4436
INFO 2022-12-23 21:55:17,085 basehttp 20229 139847386334976 "POST /api/runCodonOptimization HTTP/1.1" 200 529
INFO 2022-12-23 21:55:50,485 basehttp 20229 139847386334976 "POST /api/runCodonOptimization HTTP/1.1" 200 529
INFO 2022-12-23 22:00:01,267 basehttp 20229 139847386334976 "POST /api/features HTTP/1.1" 200 4436
INFO 2022-12-23 22:00:22,109 basehttp 20229 139847386334976 "POST /api/features HTTP/1.1" 200 4436
INFO 2022-12-23 22:02:32,775 basehttp 20229 139847386334976 "OPTIONS /api/features HTTP/1.1" 200 0
INFO 2022-12-23 22:02:33,271 basehttp 20229 139847386334976 "POST /api/features HTTP/1.1" 200 4436
INFO 2022-12-23 22:04:52,925 basehttp 20229 139847386334976 "POST /api/features HTTP/1.1" 200 4436
INFO 2022-12-23 22:06:05,690 basehttp 20229 139847386334976 "POST /api/features HTTP/1.1" 200 4436
INFO 2022-12-23 22:06:47,701 basehttp 20229 139847386334976 "POST /api/features HTTP/1.1" 200 4436
INFO 2022-12-23 22:07:21,848 basehttp 20229 139847386334976 "POST /api/runCodonOptimization HTTP/1.1" 200 962
INFO 2022-12-23 22:07:45,084 basehttp 20229 139847386334976 "POST /api/features HTTP/1.1" 200 4436
INFO 2022-12-23 22:07:54,392 basehttp 20229 139847386334976 "POST /api/features HTTP/1.1" 200 4436
INFO 2022-12-23 22:08:08,443 basehttp 20229 139847386334976 "POST /api/runCodonOptimization HTTP/1.1" 200 689
INFO 2022-12-23 22:08:27,804 basehttp 20229 139847386334976 "POST /api/runCodonOptimization HTTP/1.1" 200 739
INFO 2022-12-23 22:08:44,152 basehttp 20229 139847386334976 "POST /api/runCodonOptimization HTTP/1.1" 200 802
INFO 2022-12-23 22:08:48,205 basehttp 20229 139847386334976 "POST /api/runCodonOptimization HTTP/1.1" 200 103
INFO 2022-12-23 22:11:24,729 basehttp 20229 139847386334976 "POST /api/features HTTP/1.1" 200 4436
INFO 2022-12-23 22:11:45,213 basehttp 20229 139847386334976 "POST /api/runCodonOptimization HTTP/1.1" 200 689
INFO 2022-12-23 22:11:54,167 basehttp 20229 139847386334976 "POST /api/runCodonOptimization HTTP/1.1" 200 802
INFO 2022-12-23 22:12:04,338 basehttp 20229 139847386334976 "POST /api/runCodonOptimization HTTP/1.1" 200 103
INFO 2022-12-23 22:13:09,429 autoreload 20229 139847458883392 /home/sukanta/plasmapper/ver3/plasmapper3/PlasMapper_API/plasmapperAPI/fsdSearch/Utility.py changed, reloading.
INFO 2022-12-23 22:13:16,727 autoreload 16173 140602908542784 Watching for file changes with StatReloader
INFO 2022-12-23 22:13:27,508 basehttp 16173 140602845431552 "POST /api/features HTTP/1.1" 200 4436
INFO 2022-12-23 22:13:34,749 basehttp 16173 140602845431552 "POST /api/runCodonOptimization HTTP/1.1" 200 689
INFO 2022-12-23 22:13:40,283 basehttp 16173 140602845431552 "POST /api/runCodonOptimization HTTP/1.1" 200 802
INFO 2022-12-23 22:13:44,101 basehttp 16173 140602845431552 "POST /api/runCodonOptimization HTTP/1.1" 200 198
INFO 2022-12-23 22:14:20,324 autoreload 16173 140602908542784 /home/sukanta/plasmapper/ver3/plasmapper3/PlasMapper_API/plasmapperAPI/fsdSearch/Utility.py changed, reloading.
INFO 2022-12-23 22:14:20,941 autoreload 16433 139853215827776 Watching for file changes with StatReloader
INFO 2022-12-23 22:15:28,999 basehttp 16433 139853152651008 "POST /api/features HTTP/1.1" 200 4436
INFO 2022-12-23 22:15:37,301 basehttp 16433 139853152651008 "POST /api/runCodonOptimization HTTP/1.1" 200 689
INFO 2022-12-23 22:15:43,123 basehttp 16433 139853152651008 "POST /api/runCodonOptimization HTTP/1.1" 200 799
INFO 2022-12-23 22:15:48,371 basehttp 16433 139853152651008 "POST /api/runCodonOptimization HTTP/1.1" 200 899
INFO 2022-12-23 22:16:11,358 basehttp 16433 139853152651008 "POST /api/runCodonOptimization HTTP/1.1" 200 1480
INFO 2022-12-23 22:22:50,898 basehttp 16433 139853152651008 "POST /api/features HTTP/1.1" 200 4436
INFO 2022-12-23 22:24:28,400 basehttp 16433 139853152651008 "POST /api/runCodonOptimization HTTP/1.1" 200 959
INFO 2022-12-24 03:19:25,926 autoreload 25362 140333604472640 Watching for file changes with StatReloader
INFO 2022-12-24 03:22:46,768 basehttp 25362 140333474121472 "OPTIONS /api/features HTTP/1.1" 200 0
INFO 2022-12-24 03:22:48,017 basehttp 25362 140333474121472 "POST /api/features HTTP/1.1" 200 4436
INFO 2022-12-24 03:44:50,512 basehttp 25362 140333474121472 "POST /api/features HTTP/1.1" 200 4436
INFO 2022-12-24 03:45:42,523 basehttp 25362 140333474121472 "POST /api/features HTTP/1.1" 200 4436
INFO 2022-12-24 03:52:29,294 basehttp 25362 140333474121472 "POST /api/features HTTP/1.1" 200 4436
INFO 2022-12-24 03:56:17,759 basehttp 25362 140333474121472 "POST /api/features HTTP/1.1" 200 4436
INFO 2022-12-24 03:56:42,327 basehttp 25362 140333474121472 "POST /api/features HTTP/1.1" 200 4436
INFO 2022-12-24 03:57:13,119 basehttp 25362 140333474121472 "POST /api/features HTTP/1.1" 200 4436
INFO 2022-12-24 03:58:35,985 basehttp 25362 140333474121472 "POST /api/features HTTP/1.1" 200 4436
INFO 2022-12-24 04:11:12,043 basehttp 25362 140333474121472 "GET /api/plasmids/meta HTTP/1.1" 200 1241596
INFO 2022-12-24 04:23:55,789 basehttp 25362 140333474121472 "POST /api/features HTTP/1.1" 200 4436
INFO 2022-12-24 04:24:53,159 basehttp 25362 140333474121472 "POST /api/features HTTP/1.1" 200 4704
INFO 2022-12-24 04:26:36,966 basehttp 25362 140333474121472 "GET /api/plasmids?name=pcDNA3.1(%2B) HTTP/1.1" 200 5444
INFO 2022-12-24 04:26:36,966 basehttp 25362 140333461735168 "OPTIONS /api/plasmids/popularity HTTP/1.1" 200 0
INFO 2022-12-24 04:26:36,991 basehttp 25362 140333461735168 "POST /api/plasmids/popularity HTTP/1.1" 200 0
INFO 2022-12-24 04:26:38,888 basehttp 25362 140333474121472 "POST /api/features HTTP/1.1" 200 6291
INFO 2022-12-24 04:27:41,061 basehttp 25362 140333474121472 "GET /api/plasmids?name=pcDNA3.1_FASN HTTP/1.1" 200 12954
INFO 2022-12-24 04:27:41,082 basehttp 25362 140333461735168 "POST /api/plasmids/popularity HTTP/1.1" 200 0
INFO 2022-12-24 04:27:41,968 basehttp 25362 140333461735168 "POST /api/features HTTP/1.1" 200 12554
INFO 2022-12-24 04:31:25,171 basehttp 25362 140333461735168 "GET /api/plasmids?name=pcDNA3.1(%2B) HTTP/1.1" 200 5444
INFO 2022-12-24 04:31:25,193 basehttp 25362 140333461735168 "POST /api/plasmids/popularity HTTP/1.1" 200 0
INFO 2022-12-24 04:31:26,200 basehttp 25362 140333461735168 "POST /api/features HTTP/1.1" 200 6291
INFO 2022-12-24 04:39:47,838 basehttp 25362 140333461735168 "GET /api/plasmids?name=pET-30+c+(%2B) HTTP/1.1" 200 5439
INFO 2022-12-24 04:39:47,841 basehttp 25362 140333474121472 "POST /api/plasmids/popularity HTTP/1.1" 200 0
INFO 2022-12-24 04:39:48,909 basehttp 25362 140333474121472 "POST /api/features HTTP/1.1" 200 5336
INFO 2022-12-24 09:13:44,530 basehttp 25362 140333474121472 "OPTIONS /api/features HTTP/1.1" 200 0
INFO 2022-12-24 09:13:45,799 basehttp 25362 140333474121472 "POST /api/features HTTP/1.1" 200 6291
INFO 2022-12-24 09:20:45,211 basehttp 25362 140333474121472 "POST /api/features HTTP/1.1" 200 6291
INFO 2022-12-24 09:33:38,248 basehttp 25362 140333474121472 "POST /api/features HTTP/1.1" 200 6291
INFO 2022-12-24 09:35:32,940 basehttp 25362 140333474121472 "POST /api/features HTTP/1.1" 200 6291
INFO 2022-12-24 09:38:41,535 basehttp 25362 140333474121472 "POST /api/features HTTP/1.1" 200 6291
INFO 2022-12-24 09:42:33,911 basehttp 25362 140333474121472 "POST /api/features HTTP/1.1" 200 6291
INFO 2022-12-24 09:43:48,877 basehttp 25362 140333474121472 "POST /api/features HTTP/1.1" 200 6291
INFO 2022-12-24 09:44:55,729 basehttp 25362 140333474121472 "POST /api/features HTTP/1.1" 200 3961
INFO 2022-12-24 09:45:08,205 basehttp 25362 140333474121472 "GET /api/plasmids/meta HTTP/1.1" 200 1241596
INFO 2022-12-24 09:45:11,190 basehttp 25362 140333474121472 "GET /api/plasmids?name=p415-GalL-Cas9-CYC1t HTTP/1.1" 200 10809
INFO 2022-12-24 09:45:11,268 basehttp 25362 140333474121472 "OPTIONS /api/plasmids/popularity HTTP/1.1" 200 0
INFO 2022-12-24 09:45:11,287 basehttp 25362 140333474121472 "POST /api/plasmids/popularity HTTP/1.1" 200 0
INFO 2022-12-24 09:45:13,760 basehttp 25362 140333474121472 "POST /api/features HTTP/1.1" 200 8160
INFO 2022-12-24 09:45:14,750 basehttp 25362 140333474121472 "GET /api/plasmids?name=p415-GalL-Cas9-CYC1t HTTP/1.1" 200 10809
INFO 2022-12-24 09:45:16,365 basehttp 25362 140333474121472 "POST /api/features HTTP/1.1" 200 8160
INFO 2022-12-24 09:45:46,433 basehttp 25362 140333474121472 "POST /api/features HTTP/1.1" 200 265
INFO 2022-12-24 09:46:05,755 basehttp 25362 140333474121472 "POST /api/features HTTP/1.1" 200 265
INFO 2022-12-24 09:46:20,538 basehttp 25362 140333474121472 "POST /api/features HTTP/1.1" 200 265
INFO 2022-12-24 09:46:37,125 basehttp 25362 140333474121472 "POST /api/features HTTP/1.1" 200 5336
INFO 2022-12-24 09:56:56,064 basehttp 25362 140333474121472 "GET /api/plasmids/meta HTTP/1.1" 200 1241596
INFO 2022-12-24 09:57:26,019 basehttp 25362 140333474121472 "POST /api/features HTTP/1.1" 200 6291
INFO 2022-12-24 10:04:14,515 basehttp 25362 140333474121472 "POST /api/features HTTP/1.1" 200 6291
INFO 2022-12-24 10:20:50,192 autoreload 5721 140197558093632 Watching for file changes with StatReloader
INFO 2022-12-24 22:09:55,130 autoreload 10212 140451117401920 Watching for file changes with StatReloader
INFO 2022-12-26 03:06:58,929 autoreload 2595 140568073668416 Watching for file changes with StatReloader
INFO 2022-12-31 03:58:25,198 autoreload 32007 140590606583616 Watching for file changes with StatReloader
ERROR 2022-12-31 03:58:31,292 log 32007 140590543341312 Internal Server Error: /api/features
Traceback (most recent call last):
  File "/home/sukanta/.local/lib/python3.8/site-packages/django/core/handlers/exception.py", line 47, in inner
    response = get_response(request)
  File "/home/sukanta/.local/lib/python3.8/site-packages/django/core/handlers/base.py", line 181, in _get_response
    response = wrapped_callback(request, *callback_args, **callback_kwargs)
  File "/home/sukanta/.local/lib/python3.8/site-packages/django/views/decorators/csrf.py", line 54, in wrapped_view
    return view_func(*args, **kwargs)
  File "/home/sukanta/.local/lib/python3.8/site-packages/django/views/generic/base.py", line 69, in view
    return self.dispatch(request, *args, **kwargs)
  File "/home/sukanta/.local/lib/python3.8/site-packages/rest_framework/views.py", line 509, in dispatch
    response = self.handle_exception(exc)
  File "/home/sukanta/.local/lib/python3.8/site-packages/rest_framework/views.py", line 469, in handle_exception
    self.raise_uncaught_exception(exc)
  File "/home/sukanta/.local/lib/python3.8/site-packages/rest_framework/views.py", line 480, in raise_uncaught_exception
    raise exc
  File "/home/sukanta/.local/lib/python3.8/site-packages/rest_framework/views.py", line 506, in dispatch
    response = handler(request, *args, **kwargs)
  File "/home/sukanta/.local/lib/python3.8/site-packages/rest_framework/decorators.py", line 50, in handler
    return func(*args, **kwargs)
  File "/home/sukanta/plasmapper/ver3/plasmapper3/PlasMapper_API/plasmapperAPI/fsdSearch/views.py", line 125, in doFsdSearch
    search = FSDSearch(inputFileName, outputFileName)
  File "/home/sukanta/plasmapper/ver3/plasmapper3/PlasMapper_API/plasmapperAPI/fsdSearch/FSDSearch.py", line 27, in __init__
    self.curateFeatures()
  File "/home/sukanta/plasmapper/ver3/plasmapper3/PlasMapper_API/plasmapperAPI/fsdSearch/FSDSearch.py", line 42, in curateFeatures
    file = open(self.outputFile, 'r')
FileNotFoundError: [Errno 2] No such file or directory: '/home/sukanta/plasmapper/ver3/plasmapper3/PlasMapper_API/plasmapperAPI/fsdSearch/temp/output1672459111263941.txt'
ERROR 2022-12-31 03:58:31,346 basehttp 32007 140590543341312 "POST /api/features HTTP/1.1" 500 145
INFO 2022-12-31 04:01:22,052 autoreload 32133 140078449493824 Watching for file changes with StatReloader
INFO 2022-12-31 04:01:26,530 basehttp 32133 140078386317056 "POST /api/features HTTP/1.1" 200 6341
INFO 2022-12-31 04:01:27,076 basehttp 32133 140078386317056 "POST /api/features HTTP/1.1" 200 6840
INFO 2022-12-31 04:01:27,637 basehttp 32133 140078386317056 "POST /api/features HTTP/1.1" 200 6296
INFO 2022-12-31 04:01:28,160 basehttp 32133 140078386317056 "POST /api/features HTTP/1.1" 200 6569
INFO 2022-12-31 04:01:28,727 basehttp 32133 140078386317056 "POST /api/features HTTP/1.1" 200 7467
INFO 2022-12-31 04:01:29,368 basehttp 32133 140078386317056 "POST /api/features HTTP/1.1" 200 7169
INFO 2022-12-31 04:01:29,889 basehttp 32133 140078386317056 "POST /api/features HTTP/1.1" 200 6441
INFO 2022-12-31 04:01:30,432 basehttp 32133 140078386317056 "POST /api/features HTTP/1.1" 200 7682
INFO 2022-12-31 04:01:30,955 basehttp 32133 140078386317056 "POST /api/features HTTP/1.1" 200 6840
INFO 2022-12-31 04:01:31,501 basehttp 32133 140078386317056 "POST /api/features HTTP/1.1" 200 5869
INFO 2022-12-31 04:01:32,037 basehttp 32133 140078386317056 "POST /api/features HTTP/1.1" 200 6540
INFO 2022-12-31 04:01:32,560 basehttp 32133 140078386317056 "POST /api/features HTTP/1.1" 200 5625
INFO 2022-12-31 04:01:33,122 basehttp 32133 140078386317056 "POST /api/features HTTP/1.1" 200 6241
INFO 2022-12-31 04:01:33,649 basehttp 32133 140078386317056 "POST /api/features HTTP/1.1" 200 6925
INFO 2022-12-31 04:01:34,164 basehttp 32133 140078386317056 "POST /api/features HTTP/1.1" 200 5092
INFO 2022-12-31 04:01:34,687 basehttp 32133 140078386317056 "POST /api/features HTTP/1.1" 200 4667
INFO 2022-12-31 04:01:35,207 basehttp 32133 140078386317056 "POST /api/features HTTP/1.1" 200 4638
INFO 2022-12-31 04:01:35,735 basehttp 32133 140078386317056 "POST /api/features HTTP/1.1" 200 5007
INFO 2022-12-31 04:01:36,249 basehttp 32133 140078386317056 "POST /api/features HTTP/1.1" 200 5092
INFO 2022-12-31 04:01:36,766 basehttp 32133 140078386317056 "POST /api/features HTTP/1.1" 200 5190
INFO 2022-12-31 04:01:37,278 basehttp 32133 140078386317056 "POST /api/features HTTP/1.1" 200 5538
INFO 2022-12-31 04:01:37,802 basehttp 32133 140078386317056 "POST /api/features HTTP/1.1" 200 5577
INFO 2022-12-31 04:21:54,373 basehttp 32133 140078386317056 "GET /api/plasmids/meta HTTP/1.1" 200 1256533
INFO 2022-12-31 04:30:11,687 basehttp 32133 140078386317056 "OPTIONS /api/features HTTP/1.1" 200 0
INFO 2022-12-31 04:30:12,450 basehttp 32133 140078386317056 "POST /api/features HTTP/1.1" 200 3961
INFO 2022-12-31 04:31:41,632 basehttp 32133 140078386317056 "POST /api/features HTTP/1.1" 200 6291
INFO 2022-12-31 04:31:46,373 basehttp 32133 140078386317056 "POST /api/features HTTP/1.1" 200 5336
INFO 2022-12-31 04:31:53,368 basehttp 32133 140078386317056 "POST /api/features HTTP/1.1" 200 3961
INFO 2022-12-31 04:33:24,571 basehttp 32133 140078386317056 "POST /api/features HTTP/1.1" 200 3961
INFO 2022-12-31 04:33:40,776 basehttp 32133 140078386317056 "POST /api/features HTTP/1.1" 200 3961
INFO 2022-12-31 04:36:26,554 basehttp 32133 140078357874432 "OPTIONS /api/plasmids/popularity HTTP/1.1" 200 0
INFO 2022-12-31 04:36:26,719 basehttp 32133 140078357874432 "POST /api/plasmids/popularity HTTP/1.1" 200 0
INFO 2022-12-31 04:36:26,720 basehttp 32133 140078386317056 "GET /api/plasmids?name=pcDNA3.1%2B%2FC-DYK HTTP/1.1" 200 5454
INFO 2022-12-31 04:36:27,685 basehttp 32133 140078386317056 "POST /api/features HTTP/1.1" 200 6341
INFO 2022-12-31 04:36:28,353 basehttp 32133 140078386317056 "GET /api/plasmids?name=pcDNA3.1%2B%2FC-DYK HTTP/1.1" 200 5454
INFO 2022-12-31 04:36:29,545 basehttp 32133 140078386317056 "POST /api/features HTTP/1.1" 200 6341
INFO 2022-12-31 04:36:58,190 basehttp 32133 140078386317056 "GET /api/plasmids/meta HTTP/1.1" 200 1256533
INFO 2022-12-31 04:37:03,775 basehttp 32133 140078386317056 "GET /api/plasmids?name=pcDNA3.1%2B%2F-FLI1-C%E2%80%90(K)%E2%80%90DYK HTTP/1.1" 200 6765
INFO 2022-12-31 04:37:04,934 basehttp 32133 140078386317056 "POST /api/features HTTP/1.1" 200 6840
INFO 2022-12-31 04:37:07,660 basehttp 32133 140078386317056 "GET /api/plasmids?name=pcDNA3.1%2B%2F-FLI1-C%E2%80%90(K)%E2%80%90DYK HTTP/1.1" 200 6765
INFO 2022-12-31 04:37:08,651 basehttp 32133 140078143702784 "GET /api/plasmids?name=pcDNA3.1%2B%2F-FLI1-C%E2%80%90(K)%E2%80%90DYK HTTP/1.1" 200 6765
INFO 2022-12-31 04:37:09,598 basehttp 32133 140078386317056 "POST /api/features HTTP/1.1" 200 6840
INFO 2022-12-31 04:37:10,074 basehttp 32133 140078143702784 "POST /api/features HTTP/1.1" 200 6840
INFO 2022-12-31 04:38:00,826 basehttp 32133 140078143702784 "GET /api/plasmids/meta HTTP/1.1" 200 1256533
INFO 2022-12-31 04:38:04,306 basehttp 32133 140078143702784 "GET /api/plasmids?name=pESC-HIS HTTP/1.1" 200 6722
INFO 2022-12-31 04:38:04,329 basehttp 32133 140078386317056 "POST /api/plasmids/popularity HTTP/1.1" 200 0
INFO 2022-12-31 04:38:05,072 basehttp 32133 140078386317056 "POST /api/features HTTP/1.1" 200 5577
INFO 2022-12-31 04:38:05,781 basehttp 32133 140078386317056 "GET /api/plasmids?name=pESC-HIS HTTP/1.1" 200 6722
INFO 2022-12-31 04:38:07,187 basehttp 32133 140078386317056 "POST /api/features HTTP/1.1" 200 5577
INFO 2022-12-31 04:39:08,430 basehttp 32133 140078386317056 "POST /api/features HTTP/1.1" 200 3961
INFO 2022-12-31 04:39:18,957 basehttp 32133 140078386317056 "GET /api/plasmids/meta HTTP/1.1" 200 1256533
INFO 2022-12-31 04:42:13,346 basehttp 32133 140078386317056 "GET /api/plasmids?name=pESC-HIS HTTP/1.1" 200 6722
INFO 2022-12-31 04:42:14,222 basehttp 32133 140078386317056 "POST /api/features HTTP/1.1" 200 5577
INFO 2022-12-31 04:42:20,696 basehttp 32133 140078386317056 "POST /api/features HTTP/1.1" 200 5007
INFO 2022-12-31 04:54:55,888 basehttp 32133 140078386317056 "GET /api/plasmids?name=pESC-HIS HTTP/1.1" 200 6722
INFO 2022-12-31 04:54:57,111 basehttp 32133 140078386317056 "POST /api/features HTTP/1.1" 200 5577
INFO 2022-12-31 05:01:56,375 basehttp 32133 140078386317056 "GET /api/plasmids?name=pESC-HIS HTTP/1.1" 200 6722
INFO 2022-12-31 05:01:57,905 basehttp 32133 140078386317056 "POST /api/features HTTP/1.1" 200 5577
INFO 2022-12-31 05:04:41,952 basehttp 32133 140078386317056 "GET /api/plasmids?name=pESC-HIS HTTP/1.1" 200 6722
INFO 2022-12-31 05:04:42,779 basehttp 32133 140078386317056 "POST /api/features HTTP/1.1" 200 5577
