Connected to NCBI
BLASTDB                                                      DESCRIPTION                                                                                                              SIZE (GB)      LAST_UPDATED
16S_ribosomal_RNA                                            16S ribosomal RNA (Bacteria and Archaea type strains)                                                                       0.0154      2022-11-29
18S_fungal_sequences                                         18S ribosomal RNA sequences (SSU) from Fungi type and reference material                                                    0.0022      2022-12-08
28S_fungal_sequences                                         28S ribosomal RNA sequences (LSU) from Fungi type and reference material                                                    0.0051      2022-12-08
Betacoronavirus                                              Betacoronavirus                                                                                                            48.0717      2022-09-08
ITS_RefSeq_Fungi                                             Internal transcribed spacer region (ITS) from Fungi type and reference material                                             0.0067      2022-10-28
ITS_eukaryote_sequences                                      ITS eukaryote BLAST                                                                                                         0.0331      2022-12-07
LSU_eukaryote_rRNA                                           Large subunit ribosomal nucleic acid for Eukaryotes                                                                         0.0053      2022-12-05
LSU_prokaryote_rRNA                                          Large subunit ribosomal nucleic acid for Prokaryotes                                                                        0.0041      2022-12-05
SSU_eukaryote_rRNA                                           Small subunit ribosomal nucleic acid for Eukaryotes                                                                         0.0063      2022-12-05
env_nt                                                       environmental samples                                                                                                      48.5948      2022-11-20
env_nr                                                       Proteins from WGS metagenomic projects (env_nr).                                                                            3.9451      2022-11-30
human_genome                                                 Homo sapiens GRCh38.p13 [GCF_000001405.39] chromosomes plus unplaced and unlocalized scaffolds                              1.1572      2021-06-02
landmark                                                     Landmark database for SmartBLAST                                                                                            0.3802      2021-10-03
mito                                                         NCBI Genomic Mitochondrial Reference Sequences                                                                              0.1129      2022-12-03
mouse_genome                                                 Mus musculus GRCm39 [GCF_000001635.27] chromosomes plus unplaced and unlocalized scaffolds                                  3.6543      2021-06-02
nr                                                           All non-redundant GenBank CDS translations+PDB+SwissProt+PIR+PRF excluding environmental samples from WGS projects        345.8733      2022-11-27
nt                                                           Nucleotide collection (nt)                                                                                                254.6325      2022-11-30
pataa                                                        Protein sequences derived from the Patent division of GenBank                                                               1.7502      2022-12-05
patnt                                                        Nucleotide sequences derived from the Patent division of GenBank                                                           15.5944      2022-12-04
pdbaa                                                        PDB protein database                                                                                                        0.1873      2022-11-30
pdbnt                                                        PDB nucleotide database                                                                                                     0.0144      2022-11-27
ref_euk_rep_genomes                                          RefSeq Eukaryotic Representative Genome Database                                                                          322.3484      2022-09-27
ref_prok_rep_genomes                                         Refseq prokaryote representative genomes (contains refseq assembly)                                                        18.6775      2022-11-28
ref_viroids_rep_genomes                                      Refseq viroids representative genomes                                                                                       0.0001      2022-06-25
ref_viruses_rep_genomes                                      Refseq viruses representative genomes                                                                                       0.1219      2022-11-28
refseq_select_rna                                            RefSeq Select RNA sequences                                                                                                 0.0448      2022-12-04
refseq_select_prot                                           RefSeq Select proteins                                                                                                     32.6014      2022-12-05
refseq_protein                                               NCBI Protein Reference Sequences                                                                                          136.7867      2022-12-05
refseq_rna                                                   NCBI Transcript Reference Sequences                                                                                        43.2335      2022-12-07
swissprot                                                    Non-redundant UniProtKB/SwissProt sequences                                                                                 0.3566      2022-11-30
tsa_nr                                                       Transcriptome Shotgun Assembly (TSA) sequences                                                                              4.8484      2022-11-30
tsa_nt                                                       Transcriptome Shotgun Assembly (TSA) sequences                                                                              6.3491      2022-11-22
taxdb                                                        Taxonomy database                                                                                                           0.1670      2021-06-07
